<?xml version="1.0" standalone="no"?>
<!DOCTYPE svg PUBLIC "-//W3C//DTD SVG 20010904//EN"
 "http://www.w3.org/TR/2001/REC-SVG-20010904/DTD/svg10.dtd">
<svg version="1.0" xmlns="http://www.w3.org/2000/svg"
 width="267.755583pt" height="239.976414pt" viewBox="0 0 267.755583 239.976414"
 preserveAspectRatio="xMidYMid meet">
<metadata>
Created by potrace 1.13, written by Peter Selinger 2001-2015
</metadata>
<g transform="translate(-2.291170,243.000000) scale(0.010000,-0.010000)"
fill="#000000" stroke="none">
<path d="M6150 23550 c0 -705 13 -750 219 -750 246 0 388 153 233 249 -56 35
-102 150 -102 257 0 140 69 194 250 194 183 0 250 -53 250 -200 0 -110 -45
-200 -100 -200 -55 0 -100 -67 -100 -150 0 -92 94 -150 244 -150 266 0 420
149 258 249 -132 81 -133 920 -2 1001 197 122 95 250 -200 250 -295 0 -397
-128 -200 -250 184 -114 103 -250 -150 -250 -156 0 -250 57 -250 150 0 83 45
150 100 150 55 0 100 45 100 100 0 55 -124 100 -275 100 l-275 0 0 -750z"/>
<path d="M21700 24206 c0 -52 45 -122 100 -156 131 -81 130 -920 -2 -1001
-162 -100 -8 -249 258 -249 150 0 244 58 244 150 0 83 -45 150 -100 150 -55 0
-100 90 -100 200 0 147 67 200 250 200 181 0 250 -54 250 -194 0 -107 -46
-222 -102 -257 -155 -96 -13 -249 233 -249 206 0 219 45 219 750 l0 750 -275
0 c-151 0 -275 -45 -275 -100 0 -55 45 -100 100 -100 55 0 100 -67 100 -150 0
-93 -94 -150 -250 -150 -253 0 -334 136 -150 250 197 122 95 250 -200 250
-165 0 -300 -42 -300 -94z"/>
<path d="M8864 23554 c-876 -313 -1407 -1142 -1411 -2204 -3 -590 41 -775 278
-1177 374 -636 928 -995 1629 -1053 l548 -45 -635 -663 c-728 -759 -1115
-1300 -1561 -2186 -336 -669 -757 -2065 -864 -2866 l-65 -490 -243 408 c-603
1013 -1820 1166 -2652 334 -1153 -1153 -415 -3312 1132 -3312 269 0 611 63
760 141 352 184 785 644 900 957 79 215 101 171 164 -331 39 -318 160 -898
269 -1289 158 -572 171 -727 67 -795 -72 -46 -456 -265 -855 -486 -525 -291
-725 -457 -725 -602 0 -229 542 -1347 700 -1445 58 -36 462 141 898 393 436
251 832 457 880 457 49 0 230 -198 404 -440 173 -241 584 -705 912 -1030 l597
-592 -478 0 c-975 0 -1713 -808 -1713 -1876 0 -1230 882 -2077 1990 -1911 352
53 550 163 873 485 672 672 808 1665 335 2443 l-196 323 574 -290 c2018 -1018
4126 -1006 6561 39 177 75 179 66 30 -161 -651 -995 79 -2665 1243 -2839 1108
-166 1990 681 1990 1911 0 1013 -708 1840 -1603 1873 -218 8 -396 23 -396 32
-1 9 265 283 590 608 1379 1379 2491 3814 2514 5507 l5 368 206 -426 c893
-1839 3313 -1185 3317 897 1 1062 -753 1879 -1733 1879 -633 0 -1094 -276
-1455 -871 l-304 -502 -114 830 c-245 1799 -1031 3426 -2292 4746 l-738 772
546 45 c1817 151 2569 2573 1219 3924 -846 845 -1928 834 -2764 -29 -728 -751
-906 -1771 -462 -2648 130 -257 226 -467 213 -467 -13 0 -266 105 -562 234
-988 429 -1474 516 -2887 514 -1363 -1 -1819 -99 -3229 -697 -161 -68 -159
-41 29 276 509 863 345 2021 -393 2782 -635 654 -1265 822 -2043 545z m1490
-657 c167 -103 408 -373 536 -600 193 -344 225 -521 191 -1054 -45 -710 -228
-1042 -780 -1418 -391 -266 -1066 -300 -1501 -75 -983 508 -1208 1997 -433
2856 554 613 1287 720 1987 291z m9638 205 c982 -281 1482 -1540 1017 -2562
-383 -843 -1493 -1209 -2200 -724 -564 387 -745 715 -790 1427 -34 531 -2 710
189 1050 240 427 545 679 983 811 359 109 415 109 801 -2z m-3434 -3246 c2494
-791 4389 -2938 5053 -5726 176 -741 202 -1093 162 -2230 -57 -1617 -201
-2198 -890 -3600 -448 -912 -635 -1169 -1424 -1959 -763 -763 -1061 -983
-1859 -1377 -522 -257 -1265 -534 -1650 -614 -3658 -764 -7236 1613 -8353
5550 -306 1076 -374 2810 -153 3906 921 4560 5088 7327 9114 6050z m-10782
-6255 c924 -564 980 -2077 100 -2734 -410 -306 -1062 -329 -1467 -51 -575 394
-756 722 -756 1368 0 1264 1133 2020 2123 1417z m19000 0 c482 -294 723 -755
724 -1381 0 -971 -563 -1620 -1407 -1620 -673 0 -1229 481 -1382 1193 -294
1369 970 2475 2065 1808z m-17081 -5392 l299 -591 -799 -453 -798 -452 -249
490 c-136 270 -248 548 -248 619 0 93 1090 810 1474 968 13 6 157 -256 321
-581z m2543 -3502 c930 -576 948 -2152 32 -2711 -987 -602 -2170 136 -2170
1354 0 648 393 1294 900 1479 333 122 941 62 1238 -122z m10122 -115 c380
-355 540 -724 540 -1242 0 -888 -590 -1550 -1383 -1550 -892 1 -1452 600
-1457 1557 -3 576 238 1042 701 1357 408 278 1239 214 1599 -122z"/>
<path d="M9277 22103 c-342 -268 -428 -686 -238 -1143 116 -276 209 -360 399
-360 277 0 562 235 562 464 0 323 -206 536 -519 536 -306 0 -308 4 -131 200
100 110 290 200 424 200 149 0 227 48 202 125 -69 208 -422 197 -699 -22z
m405 -986 c24 -161 -20 -217 -169 -217 -263 0 -362 171 -207 358 163 195 336
131 376 -141z"/>
<path d="M19370 22174 c-292 -98 -321 -346 -35 -295 135 24 165 -61 165 -475
0 -437 -26 -504 -200 -504 -111 0 -200 -67 -200 -150 0 -113 122 -150 494
-150 557 0 745 152 367 296 -228 86 -255 157 -281 733 l-30 638 -280 -93z"/>
<path d="M4700 12570 l0 -430 358 42 c343 40 356 30 325 -245 -27 -234 -79
-285 -283 -278 -137 5 -295 27 -350 50 -228 94 -157 -169 77 -285 343 -170
747 -13 831 323 87 347 -188 753 -510 753 -154 0 -248 57 -248 150 0 105 106
150 350 150 193 0 350 45 350 100 0 55 -202 100 -450 100 l-450 0 0 -430z"/>
<path d="M23704 12807 c-137 -256 -131 -307 35 -307 77 0 166 68 197 150 76
197 354 192 431 -7 39 -102 -86 -306 -353 -579 -228 -232 -414 -501 -414 -598
0 -150 78 -172 517 -146 613 36 813 280 230 280 l-370 0 361 400 c391 433 416
512 258 807 -71 133 -209 193 -446 193 -237 0 -375 -60 -446 -193z"/>
<path d="M9203 3675 c-384 -669 -381 -773 22 -783 179 -4 269 -30 200 -58
-247 -100 -118 -234 225 -234 193 0 350 45 350 100 0 55 -51 100 -112 100 -73
0 -64 58 25 166 107 130 109 176 12 209 -77 26 -125 229 -125 533 0 661 -206
650 -597 -33z m308 -404 c-173 -173 -239 -9 -98 245 115 210 132 215 167 48
21 -102 -10 -234 -69 -293z"/>
<path d="M19120 4080 c-205 -205 -134 -270 230 -211 271 44 350 23 350 -94 0
-84 -90 -175 -200 -204 -264 -69 -254 -200 25 -322 380 -167 280 -398 -175
-405 -454 -8 -515 -149 -122 -287 174 -61 348 -55 511 20 227 103 245 163 236
773 -8 522 -47 681 -186 756 -241 129 -525 118 -669 -26z"/>
<path d="M254 16707 c-31 -51 -12 -121 44 -156 133 -82 133 -920 0 -1002 -174
-108 0 -249 308 -249 331 0 344 23 172 299 -94 150 -95 224 -6 313 90 90 168
32 333 -247 209 -355 423 -462 541 -271 32 51 0 130 -71 175 -72 44 -214 213
-317 374 l-186 293 264 211 c341 272 333 353 -36 353 -228 0 -300 -46 -300
-189 0 -104 -68 -216 -150 -247 -167 -64 -208 89 -50 186 55 34 100 104 100
156 0 122 -570 123 -646 1z"/>
<path d="M2293 15433 c-170 -450 -47 -624 139 -196 198 455 199 463 66 463
-57 0 -149 -120 -205 -267z"/>
<path d="M25750 15199 c-35 -55 8 -127 94 -160 178 -69 225 -885 56 -989 -218
-135 -80 -250 300 -250 220 0 400 45 400 100 0 55 -90 100 -200 100 -111 0
-200 67 -200 150 0 85 90 150 207 150 533 0 787 492 436 843 -177 176 -993
218 -1093 56z m1000 -399 c0 -89 -111 -163 -275 -182 -224 -25 -275 8 -275
182 0 174 51 207 275 182 164 -19 275 -93 275 -182z"/>
<path d="M400 13650 c0 -85 89 -150 205 -150 183 0 203 -53 175 -475 -21 -329
-74 -475 -172 -475 -78 0 -160 -56 -183 -125 -30 -90 114 -125 517 -125 307 0
558 45 558 100 0 92 -142 141 -325 112 -41 -7 -75 208 -75 476 0 412 33 497
210 544 366 95 98 268 -416 268 -372 0 -494 -37 -494 -150z"/>
<path d="M2004 13654 c-220 -264 -83 -595 296 -717 193 -62 350 -174 350 -249
0 -206 -341 -227 -555 -33 -179 162 -195 162 -256 2 -82 -214 39 -334 361
-359 462 -37 592 1 701 203 148 277 -1 507 -414 640 -387 125 -442 294 -112
341 135 19 250 -31 286 -124 82 -216 239 -96 239 182 0 195 -55 229 -389 242
-232 10 -436 -42 -507 -128z"/>
<path d="M4775 7431 c-96 -25 -175 -113 -175 -195 0 -104 61 -130 200 -86 182
58 200 18 200 -436 0 -426 -30 -505 -204 -532 -392 -61 -195 -232 303 -262
399 -24 501 1 501 125 0 88 -86 155 -200 155 -179 0 -200 67 -200 650 0 664
-17 688 -425 581z"/>
<path d="M3156 7178 c-219 -312 -197 -837 44 -1078 260 -260 883 -276 960 -25
30 96 94 249 141 339 116 220 31 286 -368 286 -229 0 -333 -47 -333 -150 0
-83 89 -150 200 -150 110 0 200 -48 200 -106 0 -60 -142 -93 -325 -75 -306 29
-325 54 -325 420 0 490 243 689 527 432 256 -232 323 -215 323 79 0 229 -37
250 -444 250 -346 0 -479 -49 -600 -222z"/>
<path d="M7221 1888 c-121 -45 -221 -151 -221 -235 0 -181 115 -198 273 -40
131 131 427 48 427 -119 0 -62 -90 -136 -200 -165 -254 -67 -258 -232 -7 -298
231 -61 343 -297 187 -393 -61 -38 -265 -63 -453 -56 -229 8 -329 -28 -302
-110 54 -165 753 -215 932 -66 164 136 192 552 43 644 -67 41 -66 127 3 256
210 393 -214 755 -682 582z"/>
<path d="M22548 1798 c-138 -152 -155 -231 -69 -317 86 -86 130 -73 178 52 72
188 395 225 499 58 37 -60 -118 -298 -344 -529 -556 -566 -534 -662 146 -662
403 0 547 35 517 125 -26 77 -171 112 -379 90 l-337 -34 371 410 c421 466 426
484 214 787 -194 277 -555 286 -796 20z"/>
<path d="M21103 1703 c-233 -233 -276 -866 -78 -1133 170 -228 684 -316 888
-151 90 72 192 255 227 406 61 265 49 275 -338 275 -425 0 -558 -164 -177
-218 309 -44 237 -232 -89 -232 -351 0 -508 256 -380 620 120 342 498 431 695
163 126 -171 139 -171 201 -11 111 284 7 406 -379 445 -271 28 -421 -15 -570
-164z"/>
<path d="M5565 1617 c-228 -252 -218 -938 18 -1152 188 -169 679 -219 879 -88
62 40 145 219 183 398 69 318 64 325 -281 325 -401 0 -591 -186 -274 -268 383
-100 225 -294 -190 -234 -320 47 -409 578 -143 845 196 196 289 197 479 7 221
-222 364 -183 364 100 0 228 -38 250 -435 250 -293 0 -488 -59 -600 -183z"/>
</g>
</svg>
