<?xml version="1.0" standalone="no"?>
<!DOCTYPE svg PUBLIC "-//W3C//DTD SVG 20010904//EN"
 "http://www.w3.org/TR/2001/REC-SVG-20010904/DTD/svg10.dtd">
<svg version="1.0" xmlns="http://www.w3.org/2000/svg"
 width="318.300272pt" height="273.815329pt" viewBox="0 0 318.300272 273.815329"
 preserveAspectRatio="xMidYMid meet">
<metadata>
Created by potrace 1.13, written by Peter Selinger 2001-2015
</metadata>
<g transform="translate(-1.881755,274.901820) scale(0.010000,-0.010000)"
fill="#000000" stroke="none">
<path d="M27322 27344 c-122 -85 -222 -220 -222 -300 0 -187 92 -182 313 18
202 183 487 121 487 -104 0 -82 -180 -293 -400 -470 -220 -177 -400 -404 -400
-505 0 -156 84 -183 558 -183 402 0 547 35 518 125 -23 69 -188 139 -367 157
l-325 32 358 348 c410 398 439 557 158 838 -241 241 -384 250 -678 44z"/>
<path d="M6765 27151 c-326 -327 -172 -670 361 -804 342 -86 365 -347 30 -347
-134 0 -272 45 -306 100 -120 194 -365 108 -332 -116 26 -174 113 -223 446
-254 771 -71 983 475 311 803 -206 101 -375 247 -375 325 0 189 391 183 464
-8 91 -237 236 -175 236 100 0 138 -56 251 -125 251 -69 1 -220 27 -335 58
-126 34 -276 -9 -375 -108z"/>
<path d="M24100 27211 c0 -49 68 -116 150 -147 213 -82 208 -920 -6 -1003
-269 -103 -50 -261 362 -261 284 0 394 42 394 150 0 83 -89 150 -200 150 -110
0 -200 45 -200 100 0 55 80 100 178 100 471 0 802 580 502 880 -138 138 -1180
165 -1180 31z m913 -218 c160 -85 176 -136 81 -250 -172 -207 -494 -181 -494
40 0 315 111 372 413 210z"/>
<path d="M25900 27100 c0 -111 -67 -200 -150 -200 -82 0 -150 -45 -150 -100 0
-55 65 -100 144 -100 98 0 154 -136 175 -425 26 -359 67 -430 266 -458 339
-48 736 71 691 206 -22 64 -194 119 -383 122 -298 4 -343 38 -343 255 0 198
57 257 275 282 349 40 362 218 16 218 -176 0 -277 65 -312 200 -29 110 -92
200 -141 200 -48 0 -88 -90 -88 -200z"/>
<path d="M5100 27100 c0 -55 90 -100 200 -100 173 0 200 -67 200 -500 0 -433
-27 -500 -200 -500 -111 0 -200 -67 -200 -150 0 -113 122 -150 494 -150 514 0
782 173 416 268 -177 47 -210 132 -210 544 0 421 27 488 200 488 110 0 200 45
200 100 0 55 -247 100 -550 100 -302 0 -550 -45 -550 -100z"/>
<path d="M21556 26380 c-522 -144 -1273 -899 -1434 -1442 -166 -559 -154
-1369 28 -1803 83 -198 150 -373 150 -390 0 -17 -259 125 -575 316 -2107 1268
-5052 1223 -7268 -111 -320 -193 -593 -350 -607 -350 -14 0 62 175 168 389
540 1092 8 2695 -1062 3198 -2226 1046 -4125 -2094 -2344 -3876 492 -492 934
-646 1692 -591 l583 42 -287 -328 c-471 -535 -1103 -1514 -1396 -2159 l-274
-603 -68 423 c-245 1533 -1705 2412 -3016 1817 -800 -363 -1247 -1155 -1244
-2199 5 -1267 818 -2208 1981 -2292 676 -49 1062 104 1630 648 l363 348 -96
-526 c-53 -290 -81 -1076 -63 -1748 l33 -1222 -380 344 c-470 425 -751 536
-1352 533 -905 -4 -1746 -630 -2004 -1490 -171 -573 -137 -1498 73 -1958 242
-531 902 -1112 1423 -1253 1085 -292 2282 464 2602 1643 l111 410 231 -521
c257 -580 961 -1672 1462 -2269 292 -347 301 -376 86 -261 -370 198 -1193 161
-1653 -75 -508 -260 -784 -559 -1041 -1124 -384 -849 -232 -1902 377 -2614
882 -1030 2210 -1033 3133 -9 600 666 763 1765 385 2598 -106 234 -174 425
-150 425 24 0 283 -153 575 -340 901 -577 1940 -946 3072 -1092 l250 -32 -256
-108 c-1178 -498 -1727 -2058 -1156 -3285 680 -1461 2423 -1750 3459 -573 580
660 755 1528 496 2462 -102 368 -797 1172 -1243 1437 -185 110 -177 120 104
125 741 14 2482 662 3251 1210 l290 206 -196 -430 c-382 -842 -185 -2103 432
-2765 639 -685 1758 -836 2553 -344 1246 770 1489 2550 501 3672 -610 693
-1512 925 -2335 600 -133 -52 -65 69 203 364 697 765 1352 1838 1703 2790 76
208 133 275 137 165 27 -717 733 -1758 1374 -2026 1043 -435 2337 136 2798
1236 163 389 175 1330 23 1878 -154 556 -908 1294 -1479 1448 -748 201 -1663
-102 -2137 -708 l-247 -315 49 1137 c26 626 4 1374 -49 1663 -107 573 -57 638
235 311 274 -309 927 -582 1390 -582 558 0 1148 295 1565 782 1291 1509 325
3943 -1565 3943 -550 0 -1159 -259 -1519 -644 -278 -299 -625 -1059 -632
-1385 -3 -183 -122 -27 -441 581 -240 457 -610 1042 -823 1300 -711 862 -694
801 -199 745 878 -99 1706 416 2129 1323 837 1797 -695 3830 -2509 3331z
m-11034 -384 c486 -135 936 -522 1193 -1025 305 -598 234 -1596 -154 -2155
-906 -1307 -2755 -955 -3261 621 -319 998 320 2274 1287 2566 368 112 510 111
935 -7z m12308 -31 c413 -173 914 -743 1071 -1218 180 -547 76 -1269 -261
-1812 -762 -1227 -2421 -1144 -3107 156 -854 1616 688 3546 2297 2874z m-5076
-2717 c3550 -906 5940 -4377 5713 -8298 -172 -2980 -1726 -5511 -4174 -6797
-4193 -2203 -9304 589 -10247 5597 -222 1183 -155 2982 151 4046 759 2634
2752 4689 5253 5415 778 226 2487 245 3304 37z m-10304 -2636 c495 -227 683
-434 958 -1057 255 -576 220 -1211 -100 -1839 -900 -1764 -3408 -1011 -3408
1024 0 674 94 933 516 1413 571 650 1273 808 2034 459z m18780 53 c413 -173
914 -743 1071 -1218 275 -833 -68 -1885 -778 -2386 -867 -613 -2059 -277
-2590 730 -851 1612 693 3544 2297 2874z m374 -6267 c600 -306 933 -882 979
-1696 42 -752 -142 -1241 -649 -1721 -961 -908 -2469 -439 -2920 909 -324 968
164 2179 1036 2568 440 197 1101 171 1554 -60z m-19229 -52 c475 -199 702
-409 938 -871 431 -846 326 -1809 -269 -2469 -450 -497 -816 -641 -1487 -586
-981 82 -1657 883 -1657 1965 0 1499 1236 2479 2475 1961z m3193 -5552 c1043
-394 1548 -1863 999 -2903 -531 -1007 -1723 -1343 -2590 -730 -999 706 -1162
2180 -343 3112 507 578 1252 779 1934 521z m12773 -272 c472 -328 775 -879
836 -1522 171 -1776 -1769 -2882 -3015 -1719 -1101 1029 -763 2974 604 3478
510 188 1091 101 1575 -237z m-6113 -2348 c1121 -855 992 -2851 -224 -3472
-1880 -959 -3563 1516 -2183 3210 73 90 289 261 481 381 502 314 1433 257
1926 -119z"/>
<path d="M9811 24637 c-407 -286 -154 -1124 304 -1004 102 26 185 6 185 -46 0
-121 -413 -275 -575 -213 -69 26 -125 -25 -125 -113 0 -251 525 -203 783 70
541 577 36 1731 -572 1306z m471 -413 c20 -138 -31 -249 -132 -288 -226 -87
-384 101 -301 360 88 278 390 227 433 -72z"/>
<path d="M21825 24734 c-219 -89 -149 -355 75 -284 182 58 200 18 200 -443 0
-440 -26 -507 -200 -507 -114 0 -200 -67 -200 -155 0 -125 104 -149 525 -125
526 30 723 202 300 262 -207 29 -225 84 -225 675 0 661 -66 742 -475 577z"/>
<path d="M6365 19417 c-189 -209 -215 -474 -56 -572 78 -49 78 -98 0 -176
-156 -156 -134 -429 48 -612 374 -374 1080 12 869 475 -69 152 -72 290 -7 405
69 124 51 244 -63 418 -192 292 -556 321 -791 62z m585 -317 c0 -82 -101 -164
-225 -182 -173 -25 -225 17 -225 182 0 165 52 207 225 182 124 -18 225 -99
225 -182z m31 -726 c25 -129 -33 -174 -224 -174 -244 0 -344 180 -187 337 121
120 376 19 411 -163z"/>
<path d="M25257 19543 c-170 -170 -212 -443 -68 -443 49 0 116 68 147 150 67
174 420 201 520 40 37 -60 -146 -326 -406 -590 -260 -264 -443 -530 -406 -590
37 -61 290 -110 562 -110 372 0 494 37 494 150 0 102 -102 150 -320 150 l-319
0 319 330 c478 493 401 1070 -143 1070 -122 0 -293 -71 -380 -157z"/>
<path d="M25525 13297 c-124 -50 -225 -160 -225 -244 0 -181 115 -198 273 -40
131 131 427 48 427 -119 0 -62 -90 -136 -200 -165 -273 -71 -251 -214 50 -329
138 -52 250 -164 250 -248 0 -159 -156 -198 -636 -159 -200 16 -273 -17 -242
-110 56 -170 749 -232 929 -82 91 75 135 318 129 711 -7 485 -47 624 -216 742
-237 166 -234 165 -539 43z"/>
<path d="M6200 12906 c0 -107 45 -222 100 -256 55 -34 100 -14 100 44 0 58
113 106 250 106 296 0 292 26 91 -667 -154 -528 -133 -771 50 -576 101 108
409 1149 409 1383 0 125 -109 160 -500 160 -428 0 -500 -28 -500 -194z"/>
<path d="M9645 7455 c-317 -317 -340 -960 -45 -1255 227 -227 332 -244 607
-96 276 147 266 750 -15 900 -114 61 -272 87 -350 57 -78 -30 -142 -20 -142
22 0 152 244 317 470 317 138 0 230 60 230 150 0 240 -480 179 -755 -95z m536
-881 c40 -207 -249 -346 -401 -194 -152 152 -13 441 194 401 95 -18 189 -112
207 -207z"/>
<path d="M22025 7115 c-177 -322 -293 -614 -257 -650 36 -36 204 -66 374 -68
260 -3 280 -19 131 -106 -242 -141 -123 -291 231 -291 l293 0 -59 775 c-33
426 -80 809 -105 850 -116 193 -313 27 -608 -510z m375 -165 c0 -154 -57 -250
-148 -250 -121 0 -127 45 -34 250 63 138 129 250 148 250 19 0 34 -112 34
-250z"/>
<path d="M15700 4848 c0 -458 4 -463 284 -401 330 72 556 -126 453 -395 -54
-140 -142 -161 -461 -110 -456 73 -492 -127 -51 -284 626 -221 1081 637 529
998 -135 89 -292 132 -350 97 -57 -36 -104 3 -104 85 0 95 117 161 325 181
492 47 389 227 -150 261 l-475 31 0 -463z"/>
<path d="M31239 21002 c-244 -99 -377 -366 -228 -459 56 -35 160 16 231 113
145 198 458 135 458 -91 0 -78 -180 -304 -400 -503 -566 -512 -532 -662 150
-662 422 0 550 35 550 150 0 105 -106 150 -353 150 l-354 0 354 310 c410 361
458 705 131 934 -250 175 -249 175 -539 58z"/>
<path d="M3575 20875 c-151 -50 -275 -158 -275 -240 0 -103 61 -129 200 -85
182 58 200 18 200 -436 0 -442 -26 -504 -225 -532 -423 -60 -226 -232 300
-262 421 -24 525 0 525 125 0 87 -85 155 -196 155 -172 0 -199 82 -225 684
l-29 683 -275 -92z"/>
<path d="M2064 20831 c-35 -36 -64 -143 -64 -239 0 -97 -56 -202 -125 -234
-100 -46 -100 -70 0 -116 69 -32 125 -203 125 -380 0 -177 54 -376 120 -442
219 -219 880 -118 880 134 0 97 -97 118 -350 77 -338 -55 -350 -46 -350 256 0
281 31 313 300 313 165 0 300 45 300 100 0 55 -135 100 -300 100 -230 0 -300
45 -300 194 0 209 -132 341 -236 237z"/>
<path d="M28240 20823 c-384 -256 -412 -1124 -42 -1322 220 -118 700 -131 869
-23 65 41 133 209 150 373 31 280 11 299 -309 299 -188 0 -360 -56 -383 -125
-24 -73 44 -125 167 -125 114 0 208 -40 208 -89 0 -143 -231 -192 -475 -101
-300 112 -322 731 -32 886 251 135 263 133 456 -60 192 -191 415 -46 317 207
-63 165 -715 221 -926 80z"/>
<path d="M29700 20708 c0 -105 -56 -218 -125 -250 -100 -46 -100 -70 0 -116
69 -32 125 -207 125 -388 0 -181 65 -383 143 -449 184 -152 778 -97 835 78 32
97 -47 124 -292 100 -314 -31 -338 -12 -367 292 -30 303 -11 325 275 325 168
0 306 45 306 100 0 55 -135 100 -300 100 -233 0 -300 44 -300 200 0 111 -67
200 -150 200 -82 0 -150 -86 -150 -192z"/>
<path d="M200 20706 c0 -52 45 -122 100 -156 130 -80 130 -820 0 -900 -219
-136 -97 -350 200 -350 298 0 433 239 182 323 -139 46 -37 377 116 377 58 0
180 -157 272 -350 100 -210 240 -350 349 -350 257 0 225 139 -119 516 -364
398 -367 436 -50 643 333 219 316 341 -50 341 -228 0 -300 -46 -300 -189 0
-104 -68 -216 -150 -247 -91 -35 -150 0 -150 89 0 81 45 147 100 147 55 0 100
45 100 100 0 55 -135 100 -300 100 -165 0 -300 -42 -300 -94z"/>
<path d="M3825 11097 c-279 -112 -294 -297 -25 -297 173 0 200 -67 200 -500 0
-433 -27 -500 -200 -500 -110 0 -200 -45 -200 -100 0 -55 248 -100 550 -100
303 0 550 45 550 100 0 55 -90 100 -200 100 -181 0 -200 67 -200 700 0 737
-31 775 -475 597z"/>
<path d="M31157 11043 c-177 -178 -210 -443 -54 -443 57 0 129 68 161 150 67
174 393 201 492 40 37 -60 -149 -330 -415 -599 -564 -573 -517 -719 220 -672
541 34 622 203 135 281 l-311 50 307 294 c474 452 385 1056 -155 1056 -122 0
-293 -71 -380 -157z"/>
<path d="M756 10878 c-163 -232 -208 -842 -77 -1047 221 -348 1121 -342 1121
8 0 80 27 216 61 303 49 128 -17 158 -350 158 -226 0 -411 -45 -411 -100 0
-55 87 -100 194 -100 107 0 220 -42 252 -93 88 -143 -130 -233 -400 -165 -489
123 -395 958 108 958 135 0 246 -45 246 -100 0 -55 68 -100 150 -100 91 0 150
93 150 234 0 207 -50 235 -444 250 -357 14 -474 -26 -600 -206z"/>
<path d="M2400 10911 c0 -104 -79 -220 -175 -257 -167 -65 -167 -74 0 -197
101 -75 175 -260 175 -440 0 -375 249 -540 653 -432 452 121 439 332 -18 296
-355 -29 -388 -9 -417 244 -28 247 0 275 275 275 206 0 307 49 307 150 0 100
-100 150 -300 150 -233 0 -300 44 -300 200 0 110 -45 200 -100 200 -55 0 -100
-85 -100 -189z"/>
<path d="M27938 10981 c-40 -66 -20 -137 44 -158 69 -23 118 -241 118 -523 0
-282 -49 -500 -118 -523 -194 -64 12 -277 268 -277 256 0 462 213 268 277
-175 59 -143 423 37 423 85 0 222 -160 304 -357 98 -234 205 -345 312 -325
201 40 296 282 110 282 -75 0 -220 157 -323 349 l-188 349 266 209 c288 226
269 393 -44 393 -116 0 -235 -99 -288 -240 -110 -288 -304 -431 -304 -224 0
81 53 165 118 187 194 64 -12 277 -268 277 -131 0 -271 -54 -312 -119z"/>
<path d="M29800 10911 c0 -104 -79 -220 -175 -257 -163 -64 -163 -77 -8 -191
92 -68 182 -274 200 -458 41 -419 275 -582 645 -451 434 153 417 346 -29 319
-350 -21 -386 1 -415 252 -28 247 0 275 275 275 206 0 307 49 307 150 0 100
-100 150 -300 150 -233 0 -300 44 -300 200 0 110 -45 200 -100 200 -55 0 -100
-85 -100 -189z"/>
<path d="M24000 4417 c0 -46 29 -113 64 -148 36 -35 65 -269 65 -519 0 -250
-29 -484 -65 -519 -141 -141 -49 -231 236 -231 295 0 397 128 200 250 -55 34
-100 149 -100 256 0 140 69 194 250 194 181 0 250 -54 250 -194 0 -107 -45
-222 -100 -256 -191 -118 -99 -250 175 -250 l275 0 0 750 0 750 -275 0 c-274
0 -366 -132 -175 -250 199 -123 101 -350 -150 -350 -251 0 -349 227 -150 350
197 122 95 250 -200 250 -165 0 -300 -37 -300 -83z"/>
<path d="M8075 4331 c-96 -25 -175 -113 -175 -195 0 -104 61 -130 200 -86 182
58 200 18 200 -443 0 -440 -26 -507 -200 -507 -111 0 -200 -67 -200 -150 0
-113 122 -150 494 -150 514 0 782 173 416 268 -186 49 -210 129 -210 694 0
672 -25 700 -525 569z"/>
<path d="M4900 4206 c0 -52 45 -122 100 -156 55 -34 100 -259 100 -500 0 -241
-45 -466 -100 -500 -227 -140 -73 -250 350 -250 460 0 620 174 250 271 -110
29 -200 92 -200 141 0 48 90 88 200 88 231 0 600 334 600 543 0 285 -304 457
-807 457 -271 0 -493 -42 -493 -94z m981 -381 c-18 -96 -134 -189 -257 -207
-170 -24 -224 18 -224 175 0 156 64 207 257 207 191 0 249 -45 224 -175z"/>
<path d="M6700 4155 c0 -80 -79 -190 -175 -244 -164 -93 -164 -108 -6 -230 94
-72 184 -289 200 -481 28 -316 63 -353 363 -382 335 -32 659 134 563 290 -28
46 -155 45 -282 -3 -304 -115 -488 11 -447 306 25 176 107 247 309 271 371 42
351 218 -25 218 -233 0 -300 44 -300 200 0 110 -45 200 -100 200 -55 0 -100
-65 -100 -145z"/>
<path d="M15568 1634 c-37 -36 -16 -126 45 -200 67 -80 93 -360 65 -693 -35
-421 -11 -573 95 -614 220 -84 384 134 234 314 -165 199 -53 359 249 359 261
0 321 -183 124 -380 -174 -174 43 -358 320 -270 160 51 190 100 110 180 -138
138 -145 1037 -8 1121 162 100 8 249 -258 249 -246 0 -340 -229 -144 -350 183
-113 103 -250 -144 -250 -266 0 -420 149 -258 249 193 119 106 351 -131 351
-129 0 -263 -30 -299 -66z"/>
</g>
</svg>
