<?xml version="1.0" standalone="no"?>
<!DOCTYPE svg PUBLIC "-//W3C//DTD SVG 20010904//EN"
 "http://www.w3.org/TR/2001/REC-SVG-20010904/DTD/svg10.dtd">
<svg version="1.0" xmlns="http://www.w3.org/2000/svg"
 width="211.697645pt" height="214.067638pt" viewBox="0 0 211.697645 214.067638"
 preserveAspectRatio="xMidYMid meet">
<metadata>
Created by potrace 1.13, written by Peter Selinger 2001-2015
</metadata>
<g transform="translate(-5.871528,219.773400) scale(0.010000,-0.010000)"
fill="#000000" stroke="none">
<path d="M9750 21894 c-2368 -405 -4350 -1413 -6000 -3052 -1395 -1385 -2225
-2805 -2773 -4742 -919 -3248 -199 -6696 2015 -9650 248 -330 542 -682 654
-781 112 -100 384 -349 604 -554 572 -532 1410 -1060 2475 -1559 912 -427
2660 -944 3232 -956 161 -3 496 -9 743 -13 248 -4 653 -11 900 -16 844 -16
1945 208 3200 653 3226 1143 5626 3751 6555 7126 91 330 217 735 280 900 195
510 145 3359 -75 4300 -1025 4377 -4143 7383 -8608 8302 -712 147 -2457 170
-3202 42z m3150 -497 c303 -61 663 -131 800 -156 448 -83 1349 -377 1405 -459
31 -44 458 -276 950 -516 823 -401 1448 -881 2506 -1922 545 -536 2039 -2842
2039 -3146 0 -65 63 -260 141 -433 305 -682 576 -1752 630 -2484 55 -749 51
-768 -157 -714 -182 48 -214 130 -214 548 0 744 -210 750 -861 26 -646 -719
-678 -909 -164 -994 206 -34 498 -101 648 -149 163 -51 296 -48 331 8 32 52
145 94 252 94 534 0 -7 -2623 -918 -4455 -1745 -3507 -5495 -5721 -9466 -5588
-977 32 -2200 250 -2872 511 -220 86 -490 190 -600 231 -567 212 -1250 544
-1250 606 0 39 -145 131 -322 204 -734 304 -2165 1671 -2937 2805 -1196 1755
-1681 3246 -1803 5536 -155 2923 1081 5817 3392 7942 924 850 2623 1825 3820
2194 1219 376 3547 531 4650 311z m7600 -9647 c0 -82 -44 -150 -97 -150 -53 0
-71 68 -39 150 31 83 75 150 97 150 21 0 39 -67 39 -150z"/>
<path d="M10932 19443 c-530 -230 -832 -722 -832 -1358 0 -490 35 -580 342
-878 927 -898 2378 -138 2230 1168 -56 501 -432 970 -858 1072 -145 34 -331
79 -414 99 -82 19 -293 -27 -468 -103z m1143 -701 c276 -311 274 -573 -10
-1092 -235 -428 -347 -454 -1034 -238 -239 74 -349 189 -436 453 -85 259 -87
383 -6 464 61 61 111 173 111 248 0 522 956 636 1375 165z"/>
<path d="M13152 19138 c-284 -285 -147 -492 302 -456 319 25 372 7 271 -95
-179 -181 -154 -461 50 -575 148 -83 152 -107 25 -152 -82 -30 -240 -44 -350
-32 -289 32 -328 -379 -50 -528 281 -150 775 -33 908 215 66 123 80 444 37
845 -53 493 -118 680 -279 793 -278 194 -712 187 -914 -15z"/>
<path d="M17503 13117 c-719 -388 -985 -1180 -648 -1927 309 -687 1144 -903
1843 -477 461 281 580 454 658 957 162 1043 -967 1924 -1853 1447z m1311 -679
c281 -255 245 -852 -73 -1230 -706 -839 -2098 95 -1553 1042 102 178 272 314
417 333 135 19 283 71 330 116 113 108 645 -50 879 -261z"/>
<path d="M3650 13082 c-717 -401 -966 -1277 -554 -1952 276 -452 732 -664
1292 -601 542 61 943 444 1108 1056 138 512 -130 1183 -574 1440 -341 197
-971 225 -1272 57z m1197 -635 c412 -412 436 -623 128 -1093 -373 -569 -935
-614 -1435 -114 -501 501 -433 984 191 1365 458 279 715 242 1116 -158z"/>
<path d="M1564 12672 c-231 -168 -111 -489 174 -466 554 43 648 -205 171 -451
-160 -83 -387 -272 -504 -421 -171 -218 -187 -293 -83 -390 211 -197 959 -249
1130 -78 207 207 185 343 -67 409 -177 46 -190 76 -75 168 430 342 395 1032
-63 1240 -328 150 -467 147 -683 -11z"/>
<path d="M14434 7178 c-514 -166 -1042 -783 -1148 -1344 -141 -747 36 -1316
575 -1845 442 -433 458 -439 1135 -439 617 1 725 32 1066 308 1099 889 1109
2462 21 3168 -456 295 -1037 349 -1649 152z m1536 -653 c735 -681 785 -1342
154 -2041 -476 -527 -981 -658 -1550 -402 -623 280 -895 623 -944 1190 -76
878 575 1527 1531 1528 420 0 565 -49 809 -275z"/>
<path d="M14647 6195 c-36 -58 -86 -282 -110 -497 -48 -414 -39 -422 613 -520
358 -55 235 -328 -150 -333 -275 -3 -356 -49 -380 -211 -25 -168 38 -217 339
-266 442 -72 717 56 845 394 137 359 -125 827 -507 904 -161 32 -271 96 -242
142 28 46 118 58 199 26 195 -74 449 142 379 323 -65 169 -886 201 -986 38z"/>
<path d="M6550 7079 c-1276 -446 -1562 -2441 -465 -3252 920 -680 1892 -464
2665 594 252 344 302 1114 106 1627 -345 904 -1365 1360 -2306 1031z m1335
-537 c482 -288 665 -638 662 -1263 -3 -465 -49 -619 -250 -834 -396 -424 -772
-573 -1313 -521 -394 38 -545 113 -824 409 -588 623 -559 1465 71 2045 372
343 1213 426 1654 164z"/>
<path d="M6975 5775 c-79 -644 44 -1425 225 -1425 116 0 157 158 180 698 35
811 -30 1152 -218 1152 -84 0 -155 -161 -187 -425z"/>
</g>
</svg>
