<?xml version="1.0" standalone="no"?>
<!DOCTYPE svg PUBLIC "-//W3C//DTD SVG 20010904//EN"
 "http://www.w3.org/TR/2001/REC-SVG-20010904/DTD/svg10.dtd">
<svg version="1.0" xmlns="http://www.w3.org/2000/svg"
 width="204.355663pt" height="217.214779pt" viewBox="0 0 204.355663 217.214779"
 preserveAspectRatio="xMidYMid meet">
<metadata>
Created by potrace 1.13, written by Peter Selinger 2001-2015
</metadata>
<g transform="translate(-5.538363,219.000000) scale(0.010000,-0.010000)"
fill="#000000" stroke="none">
<path d="M9300 21362 c0 -311 -53 -579 -125 -636 -69 -54 -462 -176 -875 -270
-2404 -551 -4691 -2146 -6063 -4230 -704 -1070 -1072 -1876 -1416 -3108 -247
-882 -270 -1119 -267 -2668 3 -1401 41 -1841 215 -2500 204 -777 335 -1140
520 -1450 50 -82 241 -464 426 -847 184 -383 493 -907 685 -1164 553 -737
1618 -1889 1747 -1889 65 0 227 -117 361 -259 298 -319 1496 -1102 1624 -1062
51 16 166 -32 256 -107 256 -216 1736 -753 2012 -731 138 11 306 -21 374 -71
68 -51 192 -66 275 -34 83 32 151 18 151 -31 0 -75 633 -114 2050 -126 939 -8
2429 313 3117 672 156 81 320 148 366 148 149 1 1514 710 1617 840 55 69 235
211 400 315 395 249 1191 876 1234 972 18 42 213 267 432 500 1004 1068 1913
2915 2300 4674 55 248 148 617 206 820 66 228 85 881 50 1700 -45 1072 -116
1540 -366 2414 -642 2244 -1908 4095 -3756 5493 -753 570 -2621 1566 -2950
1573 -82 2 -487 108 -900 235 l-750 230 -53 443 c-29 243 -87 498 -130 567
-57 90 -456 125 -1423 125 l-1344 0 0 -538z m2361 61 c61 -40 142 -283 180
-540 79 -537 175 -640 659 -710 1326 -192 3753 -1329 4479 -2098 91 -96 213
-175 271 -175 58 0 172 -95 253 -210 81 -116 388 -465 683 -775 295 -311 669
-798 830 -1082 162 -284 359 -571 439 -637 80 -66 145 -179 145 -250 0 -71 63
-257 141 -413 828 -1665 1116 -3787 758 -5583 -54 -275 -144 -725 -199 -1000
-94 -467 -259 -915 -706 -1909 -214 -475 -435 -689 -605 -584 -193 119 -401
-241 -264 -460 94 -150 47 -262 -278 -664 -1770 -2189 -4289 -3479 -7199
-3685 -2723 -192 -5434 853 -7495 2890 -846 836 -1853 2191 -1853 2493 0 68
-64 216 -143 328 -164 235 -458 1084 -723 2091 -242 920 -236 3287 11 4194
327 1206 480 1617 837 2256 199 357 364 673 367 700 10 138 700 1020 1217
1556 618 641 1349 1244 1508 1244 52 0 168 80 256 178 89 98 501 353 916 567
415 213 754 428 754 477 0 49 47 61 104 25 58 -35 171 -9 253 59 81 67 173 97
205 66 31 -31 266 12 522 96 256 83 736 206 1066 272 l600 119 28 496 c15 272
48 551 72 620 48 138 1712 180 1911 48z"/>
<path d="M6233 17154 c-379 -165 -533 -420 -533 -884 0 -410 300 -828 642
-893 343 -66 984 312 1060 624 106 440 -39 832 -396 1073 -389 262 -361 259
-773 80z m710 -674 c131 -188 134 -251 19 -425 -266 -403 -862 -273 -862 187
0 469 569 629 843 238z"/>
<path d="M14107 16857 c-284 -293 -323 -390 -269 -675 74 -398 460 -874 753
-930 400 -77 774 139 962 554 486 1079 -631 1892 -1446 1051z m973 -277 c66
-66 120 -214 120 -330 0 -288 -187 -450 -518 -450 -212 0 -293 58 -340 244
-73 293 5 440 293 557 291 117 308 116 445 -21z"/>
<path d="M6624 13975 c-288 -292 -524 -607 -524 -700 0 -192 289 -375 595
-375 114 0 296 -55 405 -123 160 -100 224 -95 342 25 202 207 81 1632 -143
1675 -83 15 -386 -211 -675 -502z"/>
<path d="M13661 14242 c-130 -338 -65 -1414 93 -1546 92 -76 191 -91 245 -37
109 110 159 1466 60 1627 -102 165 -328 140 -398 -44z"/>
<path d="M6475 8931 c-249 -65 -217 -416 50 -538 141 -64 231 -199 240 -361 9
-142 76 -299 150 -349 91 -61 21 -82 -212 -62 -276 23 -355 -10 -386 -164 -84
-420 669 -612 1084 -276 205 165 217 233 150 811 -102 876 -382 1121 -1076
939z"/>
<path d="M13636 8749 c-76 -196 136 -449 376 -449 286 0 228 -135 -212 -488
-639 -514 -509 -883 316 -897 580 -9 802 189 538 481 -160 177 -161 210 -14
420 230 329 203 743 -62 928 -288 202 -866 205 -942 5z"/>
<path d="M5346 6741 c-53 -13 -221 -51 -374 -85 -186 -41 -331 -174 -441 -403
-151 -317 -150 -374 8 -787 120 -316 255 -481 463 -567 787 -326 1550 523
1156 1286 -149 287 -612 604 -812 556z m332 -597 c273 -191 285 -481 29 -737
-229 -229 -548 -176 -760 128 -191 272 -186 326 53 565 241 241 384 250 678
44z"/>
<path d="M15397 6530 c-542 -374 -631 -758 -302 -1299 264 -433 489 -536 944
-433 669 150 941 837 569 1438 -312 506 -749 612 -1211 294z m808 -535 c303
-303 114 -789 -308 -793 -223 -3 -597 285 -597 460 0 516 528 710 905 333z"/>
</g>
</svg>
