<?xml version="1.0" standalone="no"?>
<!DOCTYPE svg PUBLIC "-//W3C//DTD SVG 20010904//EN"
 "http://www.w3.org/TR/2001/REC-SVG-20010904/DTD/svg10.dtd">
<svg version="1.0" xmlns="http://www.w3.org/2000/svg"
 width="204.660834pt" height="212.756742pt" viewBox="0 0 204.660834 212.756742"
 preserveAspectRatio="xMidYMid meet">
<metadata>
Created by potrace 1.13, written by Peter Selinger 2001-2015
</metadata>
<g transform="translate(-4.608165,218.936405) scale(0.010000,-0.010000)"
fill="#000000" stroke="none">
<path d="M9800 21827 c-213 -81 -297 -236 -298 -554 -2 -311 -185 -413 -1048
-585 -277 -55 -594 -139 -704 -188 -110 -48 -312 -117 -450 -154 -732 -195
-2547 -1197 -3060 -1690 -61 -58 -361 -341 -666 -628 -625 -587 -1221 -1289
-1463 -1721 -1100 -1970 -1349 -2720 -1606 -4830 -196 -1613 265 -3758 1176
-5477 323 -610 1030 -1585 1409 -1944 170 -161 310 -352 310 -425 0 -72 40
-131 89 -131 49 0 262 -156 475 -347 841 -756 2260 -1653 2615 -1653 79 0 307
-87 507 -193 478 -254 1205 -472 2044 -614 834 -141 3279 -70 3770 109 519
190 630 225 850 263 263 47 450 127 1383 593 1088 545 1299 660 1430 784 63
59 243 198 400 308 252 176 1272 1194 1830 1824 242 274 1148 1799 1234 2076
33 110 176 515 317 900 603 1645 754 3818 380 5456 -232 1016 -899 2581 -1462
3433 -222 336 -878 1084 -1458 1661 -977 975 -1145 1096 -2304 1676 -802 402
-1590 711 -2200 865 l-950 239 -54 385 c-87 629 -101 636 -1277 627 -588 -4
-1136 -33 -1219 -65z m2023 -560 c40 -64 75 -238 75 -385 3 -378 212 -544 774
-610 863 -102 2465 -729 3199 -1251 170 -122 348 -222 394 -223 47 0 288 -180
535 -399 248 -218 522 -421 609 -450 87 -29 219 -164 292 -301 73 -136 170
-248 216 -248 46 0 83 -57 83 -126 0 -69 86 -180 191 -245 105 -66 419 -467
698 -891 2049 -3122 2110 -7104 156 -10336 -495 -819 -1769 -2213 -2426 -2655
-203 -137 -538 -378 -744 -537 -523 -402 -2093 -1072 -2981 -1272 -858 -193
-2865 -260 -3744 -124 -766 119 -2226 555 -2549 762 -136 88 -483 283 -771
434 -1372 722 -2939 2332 -3814 3918 -1178 2135 -1423 5568 -551 7722 389 961
683 1542 1086 2150 539 811 2331 2600 2605 2600 41 0 226 115 411 256 185 141
594 367 909 503 316 136 664 287 774 335 210 92 926 282 1350 358 1211 217
1200 211 1200 635 0 205 50 423 111 484 147 147 1809 56 1912 -104z"/>
<path d="M7236 18601 c-597 -241 -718 -1051 -225 -1511 170 -159 350 -296 400
-302 49 -7 145 -22 214 -32 218 -34 688 284 833 562 193 370 79 833 -279 1134
-304 256 -573 298 -943 149z m861 -725 c185 -332 73 -569 -335 -705 -490 -164
-823 341 -555 841 160 301 691 219 890 -136z"/>
<path d="M12945 18455 c-587 -588 -136 -1675 695 -1675 201 0 435 57 519 128
395 327 562 1076 313 1401 -350 455 -1142 530 -1527 146z m1098 -412 c318
-319 69 -807 -441 -866 -309 -35 -561 374 -465 755 56 225 121 268 408 268
187 0 411 -71 498 -157z"/>
<path d="M7773 16026 c-224 -248 -190 -1241 53 -1525 235 -274 876 -275 1124
-1 164 182 170 256 57 775 -174 805 -223 871 -672 905 -284 21 -442 -22 -562
-154z m627 -370 c0 -24 -45 -72 -100 -106 -55 -34 -100 -14 -100 44 0 58 45
106 100 106 55 0 100 -20 100 -44z m50 -756 c-34 -55 -104 -100 -156 -100 -52
0 -94 45 -94 100 0 55 70 100 156 100 86 0 128 -45 94 -100z"/>
<path d="M12479 15431 c-41 -732 40 -1031 279 -1031 234 0 162 1634 -74 1680
-139 26 -173 -81 -205 -649z"/>
<path d="M3036 14589 c-493 -252 -577 -1031 -161 -1488 362 -398 779 -469
1202 -205 556 346 672 1147 225 1552 -233 211 -968 292 -1266 141z m942 -445
c451 -315 160 -1044 -417 -1044 -519 0 -761 749 -339 1044 122 86 292 156 378
156 86 0 256 -70 378 -156z"/>
<path d="M17119 14350 c-405 -340 -467 -662 -230 -1197 162 -367 261 -460 603
-562 511 -153 826 -30 1108 432 259 424 252 738 -23 1140 -350 511 -978 591
-1458 187z m1056 -474 c175 -141 156 -476 -40 -693 -193 -213 -330 -227 -680
-67 -316 144 -330 441 -37 753 220 234 470 236 757 7z"/>
<path d="M5270 13466 c-82 -213 52 -332 454 -406 l373 -69 -259 -496 c-269
-515 -258 -833 27 -777 237 46 838 1476 719 1707 -116 223 -1231 258 -1314 41z"/>
<path d="M15004 13355 c-107 -129 -45 -423 96 -451 516 -102 645 -245 316
-349 -353 -112 -646 -522 -575 -805 61 -244 98 -258 587 -230 l522 30 9 450
c4 248 42 590 84 760 65 266 37 341 -197 525 -316 249 -669 278 -842 70z"/>
<path d="M5854 9545 c-515 -556 -397 -1660 185 -1728 603 -70 1001 752 586
1211 -96 107 -175 312 -175 456 0 364 -288 393 -596 61z m446 -1095 c0 -82
-63 -150 -139 -150 -77 0 -166 68 -197 150 -39 102 5 150 139 150 108 0 197
-67 197 -150z"/>
<path d="M14859 9537 c-72 -187 101 -437 303 -437 76 0 138 -93 138 -207 0
-113 50 -299 111 -413 101 -189 88 -202 -139 -145 -328 83 -578 -177 -363
-378 77 -73 266 -161 418 -197 217 -51 333 -9 536 194 217 217 247 312 184
578 -41 175 -72 430 -70 567 9 451 -146 601 -620 601 -310 0 -454 -47 -498
-163z"/>
<path d="M3138 8814 c-906 -567 -399 -2046 639 -1866 464 80 685 240 819 592
166 436 123 695 -171 1043 -354 419 -846 507 -1287 231z m1005 -471 c261 -261
198 -676 -133 -871 -160 -95 -359 -172 -443 -172 -204 0 -567 474 -567 740 0
386 837 608 1143 303z"/>
<path d="M17228 8930 c-339 -66 -728 -590 -728 -983 0 -416 186 -847 366 -847
74 0 134 -42 134 -94 0 -52 209 -125 464 -163 439 -66 481 -51 753 259 362
415 433 695 287 1137 -86 261 -223 401 -541 555 -235 113 -446 200 -470 192
-23 -7 -143 -33 -265 -56z m752 -650 c172 -172 148 -583 -45 -797 -207 -228
-611 -236 -852 -18 -224 203 -232 420 -27 713 173 248 718 308 924 102z"/>
<path d="M8324 7275 c-56 -69 -131 -266 -168 -439 -58 -272 -27 -343 229 -525
163 -116 345 -211 405 -211 61 0 110 -45 110 -100 0 -103 -126 -135 -416 -107
-406 40 -309 -463 99 -516 355 -46 790 202 863 492 63 251 -162 780 -369 866
-93 39 -80 83 48 164 218 138 226 360 17 440 -267 103 -712 68 -818 -64z"/>
<path d="M12117 6840 c-284 -307 -517 -617 -517 -688 0 -164 418 -441 663
-441 103 0 300 -28 437 -61 366 -90 478 170 404 931 -56 562 -181 811 -412
817 -31 1 -290 -250 -575 -558z"/>
<path d="M7248 4860 c-444 -193 -648 -740 -490 -1310 75 -267 482 -558 922
-657 326 -73 387 -50 681 262 407 432 502 832 294 1236 -165 318 -614 612
-925 605 -99 -2 -316 -63 -482 -136z m862 -467 c329 -234 372 -532 127 -882
-135 -192 -225 -223 -509 -177 -190 31 -409 109 -487 173 -151 126 -187 566
-62 763 61 96 426 291 606 324 19 3 165 -87 325 -201z"/>
<path d="M12834 4607 c-741 -452 -532 -1705 310 -1863 1054 -197 1659 1059
858 1781 -361 325 -727 351 -1168 82z m918 -445 c258 -258 283 -627 57 -853
-544 -544 -1278 102 -905 798 123 229 640 263 848 55z"/>
</g>
</svg>
