<?xml version="1.0" standalone="no"?>
<!DOCTYPE svg PUBLIC "-//W3C//DTD SVG 20010904//EN"
 "http://www.w3.org/TR/2001/REC-SVG-20010904/DTD/svg10.dtd">
<svg version="1.0" xmlns="http://www.w3.org/2000/svg"
 width="207.926468pt" height="206.026315pt" viewBox="0 0 207.926468 206.026315"
 preserveAspectRatio="xMidYMid meet">
<metadata>
Created by potrace 1.13, written by Peter Selinger 2001-2015
</metadata>
<g transform="translate(-2.310087,207.045499) scale(0.010000,-0.010000)"
fill="#000000" stroke="none">
<path d="M9283 20650 c-27 -28 -307 -74 -622 -103 -315 -29 -739 -115 -942
-192 -203 -76 -503 -168 -668 -204 -1279 -285 -4049 -2353 -4858 -3628 -367
-578 -366 -718 4 -1081 253 -248 298 -370 300 -809 3 -447 -39 -560 -305 -825
-175 -176 -422 -313 -575 -321 -147 -7 -419 -18 -605 -25 -311 -11 -349 -48
-472 -462 -202 -675 -363 -2362 -292 -3046 138 -1325 286 -2197 415 -2444 75
-143 137 -327 138 -410 3 -279 654 -1646 1095 -2300 485 -718 1218 -1624 1604
-1982 539 -499 1976 -1464 2450 -1645 275 -105 546 -228 601 -274 424 -350
2665 -801 3962 -797 1111 3 2583 252 3537 598 811 295 2125 1015 2553 1400 92
83 296 240 454 350 396 275 1141 1018 1505 1500 915 1213 1835 3123 2033 4220
62 341 198 880 302 1197 105 318 155 624 111 680 -45 57 -110 531 -146 1053
-77 1131 -294 2196 -468 2304 -70 43 -218 44 -331 2 -314 -116 -889 55 -1133
339 -122 140 -267 422 -323 626 -89 322 -70 425 150 799 138 237 295 430 347
430 224 0 72 547 -273 983 -600 759 -1635 1746 -2319 2209 -1161 788 -2854
1473 -4347 1758 -733 140 -2771 211 -2882 100z m3993 -844 c2043 -522 4031
-1884 5199 -3563 l214 -308 -242 -392 c-306 -499 -334 -1333 -62 -1845 203
-382 898 -796 1315 -784 138 4 303 2 368 -3 334 -30 493 -2829 239 -4211 -358
-1952 -1394 -3883 -2845 -5301 -772 -755 -1093 -993 -2012 -1492 -330 -179
-645 -360 -700 -402 -173 -132 -1495 -605 -1702 -609 -109 -3 -378 -71 -598
-152 -613 -226 -3080 -198 -4050 46 -1388 349 -2823 989 -3533 1576 -155 129
-313 234 -350 234 -37 0 -433 349 -879 775 -848 811 -1766 2059 -2079 2825
-464 1140 -665 1812 -821 2743 -145 864 -152 1180 -54 2256 156 1702 156 1701
623 1701 858 0 1424 513 1681 1525 113 442 2 933 -295 1311 -162 206 -181 299
-95 461 60 112 155 203 211 203 57 0 81 35 55 77 -26 42 197 322 494 622 298
301 542 581 542 624 0 42 64 77 142 77 78 0 156 35 175 77 62 143 1191 840
2065 1275 981 488 2309 846 3100 836 293 -4 563 24 600 63 130 133 2505 -43
3294 -245z"/>
<path d="M5713 17094 c-328 -200 -336 -219 -291 -756 56 -679 293 -953 859
-993 329 -24 451 24 708 275 252 247 311 385 311 733 0 807 -838 1198 -1587
741z m1029 -646 c84 -337 -96 -648 -376 -648 -301 0 -466 181 -466 512 0 292
102 368 514 380 202 6 279 -51 328 -244z"/>
<path d="M14324 16954 c-336 -149 -524 -480 -524 -918 0 -344 488 -806 941
-891 304 -57 413 -30 609 155 891 837 78 2148 -1026 1654z m920 -684 c106
-303 20 -526 -275 -712 -235 -149 -710 152 -750 475 -69 555 841 764 1025 237z"/>
<path d="M7620 14680 c-157 -157 -155 -946 2 -1044 67 -41 247 -66 400 -54
191 15 278 -26 278 -130 0 -107 -104 -152 -350 -152 -285 0 -350 -38 -350
-202 0 -120 104 -250 254 -318 348 -159 760 0 932 359 180 376 24 723 -411
912 -255 111 -279 142 -112 145 309 6 498 260 337 454 -149 180 -810 200 -980
30z"/>
<path d="M12915 14428 c-105 -196 -139 -1063 -53 -1353 62 -212 270 -227 433
-31 85 102 96 335 37 817 -84 685 -240 898 -417 567z"/>
<path d="M14100 8903 c-320 -78 -417 -503 -115 -503 590 0 682 -312 164 -557
-353 -168 -562 -570 -387 -745 125 -124 725 -216 949 -145 222 71 251 329 45
408 -119 46 -111 108 50 372 231 380 245 650 47 932 -173 248 -408 322 -753
238z"/>
<path d="M7072 8475 c-83 -124 -287 -376 -454 -560 -408 -450 -317 -751 243
-797 214 -18 472 -108 573 -199 172 -156 193 -154 329 31 110 152 129 363 78
899 -37 386 -86 735 -110 776 -92 161 -515 64 -659 -150z"/>
<path d="M4462 6534 c-338 -337 -418 -658 -260 -1039 296 -715 1091 -871 1583
-312 199 228 228 346 190 807 -52 641 -225 810 -830 810 -319 0 -481 -63 -683
-266z m1127 -363 c169 -317 -4 -746 -335 -829 -344 -86 -533 2 -676 317 -109
239 -94 288 156 503 353 303 695 307 855 9z"/>
<path d="M15453 6490 c-285 -251 -352 -381 -350 -675 4 -407 118 -596 518
-856 359 -234 798 -135 1126 256 336 400 334 873 -6 1277 -354 422 -806 421
-1288 -2z m892 -206 c358 -163 360 -710 4 -944 -211 -138 -297 -144 -550 -40
-164 68 -299 160 -299 204 0 44 -27 149 -59 233 -60 157 360 663 550 663 55 0
214 -52 354 -116z"/>
<path d="M10115 6511 c-222 -140 -93 -458 200 -492 197 -22 262 -85 258 -250
-3 -120 28 -293 68 -385 60 -136 16 -162 -248 -150 -371 18 -473 -140 -240
-372 238 -239 868 -212 1027 44 162 259 57 1343 -151 1551 -157 157 -701 190
-914 54z"/>
<path d="M10094 4140 c-85 -26 -236 -184 -334 -351 -330 -557 -16 -1332 584
-1445 463 -86 675 1 881 364 224 395 224 910 -1 1187 -174 215 -787 348 -1130
245z m803 -559 c224 -241 193 -544 -76 -756 -499 -392 -1115 367 -664 818 220
219 499 196 740 -62z"/>
</g>
</svg>
