<?xml version="1.0" standalone="no"?>
<!DOCTYPE svg PUBLIC "-//W3C//DTD SVG 20010904//EN"
 "http://www.w3.org/TR/2001/REC-SVG-20010904/DTD/svg10.dtd">
<svg version="1.0" xmlns="http://www.w3.org/2000/svg"
 width="413.418312pt" height="418.725153pt" viewBox="0 0 413.418312 418.725153"
 preserveAspectRatio="xMidYMid meet">
<metadata>
Created by potrace 1.13, written by Peter Selinger 2001-2015
</metadata>
<g transform="translate(-5.213079,421.908543) scale(0.010000,-0.010000)"
fill="#000000" stroke="none">
<path d="M19200 42133 c-2801 -449 -3782 -681 -4633 -1095 -156 -76 -358 -138
-450 -138 -92 0 -460 -140 -817 -312 -1581 -760 -2554 -1242 -2600 -1288 -151
-151 -707 -500 -796 -500 -57 0 -104 -45 -104 -100 0 -55 -61 -100 -135 -100
-73 0 -215 -90 -315 -200 -100 -110 -238 -200 -307 -200 -70 0 -141 -34 -160
-75 -18 -41 -280 -276 -583 -522 -303 -246 -649 -550 -770 -675 -121 -126
-243 -228 -270 -228 -102 0 -1425 -1376 -1875 -1950 -259 -330 -541 -679 -628
-775 -86 -96 -157 -216 -157 -267 0 -50 -36 -106 -81 -125 -155 -64 -1003
-1378 -1344 -2083 -67 -137 -146 -273 -176 -300 -214 -195 -1096 -2266 -1490
-3500 -349 -1094 -390 -1238 -457 -1600 -35 -192 -126 -620 -202 -950 -193
-838 -388 -3546 -312 -4340 35 -363 103 -1202 152 -1863 49 -662 135 -1382
191 -1600 55 -219 177 -734 270 -1147 271 -1206 420 -1676 950 -3000 328 -820
1098 -2388 1205 -2454 52 -32 94 -143 94 -247 0 -104 56 -225 125 -269 69 -44
213 -237 320 -430 184 -331 743 -1127 1336 -1900 301 -393 2532 -2650 2919
-2954 807 -632 1060 -821 1150 -857 55 -21 483 -292 950 -602 1379 -913 2572
-1468 4900 -2281 1016 -354 2769 -691 4250 -815 2281 -192 5098 7 6669 471
258 76 540 138 627 138 392 0 2217 685 3432 1289 1079 536 1267 636 1322 703
27 34 163 118 300 186 138 68 385 213 550 322 165 109 401 251 525 315 124 64
225 155 225 201 0 46 44 84 99 84 54 0 178 65 275 145 97 79 446 359 776 622
643 512 2743 2538 2747 2651 2 37 165 240 363 450 199 210 425 506 503 657 78
151 186 275 240 275 53 0 97 45 97 101 0 56 152 317 337 581 186 263 369 578
407 699 38 120 101 219 140 219 39 0 160 202 269 449 108 247 231 450 272 450
41 1 75 52 75 114 0 62 153 433 339 825 730 1532 1424 3801 1703 5562 425
2690 224 6254 -491 8700 -89 302 -198 708 -242 900 -45 193 -127 463 -184 600
-57 138 -182 452 -278 700 -430 1108 -1678 3500 -1870 3583 -43 19 -77 90 -77
160 0 69 -90 207 -200 307 -110 100 -200 242 -200 315 0 74 -34 135 -75 136
-41 0 -187 167 -325 370 -137 203 -374 497 -525 653 -151 156 -275 322 -275
369 0 47 -67 112 -150 143 -82 32 -150 127 -150 211 0 84 -67 153 -150 153
-82 0 -150 44 -150 98 0 92 -538 643 -1516 1552 -237 220 -814 679 -1282 1021
-469 341 -921 679 -1006 750 -85 71 -355 238 -600 372 -245 133 -469 269 -496
301 -27 33 -332 204 -676 382 -344 178 -704 367 -800 420 -576 322 -2056 930
-2674 1100 -165 46 -502 152 -750 236 -540 183 -1612 412 -2893 617 -866 139
-3725 193 -4407 84z m5200 -460 c468 -78 1120 -223 1450 -322 1003 -300 2639
-844 2825 -938 96 -49 535 -260 975 -469 440 -209 823 -405 850 -437 66 -75
757 -471 1200 -686 193 -94 365 -205 383 -246 19 -41 97 -75 175 -75 78 0 142
-34 142 -75 0 -41 203 -203 450 -359 248 -156 450 -325 450 -375 0 -50 51 -91
114 -91 259 0 3186 -2760 3186 -3004 0 -53 39 -96 86 -96 47 0 282 -270 522
-600 241 -330 467 -600 503 -600 36 0 92 -79 124 -175 33 -96 239 -423 458
-725 219 -302 699 -1157 1066 -1900 367 -742 706 -1426 752 -1519 70 -142 510
-1488 898 -2746 85 -276 271 -1206 469 -2335 33 -192 63 -1407 66 -2700 6
-2388 -110 -3504 -501 -4836 -79 -268 -143 -555 -143 -637 0 -167 -258 -1014
-450 -1477 -69 -165 -204 -502 -300 -750 -508 -1304 -1268 -2763 -2075 -3981
-151 -228 -275 -461 -275 -517 0 -56 -42 -102 -93 -102 -52 0 -119 -79 -149
-175 -31 -96 -394 -530 -807 -964 -413 -434 -751 -827 -751 -875 0 -47 -34
-86 -75 -86 -42 0 -402 -316 -800 -703 -399 -387 -1141 -1017 -1650 -1400
-1299 -978 -1389 -1039 -1773 -1203 -136 -59 -271 -137 -300 -175 -135 -179
-2638 -1418 -2867 -1420 -47 0 -197 -58 -335 -128 -137 -71 -542 -211 -900
-311 -357 -100 -768 -226 -912 -278 -145 -53 -505 -135 -800 -183 -296 -48
-740 -130 -988 -182 -1123 -238 -3578 -337 -5050 -204 -1774 160 -3009 397
-4200 807 -165 56 -435 126 -600 155 -165 29 -389 114 -497 189 -109 75 -274
136 -367 136 -93 0 -320 75 -503 167 -183 92 -452 227 -598 300 -146 73 -338
133 -425 133 -88 0 -160 41 -160 92 0 51 -135 122 -300 158 -165 36 -300 107
-300 158 0 51 -67 92 -150 92 -82 0 -150 45 -150 100 0 55 -52 100 -115 100
-129 0 -2303 1444 -2732 1815 -792 682 -2263 2096 -2650 2547 -693 806 -1803
2372 -1803 2543 0 52 -42 95 -93 95 -52 0 -124 101 -162 225 -38 124 -124 293
-193 375 -123 149 -651 1175 -900 1750 -72 165 -199 457 -283 650 -85 193
-185 474 -222 626 -38 152 -109 301 -158 331 -49 30 -89 147 -89 259 0 112
-62 346 -138 519 -127 288 -237 704 -564 2115 -350 1515 -507 4895 -296 6381
199 1402 422 2626 568 3119 475 1603 479 1615 884 2650 415 1061 1420 2990
1771 3398 96 113 175 231 175 264 0 32 135 230 300 438 165 208 300 425 300
481 0 56 34 117 75 136 41 18 299 303 573 633 599 722 2602 2712 2952 2934
138 87 505 351 817 587 312 236 612 429 667 429 55 0 114 34 133 75 39 89
1062 703 1633 980 220 107 415 229 433 270 19 41 83 75 144 75 113 0 815 304
1288 558 146 78 351 142 455 142 105 0 233 38 285 84 126 112 1363 516 1578
516 94 0 248 39 343 88 344 173 895 312 1241 312 194 0 504 52 688 117 252 88
343 88 373 0 26 -78 90 -63 198 45 142 141 438 154 2467 107 1269 -29 2690
-117 3157 -196z"/>
<path d="M20150 40374 c-880 -41 -1825 -122 -2100 -180 -275 -58 -680 -142
-900 -187 -868 -178 -2887 -823 -3426 -1094 -1631 -821 -2323 -1200 -2965
-1622 -362 -238 -659 -469 -659 -512 0 -44 -67 -79 -150 -79 -82 0 -150 -37
-150 -83 0 -46 -214 -235 -475 -420 -490 -347 -2525 -2339 -2525 -2472 -1 -41
-158 -246 -350 -456 -193 -209 -350 -419 -350 -466 0 -48 -36 -101 -81 -120
-153 -63 -790 -1033 -1281 -1950 -800 -1496 -1038 -1985 -1038 -2133 0 -88
-41 -203 -92 -255 -134 -138 -508 -1250 -508 -1511 0 -122 -42 -248 -92 -279
-51 -32 -121 -203 -157 -381 -35 -178 -126 -616 -201 -974 -632 -3001 -520
-6300 315 -9250 257 -906 563 -1798 649 -1895 48 -52 86 -164 86 -248 0 -141
882 -1993 1003 -2107 30 -27 244 -365 477 -750 526 -869 1107 -1689 1228
-1733 51 -19 92 -75 92 -125 0 -233 2669 -2892 2903 -2892 44 0 95 -38 114
-84 18 -46 281 -256 583 -467 303 -211 674 -474 826 -585 200 -147 305 -173
385 -93 80 80 46 144 -125 235 -900 476 -4086 3267 -4086 3579 0 54 -40 113
-89 132 -126 47 -911 1057 -911 1172 0 52 -36 109 -81 128 -106 44 -696 910
-988 1453 -127 236 -343 639 -481 895 -138 256 -250 500 -250 543 0 43 -130
362 -289 710 -1232 2694 -1818 6943 -1361 9870 313 2000 743 3618 1208 4545
78 156 142 342 142 415 0 132 785 1707 1272 2552 216 375 519 813 1002 1451
967 1278 2387 2771 3157 3319 203 144 369 300 369 346 0 46 64 84 142 84 78 0
156 35 175 79 37 89 1324 953 1933 1298 451 255 1325 681 1850 901 193 81 477
208 633 284 156 76 342 138 414 138 71 0 259 67 417 149 157 83 368 150 468
150 99 1 266 46 369 102 237 126 1501 389 2549 530 1651 222 4937 98 6250
-236 1381 -351 1747 -465 2750 -855 605 -236 1325 -548 1600 -695 850 -452
1399 -784 1433 -866 19 -44 77 -79 129 -79 113 0 723 -415 771 -525 19 -41 86
-76 150 -77 64 0 257 -124 427 -275 171 -150 438 -363 595 -473 532 -373 2518
-2426 3110 -3215 633 -843 1535 -2179 1535 -2274 0 -32 135 -277 300 -546 165
-268 300 -555 300 -638 0 -82 90 -264 200 -404 110 -140 200 -340 200 -444 0
-104 41 -232 92 -284 89 -92 355 -861 655 -1895 234 -808 437 -1852 494 -2550
29 -357 100 -1102 158 -1655 109 -1050 95 -1504 -97 -3245 -111 -1004 -294
-1903 -518 -2550 -57 -165 -140 -457 -184 -650 -110 -478 -292 -977 -521
-1425 -106 -206 -166 -375 -135 -375 85 0 -1159 -2371 -1547 -2950 -580 -865
-1517 -2089 -1813 -2369 -156 -149 -284 -317 -284 -375 0 -58 -67 -106 -150
-106 -82 0 -150 -67 -150 -150 0 -82 -48 -150 -106 -150 -58 0 -226 -127 -375
-282 -148 -155 -561 -526 -919 -825 -357 -299 -665 -577 -683 -618 -19 -41
-97 -75 -175 -75 -78 0 -142 -46 -142 -102 0 -57 -101 -147 -225 -200 -250
-108 -427 -218 -1010 -623 -217 -151 -452 -275 -522 -275 -69 0 -141 -39 -160
-86 -28 -74 -901 -509 -1933 -963 -1196 -528 -3447 -1149 -4173 -1153 -235 -2
-629 -50 -877 -107 -1025 -237 -4054 -95 -5800 273 -1345 284 -4105 1265
-4508 1604 -87 72 -230 132 -318 132 -88 0 -220 56 -294 125 -230 215 -749
473 -816 406 -128 -128 -52 -193 611 -523 371 -185 743 -375 825 -423 82 -47
218 -113 300 -145 140 -56 313 -129 1125 -481 300 -129 902 -353 1775 -657
193 -68 564 -160 825 -206 261 -46 511 -107 556 -134 177 -110 2245 -289 3619
-314 1618 -29 2196 29 4500 455 640 118 1462 363 1822 543 170 85 366 154 435
154 70 0 254 65 410 145 156 80 598 289 983 465 743 338 2377 1289 2433 1415
19 41 76 75 127 75 128 0 1490 1026 1490 1122 0 43 48 78 107 78 139 0 2293
2154 2293 2293 0 59 40 107 89 107 48 0 282 293 519 650 236 358 466 650 511
650 45 0 81 68 81 150 0 83 42 150 93 150 52 0 124 101 162 225 38 124 128
293 201 377 247 281 1309 2443 1573 3198 502 1441 638 1941 912 3350 561 2889
434 5852 -374 8750 -210 752 -364 1198 -528 1533 -76 156 -139 328 -139 382 0
151 -1020 2217 -1169 2367 -72 73 -131 173 -131 223 0 129 -1138 1783 -1498
2177 -166 182 -302 349 -302 371 0 22 -124 170 -275 329 -1144 1201 -1731
1796 -1939 1968 -853 705 -1183 950 -1278 950 -59 0 -109 34 -110 75 -1 41
-226 208 -500 371 -274 162 -498 326 -498 363 0 37 -79 95 -175 128 -96 33
-310 148 -475 256 -778 505 -2967 1507 -3292 1507 -120 0 -268 50 -330 112
-62 62 -284 148 -495 193 -211 44 -563 125 -783 179 -1926 474 -3232 593
-5400 490z"/>
<path d="M19800 38617 c-1092 -405 -1827 -1144 -2258 -2267 -277 -721 -253
-2130 47 -2750 327 -677 423 -813 899 -1274 689 -667 1767 -1126 2646 -1126
521 0 1766 362 1766 513 0 48 61 87 136 87 242 0 1138 995 1423 1580 248 509
279 683 284 1620 7 971 -15 1094 -288 1631 -371 734 -1101 1481 -1724 1764
-264 121 -559 261 -655 312 -287 154 -1779 95 -2276 -90z m2829 -452 c567
-278 1248 -944 1549 -1515 404 -765 440 -2624 60 -3058 -76 -87 -138 -234
-138 -328 0 -94 -67 -196 -150 -228 -82 -31 -150 -100 -150 -152 0 -188 -764
-794 -1383 -1098 -583 -286 -695 -307 -1400 -264 -593 37 -921 121 -1442 370
-371 177 -675 364 -675 415 0 51 -56 95 -125 97 -137 4 -775 823 -775 995 0
60 -79 228 -175 375 -263 402 -225 2104 61 2733 239 526 966 1393 1168 1393
75 0 172 56 216 126 112 175 785 404 1380 470 736 81 1345 -21 1979 -331z"/>
<path d="M20518 36394 c-785 -315 -1118 -1210 -731 -1968 298 -586 681 -826
1313 -826 626 0 1014 240 1302 804 249 488 249 753 1 1267 -313 647 -1213 993
-1885 723z m1174 -653 c255 -214 307 -331 305 -675 -5 -608 -261 -868 -880
-895 -420 -18 -526 17 -702 229 -375 450 -262 1190 218 1429 455 227 710 206
1059 -88z"/>
<path d="M30441 33662 c-473 -129 -1141 -472 -1141 -585 0 -42 -47 -77 -105
-77 -280 0 -951 -963 -1230 -1768 -225 -647 -182 -1948 89 -2682 249 -676
1216 -1647 2004 -2010 520 -241 708 -273 1542 -266 819 7 1015 44 1425 264
261 141 475 238 475 215 0 -144 1019 984 1251 1384 393 679 557 1767 391 2594
-130 647 -427 1369 -563 1369 -43 0 -79 44 -79 97 0 111 -610 740 -813 839
-75 36 -294 162 -487 279 -737 449 -1867 591 -2759 347z m1838 -230 c369 -93
730 -228 803 -300 73 -73 176 -132 229 -132 164 0 1078 -987 1277 -1379 348
-685 464 -1464 321 -2156 -126 -610 -483 -1476 -730 -1767 -198 -233 -885
-726 -1322 -948 -579 -295 -2008 -272 -2732 45 -289 126 -525 269 -525 317 0
49 -43 88 -97 88 -125 0 -803 678 -803 803 0 54 -39 97 -86 97 -214 0 -514
1129 -514 1934 0 1920 1182 3275 3050 3500 165 20 336 43 379 51 44 8 382 -61
750 -153z"/>
<path d="M30631 31211 c-1123 -813 -530 -2611 860 -2611 597 0 1151 426 1362
1045 168 494 167 532 -6 897 -433 912 -1454 1221 -2216 669z m1462 -505 c135
-117 246 -355 278 -594 46 -344 15 -434 -226 -658 -511 -474 -1043 -427 -1404
123 -196 300 -117 847 165 1129 259 259 889 259 1187 0z"/>
<path d="M9245 32993 c-278 -37 -593 -112 -700 -168 -107 -56 -312 -156 -454
-222 -331 -153 -878 -651 -1221 -1110 -538 -721 -818 -1894 -659 -2766 108
-595 650 -1827 803 -1827 47 0 86 -67 86 -150 0 -82 47 -150 105 -150 57 0
204 -104 325 -230 551 -576 1689 -929 2748 -852 1117 81 2575 1044 2997 1980
726 1611 469 3352 -656 4446 -258 251 -525 456 -594 456 -69 0 -125 39 -125
88 0 48 -214 178 -475 290 -532 226 -1421 314 -2180 215z m2013 -439 c129 -85
295 -154 368 -154 163 0 1274 -1028 1274 -1178 0 -59 57 -167 127 -240 179
-187 473 -1183 473 -1604 0 -397 -239 -1272 -473 -1728 -190 -370 -1126 -1350
-1290 -1350 -66 0 -136 -47 -155 -105 -38 -114 -1377 -495 -1737 -495 -267 0
-1276 322 -1717 547 -520 266 -1269 1183 -1459 1786 -258 816 -227 2012 69
2680 230 519 957 1387 1162 1387 55 0 100 44 100 99 0 103 541 366 1050 509
458 129 1933 26 2208 -154z"/>
<path d="M9235 30543 c-698 -338 -909 -759 -743 -1484 116 -504 396 -959 591
-959 55 0 116 -48 136 -106 44 -132 786 -240 1103 -160 374 94 879 611 990
1013 218 789 -129 1490 -895 1810 -455 191 -578 179 -1182 -114z m1154 -403
c742 -438 546 -1717 -268 -1752 -525 -22 -673 26 -896 293 -336 403 -303 926
83 1311 345 346 672 390 1081 148z"/>
<path d="M20850 30230 c-165 -198 -378 -434 -473 -525 -95 -91 -185 -276 -200
-410 -24 -218 11 -245 323 -246 431 -2 600 -102 600 -355 0 -317 237 -215 425
184 155 329 158 385 25 483 -103 76 -150 289 -150 675 0 672 -118 713 -550
194z m250 -630 c0 -133 -67 -200 -200 -200 -227 0 -256 104 -80 280 176 176
280 147 280 -80z"/>
<path d="M14267 29033 c-163 -163 -50 -333 222 -333 375 0 470 -241 153 -385
-348 -159 -299 -379 73 -330 121 16 303 -275 238 -381 -36 -57 -242 -104 -459
-104 -278 0 -394 -43 -394 -145 0 -194 578 -297 926 -164 264 100 274 130 274
841 0 587 -37 771 -183 903 -181 164 -722 226 -850 98z"/>
<path d="M26483 29033 c-176 -47 -352 -741 -235 -929 35 -57 177 -104 315
-104 415 0 753 -481 362 -515 -96 -8 -299 -5 -450 6 -367 29 -371 -259 -7
-398 279 -106 803 32 955 251 236 340 -198 1056 -640 1056 -164 0 -184 29 -95
136 64 77 221 115 361 89 173 -33 269 5 314 124 110 287 -331 429 -880 284z"/>
<path d="M33700 22061 c-648 -149 -1045 -344 -1430 -701 -154 -143 -305 -260
-336 -260 -76 0 -454 -487 -619 -797 -253 -476 -515 -1429 -515 -1876 0 -500
370 -1827 510 -1827 49 0 90 -57 90 -127 0 -197 541 -801 908 -1015 l329 -191
-224 314 c-123 173 -286 350 -361 392 -204 114 -652 810 -652 1011 0 97 -56
232 -125 301 -184 184 -166 1876 24 2290 83 179 179 325 215 325 35 0 93 114
128 253 76 305 824 1064 1280 1298 637 329 1450 462 2116 349 638 -109 1562
-474 1562 -617 0 -46 48 -83 106 -83 131 0 679 -580 802 -850 50 -110 132
-267 181 -350 142 -238 343 -1214 329 -1599 -28 -760 -479 -2001 -728 -2001
-49 0 -90 -43 -90 -95 0 -52 -101 -199 -225 -327 -739 -763 -1906 -1114 -3093
-931 -367 57 -701 137 -741 178 -41 41 -134 75 -208 75 -254 0 -126 -151 292
-344 644 -297 2144 -274 2850 45 289 130 525 273 525 318 0 44 47 81 105 81
148 0 922 852 1184 1303 195 336 404 1264 404 1797 0 773 -265 1669 -643 2173
-323 431 -1042 1047 -1453 1243 -671 322 -1719 425 -2497 245z"/>
<path d="M7200 21405 c-1898 -265 -3335 -2327 -2999 -4305 150 -889 438 -1443
1094 -2106 702 -711 1183 -940 2288 -1090 847 -115 2080 275 2707 857 142 131
292 239 334 239 42 0 76 63 76 139 0 77 56 162 125 189 122 49 265 308 619
1118 237 543 231 1897 -12 2589 -99 283 -203 538 -232 565 -28 28 -173 214
-322 414 -326 437 -1078 995 -1630 1210 -524 203 -1360 277 -2048 181z m2166
-513 c688 -333 1292 -939 1634 -1642 280 -574 315 -745 317 -1534 3 -797 -29
-952 -314 -1527 -502 -1015 -1052 -1494 -2167 -1885 -720 -253 -1151 -257
-1854 -15 -802 276 -1130 466 -1569 910 -579 584 -1013 1652 -1013 2490 0 368
232 1269 415 1615 229 431 804 1107 1025 1205 115 52 368 191 560 310 193 118
530 250 750 292 623 118 1749 7 2216 -219z"/>
<path d="M7450 19061 c-165 -57 -446 -257 -625 -445 -295 -309 -325 -399 -325
-960 0 -557 31 -650 311 -936 579 -593 1457 -636 2045 -101 419 381 575 911
424 1434 -199 686 -540 948 -1430 1096 -55 9 -235 -30 -400 -88z m868 -583
c250 -118 482 -560 482 -918 0 -314 -547 -760 -931 -760 -550 0 -821 287 -809
858 16 760 591 1135 1258 820z"/>
<path d="M33992 19722 c-477 -228 -637 -403 -787 -857 -385 -1166 750 -2261
1876 -1811 607 243 919 708 919 1370 0 463 -42 581 -301 846 -332 339 -876
632 -1164 627 -102 -2 -346 -81 -543 -175z m1177 -639 c345 -325 327 -1044
-35 -1355 -376 -323 -836 -300 -1223 62 -424 395 -393 723 119 1285 273 299
824 303 1139 8z"/>
<path d="M12739 19202 c-241 -97 -378 -366 -232 -456 54 -34 232 -31 396 5
409 89 540 -216 191 -444 -133 -86 -375 -276 -539 -421 -261 -230 -281 -284
-161 -429 186 -224 1256 -187 1256 43 0 83 -101 164 -225 182 -290 41 -284 74
75 433 374 375 376 525 8 893 -306 306 -421 335 -769 194z"/>
<path d="M29307 18927 c-372 -451 -421 -1064 -114 -1419 267 -308 767 -252
1041 116 195 262 196 290 38 623 -104 218 -262 372 -424 412 -255 64 -255 67
-53 209 113 79 205 208 205 288 0 271 -385 144 -693 -229z m592 -1002 c1 -350
-392 -269 -532 109 -101 275 3 361 282 232 157 -73 250 -199 250 -341z"/>
<path d="M17169 14935 c-38 -37 -69 -443 -69 -902 0 -772 15 -833 204 -833
192 0 202 52 175 867 -27 796 -120 1058 -310 868z"/>
<path d="M24700 14850 c0 -88 92 -151 225 -152 519 -3 584 -349 206 -1105
-176 -353 -81 -539 124 -243 76 110 196 265 267 345 228 256 564 1026 509
1168 -79 206 -1331 194 -1331 -13z"/>
<path d="M26624 12697 c-289 -41 -637 -148 -772 -236 -135 -89 -296 -161 -359
-161 -200 0 -870 -592 -1240 -1096 -1123 -1529 -979 -3552 347 -4897 600 -609
1198 -913 2081 -1059 579 -95 857 -94 1335 5 332 70 653 176 714 237 60 60
190 110 287 110 291 0 1323 1096 1613 1714 702 1492 323 3416 -881 4473 -475
418 -1254 788 -1818 864 -265 36 -548 78 -631 94 -82 15 -387 -6 -676 -48z
m2026 -562 c1100 -542 1466 -937 1800 -1935 275 -827 313 -1449 129 -2174
-123 -489 -727 -1526 -889 -1526 -49 0 -90 -67 -90 -150 0 -82 -67 -150 -150
-150 -82 0 -150 -34 -150 -76 0 -125 -910 -513 -1488 -634 -587 -122 -1560 11
-1983 273 -122 75 -270 137 -328 137 -146 0 -1101 940 -1101 1084 0 64 -39
116 -86 116 -205 0 -514 1127 -514 1876 0 646 46 853 313 1401 299 612 884
1323 1090 1323 54 0 97 37 97 81 0 119 692 454 1100 534 644 125 1822 31 2250
-180z"/>
<path d="M25946 11598 c-296 -139 -674 -406 -841 -593 -1505 -1685 -751 -4260
1450 -4952 569 -179 614 -179 1279 -8 711 183 1492 631 1666 955 54 101 155
244 225 317 69 73 210 373 313 666 205 583 190 1829 -25 2044 -62 62 -113 194
-113 293 0 99 -42 180 -93 180 -52 0 -122 91 -158 202 -81 257 -986 929 -1459
1085 -577 190 -1625 102 -2244 -189z m2204 -695 c479 -230 631 -357 919 -766
271 -387 393 -1337 242 -1888 -116 -426 -680 -1094 -1011 -1199 -110 -35 -200
-105 -200 -157 0 -51 -353 -93 -785 -93 -707 0 -824 29 -1175 286 -981 721
-1230 1431 -892 2544 149 491 567 976 1111 1286 408 233 1294 226 1791 -13z"/>
<path d="M14600 12359 c-657 -172 -997 -357 -1483 -808 -238 -220 -474 -416
-525 -434 -50 -19 -92 -97 -92 -175 0 -78 -37 -142 -82 -142 -44 0 -189 -259
-321 -575 -314 -752 -336 -2115 -48 -2875 199 -526 613 -1150 763 -1150 141 0
101 264 -60 398 -242 201 -463 711 -613 1414 -123 575 -123 753 6 1362 145
690 488 1426 665 1426 49 0 90 44 90 97 0 157 640 740 1009 918 857 416 1763
536 2441 324 592 -185 1350 -558 1350 -664 0 -41 56 -75 125 -75 69 0 215
-135 325 -300 213 -319 450 -398 450 -150 0 83 -34 150 -75 151 -41 0 -255
178 -475 396 -881 871 -2176 1195 -3450 862z"/>
<path d="M14550 11511 c-767 -247 -1545 -1076 -1786 -1905 -233 -802 -183
-1380 184 -2126 499 -1018 1178 -1505 2305 -1657 1148 -155 2312 460 2880
1522 181 339 217 570 217 1412 0 921 -23 1042 -262 1400 -335 502 -749 943
-883 943 -58 0 -105 41 -105 91 0 148 -1205 510 -1644 495 -223 -8 -631 -87
-906 -175z m2149 -911 c319 -229 606 -564 827 -965 185 -336 247 -1478 85
-1578 -49 -30 -117 -167 -151 -304 -81 -320 -629 -868 -1085 -1084 -1588 -754
-3444 951 -2872 2639 93 275 265 601 383 727 118 125 215 270 215 321 1 110
639 417 999 481 449 79 1342 -53 1599 -237z"/>
<path d="M18604 10521 c-2 -125 75 -348 171 -495 139 -213 173 -474 167 -1272
-7 -895 -39 -1064 -289 -1553 -155 -303 -514 -775 -799 -1050 -690 -668 -1328
-900 -2454 -891 -767 5 -912 39 -1486 344 -350 186 -659 396 -686 467 -27 71
-90 129 -139 129 -145 0 -102 -196 86 -384 895 -899 2985 -1106 4125 -407 83
50 244 133 359 183 336 146 985 950 1326 1642 271 552 315 748 315 1417 0 898
-130 1411 -459 1813 -227 278 -234 280 -237 57z"/>
</g>
</svg>
