<?xml version="1.0" standalone="no"?>
<!DOCTYPE svg PUBLIC "-//W3C//DTD SVG 20010904//EN"
 "http://www.w3.org/TR/2001/REC-SVG-20010904/DTD/svg10.dtd">
<svg version="1.0" xmlns="http://www.w3.org/2000/svg"
 width="234.220351pt" height="234.398333pt" viewBox="0 0 234.220351 234.398333"
 preserveAspectRatio="xMidYMid meet">
<metadata>
Created by potrace 1.13, written by Peter Selinger 2001-2015
</metadata>
<g transform="translate(-3.204838,236.844550) scale(0.010000,-0.010000)"
fill="#000000" stroke="none">
<path d="M10550 23599 c-1934 -237 -3993 -1076 -5619 -2292 -3891 -2907 -5565
-8194 -4066 -12841 417 -1295 661 -1810 1390 -2933 1256 -1935 3033 -3391
5445 -4460 1616 -716 3935 -1000 5921 -725 3725 516 6703 2531 8795 5952 142
232 782 1711 925 2138 295 880 402 1828 402 3562 -1 1606 -32 1975 -236 2798
-620 2503 -1879 4490 -3960 6252 -260 220 -545 435 -635 477 -89 42 -364 211
-612 375 -2075 1379 -5042 2029 -7750 1697z m3647 -548 c2144 -427 4158 -1464
5733 -2951 926 -874 1338 -1417 2051 -2697 1076 -1933 1497 -3806 1390 -6199
-60 -1350 -317 -2398 -949 -3875 -1761 -4105 -6300 -6852 -10893 -6592 -1708
97 -2839 386 -4401 1126 -628 297 -1983 1144 -2128 1330 -27 35 -271 242 -541
460 -662 534 -1725 1873 -2296 2890 -1562 2783 -1839 6420 -711 9345 623 1616
1402 2842 2531 3987 917 930 1490 1353 2725 2013 994 530 2506 1078 3342 1211
793 126 3428 96 4147 -48z"/>
<path d="M15740 18757 c-863 -376 -1087 -1555 -436 -2296 792 -902 2170 -578
2485 586 321 1188 -903 2209 -2049 1710z m1470 -516 c974 -934 -189 -2423
-1401 -1795 -291 150 -609 687 -609 1029 0 269 404 845 703 1002 369 195 970
86 1307 -236z"/>
<path d="M16152 18289 c-398 -112 -647 -459 -650 -905 -2 -288 64 -422 306
-625 416 -351 827 -339 1200 33 670 671 52 1751 -856 1497z m665 -454 c409
-371 30 -1119 -500 -986 -378 95 -517 238 -517 530 0 538 619 815 1017 456z"/>
<path d="M6860 18395 c-1067 -936 -438 -2598 990 -2620 503 -7 931 259 1253
780 306 494 291 926 -50 1465 -323 509 -669 680 -1382 680 -375 0 -531 -59
-811 -305z m1594 -198 c617 -381 680 -1235 130 -1762 -243 -233 -385 -285
-780 -285 -575 0 -825 187 -1056 791 -122 321 -135 481 -53 695 275 723 1081
980 1759 561z"/>
<path d="M7271 17999 c-530 -418 -431 -1253 184 -1545 302 -143 375 -144 692
-12 624 261 756 1069 245 1499 -369 311 -773 332 -1121 58z m1073 -529 c169
-484 -229 -884 -712 -714 -680 239 -464 1085 261 1024 285 -24 372 -85 451
-310z"/>
<path d="M5971 9232 c-260 -107 -441 -278 -575 -540 -772 -1513 1000 -2924
2299 -1831 594 500 610 1517 32 2057 -557 518 -1051 607 -1756 314z m1219
-277 c756 -391 822 -1467 126 -2030 -85 -69 -370 -125 -634 -125 -381 0 -542
56 -787 275 -566 506 -501 1442 128 1825 387 236 781 255 1167 55z"/>
<path d="M6045 8555 c-444 -445 -290 -1163 305 -1411 435 -182 901 -29 1103
362 210 405 183 635 -112 986 -341 405 -925 433 -1296 63z m1099 -277 c307
-439 85 -878 -444 -878 -347 0 -600 232 -600 550 0 529 740 762 1044 328z"/>
<path d="M17228 9202 c-1010 -237 -1468 -1144 -1031 -2045 287 -593 706 -890
1256 -890 613 0 970 184 1277 657 288 444 356 1028 162 1390 -368 688 -1024
1038 -1664 888z m862 -447 c622 -322 782 -1101 346 -1690 -672 -909 -2045
-399 -2032 755 9 868 881 1351 1686 935z"/>
<path d="M16921 8420 c-549 -513 -389 -1283 315 -1515 627 -207 1164 208 1164
900 0 441 -320 778 -815 859 -285 46 -397 5 -664 -244z m957 -176 c292 -204
310 -790 29 -940 -264 -142 -661 -131 -783 21 -243 305 -239 569 15 823 292
293 433 311 739 96z"/>
</g>
</svg>
