<?xml version="1.0" standalone="no"?>
<!DOCTYPE svg PUBLIC "-//W3C//DTD SVG 20010904//EN"
 "http://www.w3.org/TR/2001/REC-SVG-20010904/DTD/svg10.dtd">
<svg version="1.0" xmlns="http://www.w3.org/2000/svg"
 width="321.013418pt" height="322.598324pt" viewBox="0 0 321.013418 322.598324"
 preserveAspectRatio="xMidYMid meet">
<metadata>
Created by potrace 1.13, written by Peter Selinger 2001-2015
</metadata>
<g transform="translate(-5.647639,328.568405) scale(0.010000,-0.010000)"
fill="#000000" stroke="none">
<path d="M15400 32835 c-137 -18 -632 -82 -1100 -141 -957 -122 -3217 -713
-3900 -1019 -873 -392 -1756 -847 -2300 -1184 -1068 -662 -2734 -2072 -3404
-2880 -1365 -1650 -1575 -1938 -1974 -2711 -156 -302 -426 -817 -601 -1143
-174 -326 -455 -1023 -624 -1550 -169 -526 -350 -1035 -402 -1131 -52 -95 -95
-275 -96 -400 -1 -124 -68 -447 -150 -718 -82 -270 -147 -608 -143 -750 4
-142 -31 -730 -77 -1308 -89 -1099 -87 -1402 14 -2550 195 -2198 734 -4098
1702 -5994 643 -1259 759 -1444 1600 -2553 794 -1045 3033 -3203 3326 -3203
43 0 326 -193 629 -430 536 -418 3121 -1670 3449 -1670 90 0 262 -52 381 -116
692 -370 3013 -776 4497 -787 1889 -13 4504 391 5523 852 165 75 638 252 1051
395 412 142 907 356 1100 476 192 120 597 339 899 486 303 148 685 387 850
531 165 145 331 263 370 263 97 0 1202 926 1967 1648 1218 1150 2592 3188
3371 5002 1327 3088 1645 6259 952 9500 -354 1654 -470 2038 -938 3100 -669
1519 -1459 2868 -2311 3948 -489 619 -2039 2199 -2630 2680 -1428 1162 -4445
2606 -6191 2963 -434 89 -994 208 -1243 264 -443 100 -3101 196 -3597 130z
m2603 -836 c1605 -157 4458 -999 5650 -1667 1629 -914 2795 -1801 3897 -2966
1087 -1148 1139 -1216 2023 -2666 972 -1593 1450 -2863 1997 -5300 225 -1005
258 -1384 261 -3000 4 -1808 -4 -1881 -355 -3216 -197 -751 -406 -1454 -464
-1562 -58 -108 -153 -408 -211 -667 -147 -659 -1355 -2834 -2007 -3613 -299
-359 -701 -841 -894 -1071 -547 -656 -1620 -1645 -2063 -1901 -76 -44 -246
-179 -377 -300 -409 -377 -2363 -1439 -3410 -1855 -4274 -1696 -9624 -1204
-13400 1232 -471 304 -900 553 -953 553 -54 0 -97 41 -97 90 0 50 -130 174
-288 275 -564 361 -1834 1598 -2501 2435 -1292 1621 -2176 3190 -2666 4730
-143 451 -305 930 -359 1064 -169 416 -465 2306 -527 3356 -68 1151 67 3313
246 3959 495 1786 1089 3399 1563 4244 1035 1845 2942 4097 4189 4947 1140
777 1681 1107 2193 1338 330 149 717 335 861 414 407 223 2354 816 3239 987
1659 321 2497 351 4453 160z"/>
<path d="M15933 29958 c-717 -522 -795 -1407 -171 -1955 812 -713 2038 -87
2038 1040 0 569 -417 955 -1100 1020 -407 39 -606 11 -767 -105z m812 -620
c408 -157 369 -857 -56 -992 -471 -149 -869 489 -535 858 186 206 323 237 591
134z"/>
<path d="M16837 25856 c-455 -198 -1337 -1292 -1337 -1659 0 -344 384 -651
709 -566 156 41 250 -18 373 -233 91 -158 252 -310 358 -337 217 -57 560 94
560 247 0 55 98 233 219 396 l219 296 -219 296 c-163 220 -219 437 -219 843 0
364 -53 599 -157 704 -87 86 -165 155 -175 153 -10 -2 -159 -65 -331 -140z"/>
<path d="M6617 25749 c-636 -279 -924 -871 -722 -1484 237 -718 993 -1040
1725 -734 761 318 909 1512 249 2008 -425 319 -843 389 -1252 210z m858 -777
c177 -137 155 -573 -40 -789 -461 -509 -1238 197 -810 736 219 276 537 296
850 53z"/>
<path d="M25650 25551 c-55 -18 -225 -61 -378 -95 -549 -121 -861 -1126 -545
-1751 176 -349 693 -617 1228 -638 414 -15 495 21 803 357 188 205 342 462
342 570 0 502 -572 1342 -1021 1498 -170 60 -313 104 -319 100 -5 -4 -55 -23
-110 -41z m553 -956 c133 -249 122 -630 -23 -775 -196 -196 -659 -145 -783 85
-170 318 -79 725 192 859 280 139 478 84 614 -169z"/>
<path d="M8896 23655 c-53 -52 -96 -194 -96 -314 0 -225 172 -341 505 -341
155 0 185 -66 167 -371 -19 -315 19 -390 253 -505 297 -146 368 -467 125 -560
-208 -80 -459 28 -727 311 -286 302 -464 249 -504 -148 -23 -232 39 -375 250
-576 258 -245 333 -263 911 -220 730 54 985 230 1082 746 45 243 15 435 -100
630 -118 200 -148 396 -103 676 51 323 24 434 -151 609 -183 183 -311 210
-865 186 -358 -15 -694 -71 -747 -123z"/>
<path d="M23379 23601 c-650 -60 -695 -95 -876 -671 -175 -559 33 -929 524
-932 414 -1 602 -123 557 -360 -48 -253 -412 -290 -740 -75 -257 168 -274 168
-403 -8 -114 -157 -110 -226 29 -461 408 -692 1373 -620 1834 136 259 424 247
667 -56 1113 -250 369 -250 372 -59 615 215 274 178 605 -73 660 -91 20 -423
12 -737 -17z"/>
<path d="M7240 16957 c-340 -148 -440 -322 -440 -768 0 -423 274 -495 553
-146 135 170 293 263 409 241 291 -57 222 -323 -112 -434 -165 -55 -355 -136
-422 -179 -216 -140 -443 -742 -410 -1087 l32 -334 920 -29 c827 -26 929 -9
1024 168 195 364 34 511 -561 511 -562 0 -644 126 -159 246 370 91 826 539
826 810 0 896 -797 1377 -1660 1001z"/>
<path d="M24415 16499 c-237 -171 -494 -465 -573 -652 -526 -1258 539 -2408
1615 -1743 365 226 600 759 489 1110 -38 119 -184 324 -325 454 -196 182 -228
265 -138 355 269 269 90 605 -386 724 -189 47 -361 -15 -682 -248z m685 -1538
c0 -302 -299 -434 -465 -207 -169 230 -59 446 226 446 185 0 239 -54 239 -239z"/>
<path d="M4101 15415 c-402 -119 -701 -661 -701 -1269 0 -476 33 -554 353
-836 817 -717 2047 -163 2047 922 0 483 -614 1162 -1100 1217 -192 22 -462 7
-599 -34z m943 -837 c214 -306 195 -598 -55 -867 -161 -172 -275 -211 -475
-161 -491 123 -604 353 -452 920 99 371 748 443 982 108z"/>
<path d="M27549 15169 c-440 -440 -559 -1112 -280 -1590 228 -391 972 -741
1366 -642 141 36 421 233 621 439 344 354 360 400 299 858 -81 608 -200 798
-663 1058 -549 309 -947 273 -1343 -123z m1087 -520 c528 -528 20 -1306 -591
-905 -282 185 -317 509 -89 834 180 257 465 287 680 71z"/>
<path d="M12214 11225 c-51 -96 -125 -648 -164 -1225 -65 -976 -56 -1063 131
-1233 156 -141 247 -159 395 -80 166 89 202 258 257 1218 39 691 25 1187 -38
1305 -128 238 -458 247 -581 15z"/>
<path d="M19767 11233 c-133 -133 -63 -513 108 -587 96 -41 342 -82 547 -91
205 -8 402 -46 440 -83 37 -37 -116 -267 -340 -510 -453 -491 -862 -1217 -770
-1365 91 -148 617 -116 766 46 73 79 283 411 467 739 185 327 438 650 564 718
490 262 520 849 55 1098 -210 112 -1731 142 -1837 35z"/>
<path d="M21392 7609 c-923 -185 -1527 -898 -1513 -1786 11 -762 337 -1306
971 -1622 878 -438 1714 -237 2400 578 267 316 300 428 300 1013 0 848 -233
1276 -859 1577 -581 279 -854 329 -1299 240z m753 -651 c647 -270 959 -1124
645 -1765 -227 -462 -353 -556 -852 -638 -845 -140 -1438 376 -1438 1250 0
513 234 925 640 1128 394 196 585 201 1005 25z"/>
<path d="M10604 7483 c-822 -236 -1298 -908 -1302 -1838 -1 -390 65 -612 292
-970 370 -583 792 -811 1513 -819 462 -5 630 45 988 294 237 165 546 376 686
469 384 256 409 366 278 1200 -139 881 -249 1015 -1209 1486 -647 318 -721
328 -1246 178z m1133 -747 c364 -174 510 -402 615 -964 81 -427 -216 -1065
-587 -1264 -313 -168 -952 -175 -1251 -15 -746 399 -818 1710 -120 2181 396
267 867 289 1343 62z"/>
</g>
</svg>
