<?xml version="1.0" encoding="UTF-8" ?>
<!DOCTYPE svg PUBLIC "-//W3C//DTD SVG 1.1//EN" "http://www.w3.org/Graphics/SVG/1.1/DTD/svg11.dtd">
<svg width="294pt" height="589pt" viewBox="0 0 294 589" version="1.1" xmlns="http://www.w3.org/2000/svg">
<path fill="#fefefe" d=" M 0.00 0.00 L 294.00 0.00 L 294.00 589.00 L 0.00 589.00 L 0.00 0.00 Z" />
<path fill="#143d40" d=" M 135.24 13.41 C 139.38 7.86 147.55 6.13 153.67 9.23 C 157.40 11.07 160.26 14.49 161.51 18.44 C 164.12 29.50 163.74 41.82 170.35 51.55 C 177.96 62.47 191.23 67.95 204.08 69.51 C 221.30 71.59 237.31 81.33 247.30 95.48 C 254.68 105.78 258.75 118.36 259.03 131.01 C 259.02 242.01 259.03 353.00 259.02 463.99 C 258.90 468.60 258.01 473.23 256.14 477.46 C 256.29 472.33 257.26 467.13 255.98 462.08 C 255.19 457.76 255.59 453.37 255.53 449.02 C 255.53 343.68 255.53 238.34 255.53 133.00 C 255.52 132.28 255.51 131.56 255.50 130.85 C 255.48 130.30 255.43 129.21 255.41 128.66 C 254.45 105.85 238.92 84.59 217.61 76.50 C 208.84 72.76 199.03 73.14 190.13 69.86 C 179.18 66.08 168.93 58.55 164.25 47.69 C 160.83 38.96 160.24 29.50 158.42 20.39 C 157.26 14.84 151.70 10.50 145.99 11.14 C 141.02 11.60 136.65 15.53 135.71 20.44 C 133.31 32.06 133.38 45.03 125.82 54.85 C 117.15 66.30 102.76 71.65 88.90 73.20 C 64.00 76.58 42.86 97.63 39.32 122.49 C 38.93 125.35 38.67 128.22 38.55 131.09 C 38.53 131.73 38.52 132.36 38.51 133.00 C 38.56 242.71 38.57 352.42 38.51 462.14 C 51.90 462.12 65.28 462.14 78.67 462.13 L 78.63 462.89 C 64.94 463.68 51.20 462.61 37.51 463.37 C 37.15 466.48 36.74 469.59 36.46 472.72 L 36.39 473.46 C 35.81 470.56 34.93 467.63 35.14 464.65 C 35.48 462.45 35.88 460.27 36.01 458.06 C 35.96 362.38 35.97 266.68 36.00 170.99 C 36.00 160.97 35.87 150.96 36.11 140.95 C 36.23 137.37 35.73 133.81 35.13 130.28 C 35.35 115.29 41.45 100.48 51.59 89.45 C 61.47 78.57 75.28 71.32 89.89 69.53 C 102.74 68.00 116.11 62.66 123.77 51.74 C 128.43 45.40 129.27 37.38 130.71 29.89 C 131.84 24.33 131.42 18.03 135.24 13.41 Z" />
<path fill="#3eaab9" d=" M 135.71 20.44 C 136.65 15.53 141.02 11.60 145.99 11.14 C 151.70 10.50 157.26 14.84 158.42 20.39 C 160.24 29.50 160.83 38.96 164.25 47.69 C 168.93 58.55 179.18 66.08 190.13 69.86 C 199.03 73.14 208.84 72.76 217.61 76.50 C 238.92 84.59 254.45 105.85 255.41 128.66 C 251.73 129.85 247.85 130.23 243.99 130.11 C 176.02 129.96 108.05 130.32 40.08 129.91 C 39.80 127.44 39.50 124.97 39.32 122.49 C 42.86 97.63 64.00 76.58 88.90 73.20 C 102.76 71.65 117.15 66.30 125.82 54.85 C 133.38 45.03 133.31 32.06 135.71 20.44 Z" />
<path fill="#66bbc7" d=" M 38.55 131.09 C 38.67 128.22 38.93 125.35 39.32 122.49 C 39.50 124.97 39.80 127.44 40.08 129.91 C 108.05 130.32 176.02 129.96 243.99 130.11 C 247.85 130.23 251.73 129.85 255.41 128.66 C 255.43 129.21 255.48 130.30 255.50 130.85 C 230.34 131.36 205.17 130.72 180.00 131.09 C 158.01 130.99 136.02 130.80 114.02 131.09 C 88.86 131.14 63.71 130.75 38.55 131.09 Z" />
<path fill="#162a30" d=" M 35.13 130.28 C 35.73 133.81 36.23 137.37 36.11 140.95 C 35.87 150.96 36.00 160.97 36.00 170.99 C 35.97 266.68 35.96 362.38 36.01 458.06 C 35.88 460.27 35.48 462.45 35.14 464.65 C 34.78 435.44 35.08 406.21 34.98 377.00 C 34.98 316.03 34.98 255.06 34.98 194.09 C 35.08 172.82 34.78 151.55 35.13 130.28 Z" />
<path fill="#05363e" d=" M 38.55 131.09 C 63.71 130.75 88.86 131.14 114.02 131.09 C 136.02 130.80 158.01 130.99 180.00 131.09 C 205.17 130.72 230.34 131.36 255.50 130.85 C 255.51 131.56 255.52 132.28 255.53 133.00 C 183.19 133.02 110.85 133.01 38.51 133.00 C 38.52 132.36 38.53 131.73 38.55 131.09 Z" />
<path fill="#e3f3f5" d=" M 38.51 133.00 C 110.85 133.01 183.19 133.02 255.53 133.00 C 255.53 238.34 255.53 343.68 255.53 449.02 C 255.59 453.37 255.19 457.76 255.98 462.08 C 242.44 462.18 228.90 462.10 215.35 462.12 C 215.45 453.82 215.43 445.52 215.36 437.22 C 221.51 437.25 227.67 437.30 233.83 437.16 C 233.88 433.31 233.89 429.46 233.90 425.61 C 229.58 425.33 225.25 425.38 220.92 425.43 C 220.97 348.41 220.93 271.40 220.94 194.39 C 225.25 194.41 229.57 194.45 233.88 194.25 C 233.88 190.41 233.89 186.57 233.86 182.73 C 226.83 182.43 219.78 182.61 212.74 182.59 C 212.56 175.63 213.60 168.44 211.33 161.71 C 208.15 152.21 198.93 145.02 188.86 144.63 C 181.02 144.31 173.17 144.60 165.32 144.54 C 163.17 141.44 160.60 138.24 156.77 137.27 C 152.90 136.46 148.93 136.83 145.01 136.74 C 141.73 136.81 138.22 136.50 135.21 138.09 C 132.35 139.42 130.53 142.09 128.71 144.54 C 120.84 144.60 112.97 144.31 105.11 144.63 C 96.10 145.03 87.69 150.83 83.85 158.95 C 80.19 166.28 81.49 174.68 81.31 182.56 C 74.27 182.62 67.22 182.44 60.17 182.71 C 60.16 186.56 60.19 190.42 60.20 194.27 C 64.15 194.43 68.11 194.43 72.07 194.40 C 72.18 271.40 72.09 348.41 72.12 425.41 C 68.14 425.40 64.15 425.36 60.18 425.58 C 60.19 429.43 60.19 433.28 60.21 437.14 C 66.37 437.32 72.54 437.25 78.70 437.23 C 78.63 445.53 78.71 453.83 78.67 462.13 C 65.28 462.14 51.90 462.12 38.51 462.14 C 38.57 352.42 38.56 242.71 38.51 133.00 Z" />
<path fill="#133e45" d=" M 135.21 138.09 C 138.22 136.50 141.73 136.81 145.01 136.74 C 148.93 136.83 152.90 136.46 156.77 137.27 C 160.60 138.24 163.17 141.44 165.32 144.54 C 173.17 144.60 181.02 144.31 188.86 144.63 C 198.93 145.02 208.15 152.21 211.33 161.71 C 213.60 168.44 212.56 175.63 212.74 182.59 C 219.78 182.61 226.83 182.43 233.86 182.73 C 233.89 186.57 233.88 190.41 233.88 194.25 C 229.57 194.45 225.25 194.41 220.94 194.39 C 220.93 271.40 220.97 348.41 220.92 425.43 C 225.25 425.38 229.58 425.33 233.90 425.61 C 233.89 429.46 233.88 433.31 233.83 437.16 C 227.67 437.30 221.51 437.25 215.36 437.22 C 215.43 445.52 215.45 453.82 215.35 462.12 C 228.90 462.10 242.44 462.18 255.98 462.08 C 257.26 467.13 256.29 472.33 256.14 477.46 C 251.65 489.95 239.71 499.24 226.66 501.30 C 226.65 525.88 226.71 550.45 226.64 575.02 C 226.64 577.19 225.46 580.60 222.87 580.32 C 221.29 580.08 219.70 580.09 218.13 580.33 C 215.55 580.63 214.43 577.22 214.37 575.10 C 214.30 550.67 214.34 526.23 214.35 501.80 C 210.18 501.92 206.00 501.74 201.83 501.82 C 200.58 506.45 201.09 511.27 201.11 516.00 C 201.23 529.68 201.06 543.36 201.13 557.04 C 201.23 563.97 200.56 570.97 201.84 577.84 C 200.32 579.60 198.56 581.59 195.97 581.29 C 193.37 581.57 191.63 579.52 190.12 577.75 C 191.38 570.89 190.81 563.91 190.88 556.98 C 190.92 540.98 190.79 524.98 190.96 508.98 C 190.94 506.58 190.68 504.18 190.14 501.84 C 185.98 501.75 181.81 501.90 177.65 501.80 C 177.70 526.22 177.71 550.65 177.65 575.07 C 177.78 578.23 175.25 581.30 171.99 581.28 C 168.38 581.82 165.16 578.56 165.37 575.01 C 165.33 550.61 165.31 526.21 165.38 501.81 C 161.27 501.92 157.14 501.57 153.05 502.02 L 152.31 502.15 C 151.72 519.75 152.24 537.37 152.06 554.98 C 152.27 562.63 151.38 570.35 152.81 577.93 C 151.25 579.61 149.54 581.57 146.99 581.32 C 144.43 581.57 142.73 579.59 141.20 577.88 C 142.62 570.32 141.76 562.62 141.95 554.99 C 141.86 537.36 142.14 519.74 141.79 502.12 L 140.98 502.00 C 136.88 501.61 132.77 501.90 128.67 501.81 C 128.71 526.24 128.73 550.68 128.66 575.11 C 128.80 578.61 125.60 581.79 122.05 581.28 C 118.31 581.34 115.97 577.48 116.32 574.06 C 116.38 549.98 116.24 525.90 116.39 501.82 C 112.19 501.85 108.00 501.86 103.80 501.75 C 103.40 504.16 103.08 506.59 103.03 509.04 C 103.21 529.35 103.28 549.66 103.00 569.97 C 103.03 572.63 103.36 575.27 103.79 577.90 C 101.51 581.98 95.34 582.55 92.71 578.54 C 93.23 561.35 92.81 544.14 92.95 526.94 C 92.83 518.65 93.30 510.34 92.72 502.05 L 91.96 501.96 C 87.87 501.63 83.76 501.89 79.66 501.83 C 79.74 526.24 79.72 550.66 79.68 575.08 C 80.01 579.73 74.52 582.84 70.55 580.64 C 68.02 579.46 67.24 576.52 67.38 573.96 C 67.32 549.75 67.38 525.54 67.34 501.33 C 52.68 499.01 39.44 487.40 36.46 472.72 C 36.74 469.59 37.15 466.48 37.51 463.37 C 51.20 462.61 64.94 463.68 78.63 462.89 L 78.67 462.13 C 78.71 453.83 78.63 445.53 78.70 437.23 C 72.54 437.25 66.37 437.32 60.21 437.14 C 60.19 433.28 60.19 429.43 60.18 425.58 C 64.15 425.36 68.14 425.40 72.12 425.41 C 72.09 348.41 72.18 271.40 72.07 194.40 C 68.11 194.43 64.15 194.43 60.20 194.27 C 60.19 190.42 60.16 186.56 60.17 182.71 C 67.22 182.44 74.27 182.62 81.31 182.56 C 81.49 174.68 80.19 166.28 83.85 158.95 C 87.69 150.83 96.10 145.03 105.11 144.63 C 112.97 144.31 120.84 144.60 128.71 144.54 C 130.53 142.09 132.35 139.42 135.21 138.09 Z" />
<path fill="#57b7c7" d=" M 130.05 146.35 C 132.36 143.26 134.72 139.45 138.97 139.04 C 144.29 138.64 149.68 138.64 155.00 139.05 C 159.25 139.48 161.95 143.13 163.86 146.57 C 171.92 146.70 179.99 146.51 188.05 146.66 C 197.07 146.76 205.50 152.79 208.87 161.09 C 211.67 167.91 210.39 175.43 210.69 182.61 C 209.08 182.57 207.47 182.54 205.86 182.51 C 205.87 177.33 206.20 172.13 205.73 166.97 C 204.82 158.09 196.97 150.37 187.98 150.02 C 180.01 149.79 172.03 149.96 164.05 150.01 C 164.01 153.57 164.01 157.12 163.99 160.67 C 152.66 160.61 141.33 160.59 130.00 160.67 C 130.00 157.12 130.02 153.56 129.94 150.01 C 122.31 149.91 114.68 149.89 107.04 149.95 C 98.74 149.89 91.03 156.12 88.91 164.08 C 87.40 170.13 88.40 176.46 88.00 182.63 C 86.45 182.62 84.90 182.61 83.35 182.61 C 83.46 177.40 83.10 172.17 83.64 166.99 C 84.72 156.64 93.69 147.72 104.07 146.83 C 112.71 146.11 121.44 147.20 130.05 146.35 Z" />
<path fill="#e3f3f5" d=" M 91.58 162.61 C 94.09 156.50 100.35 152.04 107.00 152.01 C 114.00 151.98 121.00 152.01 128.00 151.99 C 127.96 155.57 127.93 159.14 128.04 162.71 C 140.69 162.73 153.33 162.73 165.97 162.70 C 166.10 159.13 166.09 155.56 166.04 151.99 C 173.01 152.01 179.98 151.99 186.96 152.00 C 194.64 151.98 201.72 157.96 203.36 165.40 C 204.41 171.06 203.72 176.86 203.92 182.58 C 165.99 182.57 128.07 182.57 90.14 182.58 C 90.61 175.94 89.10 168.97 91.58 162.61 Z" />
<path fill="#57b7c7" d=" M 62.33 184.65 C 118.78 184.69 175.23 184.69 231.68 184.64 C 231.73 187.19 231.77 189.73 231.84 192.28 C 175.29 192.39 118.73 192.39 62.18 192.27 C 62.25 189.73 62.29 187.19 62.33 184.65 Z" />
<path fill="#57b7c7" d=" M 74.21 194.37 C 122.41 194.39 170.62 194.38 218.83 194.37 C 218.82 271.38 218.79 348.38 218.84 425.39 C 170.63 425.41 122.42 425.42 74.21 425.38 C 74.24 348.38 74.25 271.37 74.21 194.37 Z" />
<path fill="#143d40" d=" M 84.89 218.09 C 101.84 218.13 118.79 217.94 135.74 218.18 C 135.94 226.15 135.83 234.13 135.81 242.11 C 118.84 242.34 101.86 242.29 84.88 242.13 C 84.78 234.12 84.73 226.10 84.89 218.09 Z" />
<path fill="#143d40" d=" M 158.28 218.21 C 175.23 217.91 192.18 218.15 209.14 218.08 C 209.36 226.09 209.25 234.11 209.21 242.12 C 192.21 242.29 175.19 242.34 158.19 242.09 C 158.20 234.13 158.08 226.17 158.28 218.21 Z" />
<path fill="#e3f3f5" d=" M 86.89 220.08 C 102.52 220.16 118.16 220.10 133.79 220.12 C 133.85 226.79 133.75 233.47 133.86 240.14 C 118.20 240.11 102.54 240.10 86.88 240.15 C 86.87 233.46 86.89 226.77 86.89 220.08 Z" />
<path fill="#e3f3f5" d=" M 160.23 220.13 C 175.86 220.07 191.50 220.20 207.14 220.06 C 207.13 226.75 207.13 233.44 207.13 240.13 C 191.49 240.11 175.84 240.13 160.20 240.13 C 160.26 233.46 160.24 226.79 160.23 220.13 Z" />
<path fill="#70bfcb" d=" M 159.18 277.70 C 174.43 278.23 189.71 277.87 204.97 277.91 C 206.78 277.99 208.56 278.38 210.33 278.74 L 209.10 278.83 C 192.16 279.42 175.19 278.82 158.24 279.15 C 157.96 287.14 158.46 295.14 157.96 303.13 L 157.86 304.41 C 155.64 297.44 157.54 290.12 156.82 282.99 C 156.58 281.05 156.46 277.81 159.18 277.70 Z" />
<path fill="#143d40" d=" M 84.87 279.12 C 101.61 279.08 118.35 278.98 135.09 279.16 L 135.64 279.40 C 136.18 287.29 135.69 295.22 135.83 303.13 C 118.85 303.33 101.86 303.22 84.88 303.19 C 84.76 295.16 84.75 287.14 84.87 279.12 Z" />
<path fill="#143d40" d=" M 158.24 279.15 C 175.19 278.82 192.16 279.42 209.10 278.83 C 209.40 286.95 209.22 295.08 209.22 303.20 C 192.13 303.20 175.04 303.35 157.96 303.13 C 158.46 295.14 157.96 287.14 158.24 279.15 Z" />
<path fill="#e3f3f5" d=" M 86.88 281.06 C 102.52 281.19 118.16 281.08 133.80 281.12 C 133.84 287.79 133.76 294.46 133.84 301.13 C 118.20 301.13 102.55 301.13 86.90 301.13 C 86.88 294.44 86.89 287.75 86.88 281.06 Z" />
<path fill="#e3f3f5" d=" M 160.23 281.13 C 175.87 281.06 191.51 281.21 207.15 281.06 C 207.12 287.75 207.13 294.44 207.13 301.13 C 191.49 301.13 175.85 301.13 160.20 301.13 C 160.28 294.47 160.22 287.80 160.23 281.13 Z" />
<path fill="#143d40" d=" M 84.85 342.56 C 101.85 342.50 118.87 342.32 135.87 342.68 C 135.85 350.59 135.82 358.51 135.89 366.42 C 118.93 366.99 101.93 366.56 84.96 366.65 C 84.66 358.62 84.83 350.59 84.85 342.56 Z" />
<path fill="#143d40" d=" M 158.16 342.67 C 175.17 342.33 192.19 342.47 209.19 342.57 C 209.23 350.61 209.41 358.65 209.10 366.68 C 192.25 366.51 175.37 366.99 158.53 366.45 C 157.65 358.58 158.43 350.59 158.16 342.67 Z" />
<path fill="#e3f3f5" d=" M 86.86 344.53 C 102.52 344.65 118.18 344.57 133.84 344.57 C 133.76 351.25 133.84 357.92 133.79 364.61 C 118.16 364.60 102.53 364.53 86.90 364.63 C 86.86 357.93 86.90 351.23 86.86 344.53 Z" />
<path fill="#e3f3f5" d=" M 160.19 344.56 C 175.84 344.59 191.49 344.63 207.13 344.54 C 207.13 351.24 207.14 357.94 207.12 364.65 C 191.49 364.50 175.86 364.62 160.23 364.58 C 160.23 357.91 160.27 351.23 160.19 344.56 Z" />
<path fill="#57b7c7" d=" M 62.32 427.52 C 118.79 427.47 175.26 427.52 231.73 427.49 C 231.74 430.04 231.76 432.59 231.79 435.14 C 175.27 435.16 118.75 435.27 62.23 435.10 C 62.27 432.57 62.29 430.04 62.32 427.52 Z" />
<path fill="#65b7c7" d=" M 80.75 437.18 C 82.21 437.20 83.66 437.23 85.12 437.26 C 85.26 445.57 85.17 453.89 85.18 462.20 C 83.70 462.17 82.22 462.15 80.75 462.13 C 80.73 453.82 80.71 445.50 80.75 437.18 Z" />
<path fill="#e4f3f6" d=" M 87.23 437.23 C 91.49 437.26 95.74 437.27 100.00 437.23 C 100.00 445.54 100.00 453.86 100.00 462.17 C 95.73 462.10 91.46 462.12 87.19 462.12 C 87.30 453.82 87.24 445.53 87.23 437.23 Z" />
<path fill="#66bbc7" d=" M 102.02 437.23 C 103.56 437.25 105.09 437.29 106.63 437.33 C 106.47 445.63 106.68 453.93 106.50 462.23 C 105.00 462.18 103.50 462.14 102.00 462.10 C 102.03 453.81 101.98 445.52 102.02 437.23 Z" />
<path fill="#e3f3f5" d=" M 108.66 437.20 C 112.88 437.27 117.09 437.27 121.31 437.21 C 121.30 445.51 121.27 453.81 121.31 462.12 C 117.08 462.12 112.85 462.14 108.62 462.13 C 108.71 453.82 108.63 445.51 108.66 437.20 Z" />
<path fill="#65b7c7" d=" M 123.38 437.25 C 124.90 437.24 126.42 437.24 127.95 437.24 C 127.97 445.55 127.95 453.86 128.00 462.18 C 126.45 462.13 124.89 462.10 123.34 462.07 C 123.44 453.79 123.40 445.52 123.38 437.25 Z" />
<path fill="#e3f3f5" d=" M 130.00 437.22 C 134.24 437.26 138.48 437.24 142.72 437.23 C 142.78 445.53 142.70 453.83 142.76 462.13 C 138.50 462.11 134.25 462.12 130.00 462.12 C 130.00 453.82 130.00 445.52 130.00 437.22 Z" />
<path fill="#65b7c7" d=" M 144.85 437.24 C 146.29 437.22 147.74 437.21 149.19 437.20 C 149.34 445.52 149.17 453.84 149.28 462.15 C 147.78 462.15 146.28 462.15 144.78 462.15 C 144.80 453.85 144.73 445.54 144.85 437.24 Z" />
<path fill="#e4f3f5" d=" M 151.27 437.24 C 155.51 437.24 159.76 437.28 164.00 437.21 C 164.00 445.51 164.00 453.81 164.00 462.12 C 159.74 462.15 155.49 462.12 151.24 462.12 C 151.36 453.83 151.27 445.53 151.27 437.24 Z" />
<path fill="#66bbc7" d=" M 166.10 437.26 C 167.62 437.26 169.14 437.27 170.67 437.28 C 170.60 445.55 170.50 453.82 170.69 462.09 C 169.15 462.11 167.62 462.14 166.09 462.17 C 166.07 453.87 166.06 445.56 166.10 437.26 Z" />
<path fill="#e3f3f5" d=" M 172.75 437.20 C 176.95 437.28 181.15 437.26 185.34 437.20 C 185.42 445.50 185.32 453.81 185.41 462.12 C 181.19 462.12 176.97 462.13 172.74 462.13 C 172.80 453.82 172.78 445.51 172.75 437.20 Z" />
<path fill="#66bbc7" d=" M 187.43 437.29 C 188.95 437.27 190.46 437.26 191.97 437.25 C 192.01 445.60 191.99 453.95 192.00 462.29 C 190.55 462.05 188.89 462.41 187.58 461.72 C 187.21 453.58 187.61 445.43 187.43 437.29 Z" />
<path fill="#e4f3f5" d=" M 194.00 437.23 C 198.26 437.27 202.53 437.24 206.79 437.22 C 206.85 445.52 206.73 453.82 206.87 462.12 C 202.58 462.12 198.29 462.13 194.00 462.11 C 194.00 453.82 194.00 445.52 194.00 437.23 Z" />
<path fill="#65b7c7" d=" M 208.90 437.27 C 210.35 437.24 211.80 437.21 213.25 437.19 C 213.36 445.50 213.21 453.82 213.33 462.13 C 211.84 462.15 210.36 462.18 208.89 462.21 C 208.86 453.90 208.87 445.58 208.90 437.27 Z" />
<path fill="#3eaab9" d=" M 38.31 464.37 C 98.86 464.15 159.42 464.34 219.97 464.27 C 231.88 464.39 243.80 464.09 255.72 464.40 C 255.02 472.26 252.33 480.06 247.08 486.06 C 240.44 493.86 230.26 498.56 219.98 498.29 C 171.00 498.24 122.02 498.32 73.05 498.26 C 61.41 498.36 50.16 491.84 43.98 482.06 C 40.51 476.80 38.96 470.57 38.31 464.37 Z" />
<path fill="#57b7c7" d=" M 70.91 501.75 C 72.66 501.78 74.42 501.81 76.17 501.85 C 76.08 526.97 76.31 552.08 76.06 577.20 C 74.08 578.26 70.46 578.07 70.95 575.00 C 70.82 550.58 70.90 526.16 70.91 501.75 Z" />
<path fill="#0c282d" d=" M 91.96 501.96 L 92.72 502.05 C 93.30 510.34 92.83 518.65 92.95 526.94 C 92.81 544.14 93.23 561.35 92.71 578.54 C 92.22 577.06 91.93 575.51 91.96 573.96 C 91.97 549.96 91.98 525.96 91.96 501.96 Z" />
<path fill="#66bbc7" d=" M 95.29 501.88 C 97.11 501.84 98.93 501.81 100.75 501.78 C 100.66 525.85 100.75 549.93 100.72 574.01 C 101.08 576.00 99.50 578.90 97.18 577.75 C 95.48 577.35 95.37 575.43 95.37 574.03 C 95.27 549.98 95.43 525.93 95.29 501.88 Z" />
<path fill="#0a272e" d=" M 103.03 509.04 C 103.08 506.59 103.40 504.16 103.80 501.75 C 104.44 516.81 103.90 531.92 104.08 547.00 C 103.91 557.30 104.44 567.62 103.79 577.90 C 103.36 575.27 103.03 572.63 103.00 569.97 C 103.28 549.66 103.21 529.35 103.03 509.04 Z" />
<path fill="#58b3bc" d=" M 119.89 501.84 C 121.66 501.82 123.43 501.80 125.20 501.78 C 125.07 526.91 125.26 552.05 125.11 577.18 C 123.42 577.79 121.64 577.72 119.92 577.29 C 119.85 552.14 119.90 526.99 119.89 501.84 Z" />
<path fill="#0b2426" d=" M 140.98 502.00 L 141.79 502.12 C 142.14 519.74 141.86 537.36 141.95 554.99 C 141.76 562.62 142.62 570.32 141.20 577.88 C 140.67 552.60 141.13 527.29 140.98 502.00 Z" />
<path fill="#58b7c7" d=" M 144.23 501.86 C 146.09 501.85 147.95 501.85 149.81 501.85 C 149.71 525.93 149.80 550.01 149.77 574.09 C 149.91 575.76 149.01 578.16 146.98 577.97 C 144.97 578.04 144.14 575.74 144.31 574.06 C 144.25 550.00 144.43 525.93 144.23 501.86 Z" />
<path fill="#0a252b" d=" M 152.31 502.15 L 153.05 502.02 C 152.92 527.32 153.40 552.65 152.81 577.93 C 151.38 570.35 152.27 562.63 152.06 554.98 C 152.24 537.37 151.72 519.75 152.31 502.15 Z" />
<path fill="#57b7c7" d=" M 168.85 501.85 C 170.63 501.82 172.40 501.79 174.18 501.77 C 174.13 526.90 174.25 552.03 174.11 577.16 C 172.41 577.79 170.62 577.77 168.91 577.18 C 168.80 552.07 168.92 526.96 168.85 501.85 Z" />
<path fill="#0a252b" d=" M 190.14 501.84 C 190.68 504.18 190.94 506.58 190.96 508.98 C 190.79 524.98 190.92 540.98 190.88 556.98 C 190.81 563.91 191.38 570.89 190.12 577.75 C 189.89 552.45 189.84 527.13 190.14 501.84 Z" />
<path fill="#66bbc7" d=" M 193.24 501.84 C 195.09 501.84 196.93 501.85 198.78 501.86 C 198.58 526.25 198.86 550.65 198.65 575.04 C 198.96 577.19 196.13 578.94 194.47 577.38 C 193.20 576.74 193.44 575.18 193.32 574.03 C 193.29 549.96 193.47 525.90 193.24 501.84 Z" />
<path fill="#0b2a30" d=" M 201.11 516.00 C 201.09 511.27 200.58 506.45 201.83 501.82 C 202.37 517.54 201.91 533.28 202.06 549.01 C 201.94 558.61 202.33 568.24 201.84 577.84 C 200.56 570.97 201.23 563.97 201.13 557.04 C 201.06 543.36 201.23 529.68 201.11 516.00 Z" />
<path fill="#57b7c7" d=" M 217.85 501.81 C 219.60 501.80 221.36 501.79 223.12 501.79 C 223.12 526.92 223.19 552.04 223.07 577.17 C 221.05 578.23 217.48 578.15 217.93 575.02 C 217.77 550.62 217.94 526.21 217.85 501.81 Z" />
<path fill="#57b7c7" d=" M 122.11 508.53 C 122.93 510.30 123.85 512.10 123.93 514.10 C 124.46 522.05 124.01 530.03 124.18 538.01 C 124.10 546.57 124.57 555.17 123.59 563.71 C 123.01 567.98 124.96 572.70 122.17 576.49 C 119.76 572.30 121.22 567.47 121.11 562.93 C 121.06 545.94 121.33 528.93 120.97 511.94 C 121.27 510.78 121.65 509.64 122.11 508.53 Z" />
<path fill="#0f2629" d=" M 218.13 580.33 C 219.70 580.09 221.29 580.08 222.87 580.32 C 222.65 581.98 218.39 581.96 218.13 580.33 Z" />
</svg>
