{"k":"0000000088","o":"0000000055","v":"001"}
{"_id":"vw5-vamax","_uid":1,"_dt":1462392839504,"_s":"e7658453b3761464380718e2646a248d"}
{"_id":"vw5-vamax","value":"Anodspänning","version":1}
{"k":"0000000089","o":"0000000063","v":"001"}
{"_id":"vw5-vamaxp","_uid":1,"_dt":1462392839504,"_s":"bbb965d258d792e620b418f83eb0533b"}
{"_id":"vw5-vamaxp","value":"Anodspänning (topp)","version":1}
{"k":"0000000088","o":"0000000056","v":"001"}
{"_id":"vw5-pamax","_uid":1,"_dt":1462392839504,"_s":"ef9492882d9101dcf558da40c030d22f"}
{"_id":"vw5-pamax","value":"Anod power max","version":1}
{"k":"0000000089","o":"0000000062","v":"001"}
{"_id":"vw5-vg2max","_uid":1,"_dt":1462392839504,"_s":"f7b60e8f1d5b9d4d90f6678af8aed71d"}
{"_id":"vw5-vg2max","value":"Rutnät 2 spänning","version":1}
{"k":"0000000090","o":"0000000070","v":"001"}
{"_id":"vw5-vg2maxp","_uid":1,"_dt":1462392839504,"_s":"9a7f7725fa58098622b2692f440916ae"}
{"_id":"vw5-vg2maxp","value":"Rutnät 2 spänning (topp)","version":1}
{"k":"0000000089","o":"0000000062","v":"001"}
{"_id":"vw5-ig2max","_uid":1,"_dt":1462392839504,"_s":"692caeb5d7d63069e6e6e7df77c69f13"}
{"_id":"vw5-ig2max","value":"Rutnät 2 nuvarande","version":1}
{"k":"0000000090","o":"0000000067","v":"001"}
{"_id":"vw5-ig2maxp","_uid":1,"_dt":1462392839504,"_s":"05807f8c6e352fb782dcf0eda0856e37"}
{"_id":"vw5-ig2maxp","value":"Rutnät 2 ström (topp)","version":1}
{"k":"0000000089","o":"0000000062","v":"001"}
{"_id":"vw5-pg2max","_uid":1,"_dt":1462392839504,"_s":"970d4458fcf810b741df8025cc9f65fe"}
{"_id":"vw5-pg2max","value":"Rutnät 2 power max","version":1}
{"k":"0000000088","o":"0000000054","v":"001"}
{"_id":"vw5-ikmax","_uid":1,"_dt":1462392839504,"_s":"d00242e22216933289c4742d0143434a"}
{"_id":"vw5-ikmax","value":"Katod ström","version":1}
{"k":"0000000089","o":"0000000065","v":"001"}
{"_id":"vw5-ikmaxp","_uid":1,"_dt":1462392839509,"_s":"39a6f16ce3b73f8fc6cf729de1db6f11"}
{"_id":"vw5-ikmaxp","value":"Katod nuvarande (topp)","version":1}
{"k":"0000000090","o":"0000000071","v":"001"}
{"_id":"vw5-vg1nmax","_uid":1,"_dt":1462392839509,"_s":"f28f84f847a8711b7fb2d702909429ea"}
{"_id":"vw5-vg1nmax","value":"Rutnät 1 negativ spänning","version":1}
{"k":"0000000091","o":"0000000079","v":"001"}
{"_id":"vw5-vg1nmaxp","_uid":1,"_dt":1462392839509,"_s":"5e23e6f3c2ca83fad34e6ffff88dc993"}
{"_id":"vw5-vg1nmaxp","value":"Rutnät 1 negativ spänning (topp)","version":1}
{"k":"0000000089","o":"0000000062","v":"001"}
{"_id":"vw5-ig1max","_uid":1,"_dt":1462392839509,"_s":"539c087ab589c69dd6072585d8873fd8"}
{"_id":"vw5-ig1max","value":"Rutnät 1 nuvarande","version":1}
{"k":"0000000090","o":"0000000070","v":"001"}
{"_id":"vw5-ig1maxp","_uid":1,"_dt":1462392839509,"_s":"ea1e62beda4edd17ea58162355cafd74"}
{"_id":"vw5-ig1maxp","value":"Rutnät 1 nuvarande (topp)","version":1}
{"k":"0000000090","o":"0000000081","v":"001"}
{"_id":"vw5-vhknmax","_uid":1,"_dt":1462392839509,"_s":"644e64710903913c720922d4e2995572"}
{"_id":"vw5-vhknmax","value":"Max värmare-katod negativa spänning","version":1}
{"k":"0000000090","o":"0000000080","v":"001"}
{"_id":"vw5-vhkpmax","_uid":1,"_dt":1462392839509,"_s":"b9603c4321f12923a18e761faa29ee8d"}
{"_id":"vw5-vhkpmax","value":"Max värmare-katod positiv spänning","version":1}
{"k":"0000000086","o":"0000000063","v":"001"}
{"_id":"vw5-cgk","_uid":1,"_dt":1462392839509,"_s":"2ab5123a8df94c0fc49930e8c24d39ad"}
{"_id":"vw5-cgk","value":"Grid 1-katod kapacitans","version":1}
{"k":"0000000086","o":"0000000061","v":"001"}
{"_id":"vw5-cak","_uid":1,"_dt":1462392839509,"_s":"4e098f14b19bdbc9b58876e2e1dd0db1"}
{"_id":"vw5-cak","value":"anod-katod kapacitans","version":1}
{"k":"0000000086","o":"0000000062","v":"001"}
{"_id":"vw5-cga","_uid":1,"_dt":1462392839509,"_s":"6581ce4595fb57023eb95472ebd4930b"}
{"_id":"vw5-cga","value":"Grid 1-anod kapacitans","version":1}
{"k":"0000000087","o":"0000000044","v":"001"}
{"_id":"vw5-note","_uid":1,"_dt":1462392839509,"_s":"8732c3e666ae241bc8e3c79ed22a1e76"}
{"_id":"vw5-note","value":"Obs","version":1}
{"k":"0000000087","o":"0000000046","v":"001"}
{"_id":"vw5-unit","_uid":1,"_dt":1462392839509,"_s":"d4ff3252ed2d72b7954823d2aff0ff35"}
{"_id":"vw5-unit","value":"Enhet","version":1}
{"k":"0000000087","o":"0000000057","v":"001"}
{"_id":"vw5-mode","_uid":1,"_dt":1462392839509,"_s":"c9caba5a5e935d85ef7c911bd3878252"}
{"_id":"vw5-mode","value":"Anslutningsläge","version":1}
{"k":"0000000085","o":"0000000052","v":"001"}
{"_id":"vw5-va","_uid":1,"_dt":1462392839509,"_s":"4bc76400b9c6b2843a616ecdbdbef129"}
{"_id":"vw5-va","value":"Anodspänning","version":1}
{"k":"0000000089","o":"0000000066","v":"001"}
{"_id":"vw5-iazero","_uid":1,"_dt":1462392839509,"_s":"8bb0fc6ace064e593d6d87c5f3d75cba"}
{"_id":"vw5-iazero","value":"Anod nuvarande vid noll","version":1}
{"k":"0000000087","o":"0000000062","v":"001"}
{"_id":"vw5-load","_uid":1,"_dt":1462392839509,"_s":"c6a247a6ded3f1ce7587b5aea0229934"}
{"_id":"vw5-load","value":"Anod laddamotståndet","version":1}
{"k":"0000000088","o":"0000000073","v":"001"}
{"_id":"vw5-vinpp","_uid":1,"_dt":1462392839509,"_s":"b51b5b05cc250c149718445a11ea09c5"}
{"_id":"vw5-vinpp","value":"Ingående spänning (topp-topp)","version":1}
{"k":"0000000083","o":"0000000048","v":"001"}
{"_id":"info","_uid":1,"_dt":1462392839509,"_s":"98484ed3f5dd332ac7e194dc989d61e3"}
{"_id":"info","value":"information","version":1}
{"k":"0000000084","o":"0000000044","v":"001"}
{"_id":"close","_uid":1,"_dt":1462392839509,"_s":"9b23c979f203ae5c0b3035787d1588bd"}
{"_id":"close","value":"Stäng","version":1}
{"k":"0000000086","o":"0000000047","v":"001"}
{"_id":"warning","_uid":1,"_dt":1462392839509,"_s":"79a8880114df318af05d24058419a8f3"}
{"_id":"warning","value":"Varning","version":1}
{"k":"0000000084","o":"0000000041","v":"001"}
{"_id":"error","_uid":1,"_dt":1462392839509,"_s":"600402d72b2a4f8fabeb8fbab798488a"}
{"_id":"error","value":"fel","version":1}
{"k":"0000000092","o":"0000000053","v":"001"}
{"_id":"settingspanel","_uid":1,"_dt":1462392839509,"_s":"dd7beb9abf461ed9abbbde9a599149d1"}
{"_id":"settingspanel","value":"Panelen","version":1}
{"k":"0000000084","o":"0000000055","v":"001"}
{"_id":"noinf","_uid":1,"_dt":1462392839514,"_s":"8a3182bb521d00f1ebd256a0da174381"}
{"_id":"noinf","value":"Ingen information","version":1}
{"k":"0000000085","o":"0000000053","v":"001"}
{"_id":"ttyp-3","_uid":1,"_dt":1462392839514,"_s":"3c310f3bef07b87a731e161aa44816c4"}
{"_id":"ttyp-3","value":"Dubbel trioden","version":1}
{"k":"0000000088","o":"0000000052","v":"001"}
{"_id":"versionof","_uid":1,"_dt":1462392839514,"_s":"87030094d3ea1741b63cd68f15863ef1"}
{"_id":"versionof","value":"Version av","version":1}
{"k":"0000000086","o":"0000000062","v":"001"}
{"_id":"genchar","_uid":1,"_dt":1462392839514,"_s":"70ed94599ef2cd6f535b06cb168a5687"}
{"_id":"genchar","value":"Allmän karaktäristik","version":1}
{"k":"0000000085","o":"0000000057","v":"001"}
{"_id":"vw5-vh","_uid":1,"_dt":1462392839514,"_s":"1f4af5fdcd313c75f4a43f6bc2925ae2"}
{"_id":"vw5-vh","value":"Filament spänning","version":1}
{"k":"0000000085","o":"0000000054","v":"001"}
{"_id":"vw5-ih","_uid":1,"_dt":1462392839514,"_s":"cdf044675118ea33ea56346cf296f9ab"}
{"_id":"vw5-ih","value":"Filament ström","version":1}
{"k":"0000000081","o":"0000000040","v":"001"}
{"_id":"or","_uid":1,"_dt":1462392839514,"_s":"421e06610671a9a01f382dc55256fdca"}
{"_id":"or","value":"eller","version":1}
{"k":"0000000083","o":"0000000041","v":"001"}
{"_id":"base","_uid":1,"_dt":1462392839514,"_s":"7413594b0fd11030aa0f11aadaf44f7d"}
{"_id":"base","value":"Base","version":1}
{"k":"0000000085","o":"0000000044","v":"001"}
{"_id":"pinout","_uid":1,"_dt":1462392839514,"_s":"5b64f418634e8ea9b3efc14f5c693269"}
{"_id":"pinout","value":"Pinut","version":1}
{"k":"0000000088","o":"0000000058","v":"001"}
{"_id":"pinoutcnx","_uid":1,"_dt":1462392839514,"_s":"32393be6408eaa4a534f3acaa547c2f3"}
{"_id":"pinoutcnx","value":"Pinut anslutning","version":1}
{"k":"0000000085","o":"0000000045","v":"001"}
{"_id":"socket","_uid":1,"_dt":1462392839514,"_s":"210d2fb422746c526586bc7c849dc7b3"}
{"_id":"socket","value":"Socket","version":1}
{"k":"0000000089","o":"0000000056","v":"001"}
{"_id":"maxratings","_uid":1,"_dt":1462392839514,"_s":"8deb2d7a8a1c43ea371d8d99eac7bfec"}
{"_id":"maxratings","value":"Högsta betyg","version":1}
{"k":"0000000087","o":"0000000060","v":"001"}
{"_id":"usageexs","_uid":1,"_dt":1462392839514,"_s":"b6ba8aae4390bde2aa8b1830fdfa0ff8"}
{"_id":"usageexs","value":"Exempel användning","version":1}
{"k":"0000000088","o":"0000000087","v":"001"}
{"_id":"nousageex","_uid":1,"_dt":1462392839514,"_s":"f12900102541b1409387a834589fdb6d"}
{"_id":"nousageex","value":"Ingen användning exempel bifogas detta rör.","version":1}
{"k":"0000000083","o":"0000000045","v":"001"}
{"_id":"docs","_uid":1,"_dt":1462392839514,"_s":"2fde33eebc88795fc4b34a38ce472191"}
{"_id":"docs","value":"Dokument","version":1}
{"k":"0000000084","o":"0000000080","v":"001"}
{"_id":"nodoc","_uid":1,"_dt":1462392839514,"_s":"ff7d32c54a2c0f00302ee6151bb355e4"}
{"_id":"nodoc","value":"Inga dokument som bifogas till detta rör.","version":1}
{"k":"0000000086","o":"0000000059","v":"001"}
{"_id":"usageex","_uid":1,"_dt":1462392839514,"_s":"e9a94d69800bb51ee4102736dcd5bd9b"}
{"_id":"usageex","value":"Användning exemple","version":1}
{"k":"0000000086","o":"0000000049","v":"001"}
{"_id":"display","_uid":1,"_dt":1462392839514,"_s":"dd14ec150d0cc0c407f82c5b491145e4"}
{"_id":"display","value":"Displayen","version":1}
{"k":"0000000086","o":"0000000050","v":"001"}
{"_id":"welcome","_uid":1,"_dt":1462392839514,"_s":"f5b73c6499af3438ccb852073d77398b"}
{"_id":"welcome","value":"Välkommen","version":1}
{"k":"0000000085","o":"0000000047","v":"001"}
{"_id":"logout","_uid":1,"_dt":1462392839514,"_s":"bc456677adc3cfa8e7b41a70a4e5795b"}
{"_id":"logout","value":"Logga ut","version":1}
{"k":"0000000084","o":"0000000046","v":"001"}
{"_id":"login","_uid":1,"_dt":1462392839514,"_s":"f4960b6e5a85392ad126d757f3336e74"}
{"_id":"login","value":"Logga in","version":1}
