{"k":"0000000089","o":"0000000075","v":"001"}
{"_id":"hom1-ddlg0","_uid":1,"_dt":1456821986480,"_s":"ca627564ff55e204196ff4a35d5187cd"}
{"_id":"hom1-ddlg0","value":"Supprimer les données de tube ?","version":1}
{"k":"0000000089","o":"0000000136","v":"001"}
{"_id":"hom1-ddlg1","_uid":1,"_dt":1456821986480,"_s":"7a4e42a1f11fc0952faab900d38c002c"}
{"_id":"hom1-ddlg1","value":"&#13; &#10; Etes-vous sûr de vouloir supprimer votre version de ce tube? &#13; &#10;        ","version":1}
{"k":"0000000089","o":"0000000204","v":"001"}
{"_id":"hom1-ddlg2","_uid":1,"_dt":1456821986480,"_s":"e376f0cfec33a00638ab409742271f3d"}
{"_id":"hom1-ddlg2","value":"&#13; &#10; Être conscient que si il existe une version publique de ce tube, vous obtiendrez la version publique sur vos futures recherches. &#13; &#10;        ","version":1}
{"k":"0000000085","o":"0000000048","v":"001"}
{"_id":"delete","_uid":1,"_dt":1456821986480,"_s":"dbc64d256073ebf464b2e3beeda504bd"}
{"_id":"delete","value":"Supprimer","version":1}
{"k":"0000000085","o":"0000000046","v":"001"}
{"_id":"cancel","_uid":1,"_dt":1456821986480,"_s":"31bfd67d01aac61de27c7e1737f7d8c5"}
{"_id":"cancel","value":"Annuler","version":1}
{"k":"0000000092","o":"0000000085","v":"001"}
{"_id":"hom1-seltitle","_uid":1,"_dt":1456821986480,"_s":"486c69adbbb2d5fce29e720ea277d780"}
{"_id":"hom1-seltitle","value":"Liste des documents joints à ce tube :","version":1}
{"k":"0000000083","o":"0000000041","v":"001"}
{"_id":"info","_uid":1,"_dt":1456821986480,"_s":"1317a28f519688d4c8a92d1f4b4dc609"}
{"_id":"info","value":"info","version":1}
{"k":"0000000084","o":"0000000044","v":"001"}
{"_id":"close","_uid":1,"_dt":1456821986480,"_s":"9da95b1c504025845316c81bd6a004f1"}
{"_id":"close","value":"Fermer","version":1}
{"k":"0000000086","o":"0000000053","v":"001"}
{"_id":"warning","_uid":1,"_dt":1456821986480,"_s":"79b2cb93c4e99a120165cd5a25b5301b"}
{"_id":"warning","value":"mise en garde","version":1}
{"k":"0000000084","o":"0000000044","v":"001"}
{"_id":"error","_uid":1,"_dt":1456821986480,"_s":"971ed79dc5dfb8f862452c47651badda"}
{"_id":"error","value":"erreur","version":1}
{"k":"0000000088","o":"0000000058","v":"001"}
{"_id":"hom1-edit","_uid":1,"_dt":1456821986485,"_s":"e038478023c22e4be437e17e213b1759"}
{"_id":"hom1-edit","value":"Modifier ce tube","version":1}
{"k":"0000000091","o":"0000000096","v":"001"}
{"_id":"hom1-ucreate","_uid":1,"_dt":1456821986485,"_s":"0ba671812c7a934125a935c9db7ef81f"}
{"_id":"hom1-ucreate","value":"Créer un nouvel exemple d'utilisation pour ce tube","version":1}
{"k":"0000000091","o":"0000000085","v":"001"}
{"_id":"hom1-gcreate","_uid":1,"_dt":1456821986485,"_s":"68cac6cc9b99b67cd2869b8476f8139d"}
{"_id":"hom1-gcreate","value":"Créer un nouveau graphique pour ce tube","version":1}
{"k":"0000000093","o":"0000000079","v":"001"}
{"_id":"hom1-attachdoc","_uid":1,"_dt":1456821986485,"_s":"368c2d129f6c662324f34d6b403c1b4e"}
{"_id":"hom1-attachdoc","value":"Joindre des documents à ce tube","version":1}
{"k":"0000000090","o":"0000000082","v":"001"}
{"_id":"hom1-delete","_uid":1,"_dt":1456821986485,"_s":"f72a69b6b9e0fb37233ca1ca0081e655"}
{"_id":"hom1-delete","value":"Supprimer la version d'user de ce tube","version":1}
{"k":"0000000092","o":"0000000070","v":"001"}
{"_id":"settingspanel","_uid":1,"_dt":1456821986485,"_s":"3d355f575f25aa9bcb22eec760a9ac90"}
{"_id":"settingspanel","value":"Panneau de configuration","version":1}
{"k":"0000000089","o":"0000000065","v":"001"}
{"_id":"createtube","_uid":1,"_dt":1456821986485,"_s":"54010c0fa4062d0e5466c7e439718662"}
{"_id":"createtube","value":"Créer un nouveau tube","version":1}
{"k":"0000000088","o":"0000000068","v":"001"}
{"_id":"hom1-slbl","_uid":1,"_dt":1456821986485,"_s":"fd2353124fa640eff30afc426d16fd5f"}
{"_id":"hom1-slbl","value":"Recherchez une référence","version":1}
{"k":"0000000088","o":"0000000060","v":"001"}
{"_id":"advsearch","_uid":1,"_dt":1456821986485,"_s":"491f7e3f8601b8473ecb144d58841d29"}
{"_id":"advsearch","value":"Recherche avancée","version":1}
{"k":"0000000089","o":"0000000063","v":"001"}
{"_id":"latestnews","_uid":1,"_dt":1456821986485,"_s":"2532603bd21ed805e6a2cf68d6f8dd90"}
{"_id":"latestnews","value":"Dernières nouvelles","version":1}
{"k":"0000000085","o":"0000000048","v":"001"}
{"_id":"search","_uid":1,"_dt":1456821986485,"_s":"fe677f1c5e8a879163d07b43f2411409"}
{"_id":"search","value":"Recherche","version":1}
{"k":"0000000088","o":"0000000076","v":"001"}
{"_id":"hom1-albl","_uid":1,"_dt":1456821986485,"_s":"712e45a5c41ed4881d6545b878f433c5"}
{"_id":"hom1-albl","value":"Ajouter vos critères de recherche","version":1}
{"k":"0000000091","o":"0000000061","v":"001"}
{"_id":"simplesearch","_uid":1,"_dt":1456821986485,"_s":"fa54975db85e80c74ce9bfc517d1bfb1"}
{"_id":"simplesearch","value":"Recherche simple","version":1}
{"k":"0000000082","o":"0000000060","v":"001"}
{"_id":"add","_uid":1,"_dt":1456821986485,"_s":"25f2fd07482921951b00f9e377e94fd2"}
{"_id":"add","value":"Ajouter un nouveau champ","version":1}
{"k":"0000000086","o":"0000000061","v":"001"}
{"_id":"usageex","_uid":1,"_dt":1456821986485,"_s":"76a4e526d8ee690b67281c712257690d"}
{"_id":"usageex","value":"Exemple d'utilisation","version":1}
{"k":"0000000086","o":"0000000049","v":"001"}
{"_id":"display","_uid":1,"_dt":1456821986485,"_s":"5501407833777fecd2265326ca9adefe"}
{"_id":"display","value":"Affichage","version":1}
{"k":"0000000083","o":"0000000046","v":"001"}
{"_id":"docs","_uid":1,"_dt":1456821986485,"_s":"583825527c5e7fd7804a76e5db0fd217"}
{"_id":"docs","value":"Documents","version":1}
{"k":"0000000084","o":"0000000070","v":"001"}
{"_id":"nodoc","_uid":1,"_dt":1456821986485,"_s":"eac42208ddd1f4ea7f6a969589e61283"}
{"_id":"nodoc","value":"Aucun document joint à ce tube.","version":1}
{"k":"0000000081","o":"0000000039","v":"001"}
{"_id":"ok","_uid":1,"_dt":1456821986485,"_s":"1de6c5c9f8dc337bda1bd1ff78f02f83"}
{"_id":"ok","value":"Bien","version":1}
{"k":"0000000086","o":"0000000049","v":"001"}
{"_id":"welcome","_uid":1,"_dt":1456821986485,"_s":"8cd31053c46a8c960e868a621bc9f8d5"}
{"_id":"welcome","value":"Bienvenue","version":1}
{"k":"0000000085","o":"0000000045","v":"001"}
{"_id":"logout","_uid":1,"_dt":1456821986485,"_s":"2ed5135df903a1893b8ed2c1b4f2ec45"}
{"_id":"logout","value":"Logout","version":1}
{"k":"0000000084","o":"0000000058","v":"001"}
{"_id":"login","_uid":1,"_dt":1456821986485,"_s":"fde17e9c9e4dbbbff0e7412029b9a15d"}
{"_id":"login","value":"ouverture de session","version":1}
{"k":"0000000085","o":"0000000066","v":"001"}
{"_id":"ttyp-2","_uid":1,"_dt":1456821986485,"_s":"3bd9c929fcf4ba6dae8a887b4cf8419b"}
{"_id":"ttyp-2","value":"Double Triode (symétrique)","version":1}
{"k":"0000000087","o":"0000000050","v":"001"}
{"_id":"filament","_uid":1,"_dt":1456821986490,"_s":"9b968fc302f44139f144debbc912d7d0"}
{"_id":"filament","value":"Filaments","version":1}
{"k":"0000000083","o":"0000000044","v":"001"}
{"_id":"base","_uid":1,"_dt":1456821986490,"_s":"864f57705c88e3d39579cd27782be859"}
{"_id":"base","value":"Base de","version":1}
{"k":"0000000085","o":"0000000046","v":"001"}
{"_id":"anode-","_uid":1,"_dt":1456821986490,"_s":"078217b0d00c6eece1953c1797d6056f"}
{"_id":"anode-","value":"Anode :","version":1}
{"k":"0000000086","o":"0000000050","v":"001"}
{"_id":"pinout-","_uid":1,"_dt":1456821986490,"_s":"a79be6e126def76b09c2da3e15825720"}
{"_id":"pinout-","value":"Brochage :","version":1}
{"k":"0000000085","o":"0000000049","v":"001"}
{"_id":"grid2-","_uid":1,"_dt":1456821986490,"_s":"8d5ef57ac0779971fe1e04617be42378"}
{"_id":"grid2-","value":"Grille 2 :","version":1}
{"k":"0000000084","o":"0000000046","v":"001"}
{"_id":"unit-","_uid":1,"_dt":1456821986490,"_s":"d4283886c6828a743aa1ce96c0cda072"}
{"_id":"unit-","value":"Unité :","version":1}
{"k":"0000000085","o":"0000000047","v":"001"}
{"_id":"-unit1","_uid":1,"_dt":1456821986490,"_s":"67bc7a3f82703a3fbd1ee0052b2ce464"}
{"_id":"-unit1","value":"Unité 1","version":1}
{"k":"0000000085","o":"0000000047","v":"001"}
{"_id":"-unit2","_uid":1,"_dt":1456821986490,"_s":"c29ff43f9c917136e929761d051da3d8"}
{"_id":"-unit2","value":"Unité 2","version":1}
{"k":"0000000085","o":"0000000047","v":"001"}
{"_id":"-unit3","_uid":1,"_dt":1456821986490,"_s":"5d1b8c00633afdfbffdc2f36a0ece1cc"}
{"_id":"-unit3","value":"Unité 3","version":1}
{"k":"0000000085","o":"0000000047","v":"001"}
{"_id":"-unit4","_uid":1,"_dt":1456821986490,"_s":"f9aad1c17d5ab396b587eb40e1bed374"}
{"_id":"-unit4","value":"Unité 4","version":1}
{"k":"0000000084","o":"0000000055","v":"001"}
{"_id":"-view","_uid":1,"_dt":1456821986490,"_s":"1ed9c4bcb700c72563910f51ff50d43a"}
{"_id":"-view","value":"Découvre ce tube","version":1}
{"k":"0000000083","o":"0000000041","v":"001"}
{"_id":"more","_uid":1,"_dt":1456821986490,"_s":"eace6a5178d8ef5dc16bfd9e11101e91"}
{"_id":"more","value":"Plus","version":1}
{"k":"0000000088","o":"0000000052","v":"001"}
{"_id":"versionof","_uid":1,"_dt":1456821986490,"_s":"22ca84819220023b9456b16994ca99c2"}
{"_id":"versionof","value":"Version de","version":1}
{"k":"0000000085","o":"0000000059","v":"001"}
{"_id":"log5-1","_uid":1,"_dt":1456822202880,"_s":"fff4222f05ea67c503167192b7ad0dbc"}
{"_id":"log5-1","value":"Connexion au service","version":1}
{"k":"0000000085","o":"0000000053","v":"001"}
{"_id":"signup","_uid":1,"_dt":1456822202880,"_s":"b4db0c0090661483b0eb09a9a8c59b50"}
{"_id":"signup","value":"Inscrivez-vous","version":1}
{"k":"0000000087","o":"0000000068","v":"001"}
{"_id":"resetpwd","_uid":1,"_dt":1456822202880,"_s":"ace918e1c92cdef7d8760e8a18bbe23d"}
{"_id":"resetpwd","value":"Réinitialiser mot de passe","version":1}
{"k":"0000000087","o":"0000000080","v":"001"}
{"_id":"log5-uu2","_uid":1,"_dt":1456822202880,"_s":"7f440a665eb5edd9a24029fbe484a553"}
{"_id":"log5-uu2","value":"Veuillez entrer votre nom d'utilisateur","version":1}
{"k":"0000000087","o":"0000000058","v":"001"}
{"_id":"username","_uid":1,"_dt":1456822202880,"_s":"c71efa70f956ec31d834e57d63378d29"}
{"_id":"username","value":"Nom d'utilisateur","version":1}
{"k":"0000000087","o":"0000000068","v":"001"}
{"_id":"log5-ue2","_uid":1,"_dt":1456822202880,"_s":"33690cb3d715a85b698d6f538c86f717"}
{"_id":"log5-ue2","value":"Veuillez entrer votre email","version":1}
{"k":"0000000084","o":"0000000046","v":"001"}
{"_id":"email","_uid":1,"_dt":1456822202880,"_s":"0ded4569491a5da1a949b5b1ae811021"}
{"_id":"email","value":"Courriel","version":1}
{"k":"0000000087","o":"0000000078","v":"001"}
{"_id":"log5-ul2","_uid":1,"_dt":1456822202880,"_s":"67f801f69a878d51dcafd0e1b1660ff0"}
{"_id":"log5-ul2","value":"Veuillez entrer votre login ou e-mail","version":1}
{"k":"0000000087","o":"0000000055","v":"001"}
{"_id":"log5-ul3","_uid":1,"_dt":1456822202880,"_s":"6f6e1e2649cc44a4fe5626e2ee11e875"}
{"_id":"log5-ul3","value":"Login ou email","version":1}
{"k":"0000000087","o":"0000000075","v":"001"}
{"_id":"log5-up2","_uid":1,"_dt":1456822202880,"_s":"4c483159cd22a0c11cb8658c4f97eaf5"}
{"_id":"log5-up2","value":"Veuillez entrer votre mot de passe","version":1}
{"k":"0000000082","o":"0000000048","v":"001"}
{"_id":"pwd","_uid":1,"_dt":1456822202880,"_s":"8ae901b8e8aaf264756bd4db9737a53e"}
{"_id":"pwd","value":"Mot de passe","version":1}
{"k":"0000000088","o":"0000000079","v":"001"}
{"_id":"log5-upc2","_uid":1,"_dt":1456822202880,"_s":"927408d70b26e4b4a38ee1f3ae40983f"}
{"_id":"log5-upc2","value":"Veuillez confirmer votre mot de passe","version":1}
{"k":"0000000088","o":"0000000070","v":"001"}
{"_id":"log5-upc3","_uid":1,"_dt":1456822202880,"_s":"8b844da2a632bc2107e5ce47ae25902a"}
{"_id":"log5-upc3","value":"Confirmation de mot de passe","version":1}
{"k":"0000000087","o":"0000000051","v":"001"}
{"_id":"register","_uid":1,"_dt":1456822202880,"_s":"ad12d0df3743f81b2b57f1318268e005"}
{"_id":"register","value":"S'inscrire","version":1}
{"k":"0000000084","o":"0000000053","v":"001"}
{"_id":"reset","_uid":1,"_dt":1456822202880,"_s":"14da29f138ff6c7986a2d251e4225f65"}
{"_id":"reset","value":"Remise à zéro","version":1}
{"k":"0000000088","o":"0000000080","v":"001"}
{"_id":"forgotpwd","_uid":1,"_dt":1456822202880,"_s":"b9b41d184c04c94adbb7aae622ccb18a"}
{"_id":"forgotpwd","value":"Vous avez oublié votre mot de passe ?","version":1}
{"k":"0000000089","o":"0000000082","v":"001"}
{"_id":"log5-altlr","_uid":1,"_dt":1456822202880,"_s":"3dfa1aea049564dd8b6a19f711ae4b91"}
{"_id":"log5-altlr","value":"se connecter ou s'inscrire auprès de :","version":1}
{"k":"0000000093","o":"0000000069","v":"001"}
{"_id":"tt-createlocal","_uid":1,"_dt":1456822202880,"_s":"cfab92522946685f38a9336b44f8ebd5"}
{"_id":"tt-createlocal","value":"Créez un compte local","version":1}
{"k":"0000000084","o":"0000000043","v":"001"}
{"_id":"local","_uid":1,"_dt":1456822202880,"_s":"cddfa8e33225c4cd2f160ddf3c03ac52"}
{"_id":"local","value":"Local","version":1}
{"k":"0000000091","o":"0000000080","v":"001"}
{"_id":"tt-logwlocal","_uid":1,"_dt":1456822202885,"_s":"8874e7e5f96d38f8b1f520d28bc23dc4"}
{"_id":"tt-logwlocal","value":"Connectez-vous avec un compte local","version":1}
{"k":"0000000090","o":"0000000068","v":"001"}
{"_id":"tt-cwgoogle","_uid":1,"_dt":1456822202885,"_s":"a7778410139bccd28b0f48956c441546"}
{"_id":"tt-cwgoogle","value":"Se connecter avec Google","version":1}
{"k":"0000000086","o":"0000000064","v":"001"}
{"_id":"tt-cwfb","_uid":1,"_dt":1456822202885,"_s":"243c4e778cbb01d5736cb0264d720a1b"}
{"_id":"tt-cwfb","value":"Rendez-vous sur Facebook","version":1}
{"k":"0000000091","o":"0000000070","v":"001"}
{"_id":"tt-cwtwitter","_uid":1,"_dt":1456822202885,"_s":"25763091ffc0fb734e8d725fc471cfd2"}
{"_id":"tt-cwtwitter","value":"Se connecter avec Twitter","version":1}
{"k":"0000000090","o":"0000000068","v":"001"}
{"_id":"tt-cwgithub","_uid":1,"_dt":1456822202885,"_s":"703ac8b4754f8f97d23d48ec7d2d0282"}
{"_id":"tt-cwgithub","value":"Se connecter avec Github","version":1}
{"k":"0000000089","o":"0000000094","v":"001"}
{"_id":"hom1-merge","_uid":1,"_dt":1456822205525,"_s":"539a165f8ed76c4d87bc610c4afaa746"}
{"_id":"hom1-merge","value":"Fusionner ce tube dans la base de données mondiale","version":1}
{"k":"0000000088","o":"0000000063","v":"001"}
{"_id":"adminpage","_uid":1,"_dt":1456822205525,"_s":"a0693d974eace1488e4632a88b6435ce"}
{"_id":"adminpage","value":"Page d'administration","version":1}
{"k":"0000000085","o":"0000000046","v":"001"}
{"_id":"ttyp-1","_uid":1,"_dt":1456822206340,"_s":"51c0d56aa922c3a5d88d8df17d53a764"}
{"_id":"ttyp-1","value":"Pentode","version":1}
{"k":"0000000085","o":"0000000052","v":"001"}
{"_id":"ttyp-3","_uid":1,"_dt":1456822206340,"_s":"0898edb61dbb620eb8c8fdb15187ae46"}
{"_id":"ttyp-3","value":"Double Triode","version":1}
{"k":"0000000085","o":"0000000045","v":"001"}
{"_id":"ttyp-4","_uid":1,"_dt":1456822206340,"_s":"b62f68869f2d9fb0d98855047712ce58"}
{"_id":"ttyp-4","value":"Triode","version":1}
{"k":"0000000085","o":"0000000044","v":"001"}
{"_id":"ttyp-5","_uid":1,"_dt":1456822206340,"_s":"eb3831fe5d640513d972fdf167a81543"}
{"_id":"ttyp-5","value":"Diode","version":1}
{"k":"0000000085","o":"0000000052","v":"001"}
{"_id":"ttyp-6","_uid":1,"_dt":1456822206340,"_s":"8cd9595e5d4b338c5de42f5d5eeaa4bb"}
{"_id":"ttyp-6","value":"Redresseur FW","version":1}
{"k":"0000000085","o":"0000000055","v":"001"}
{"_id":"ttyp-7","_uid":1,"_dt":1456822206340,"_s":"4574075c1627a68ae159facd2e97fa87"}
{"_id":"ttyp-7","value":"Triode - Pentode","version":1}
{"k":"0000000085","o":"0000000046","v":"001"}
{"_id":"ttyp-8","_uid":1,"_dt":1456822206340,"_s":"a64fa9c3c83a059e3ad3d05548ad2d4b"}
{"_id":"ttyp-8","value":"Heptode","version":1}
{"k":"0000000085","o":"0000000065","v":"001"}
{"_id":"ttyp-9","_uid":1,"_dt":1456822206340,"_s":"dec6b729c429472d43c8ba64838b0d6e"}
{"_id":"ttyp-9","value":"Double Diode (symétrique)","version":1}
{"k":"0000000086","o":"0000000052","v":"001"}
{"_id":"ttyp-10","_uid":1,"_dt":1456822206340,"_s":"61903d732d30ab02b30f0fd40ddae9b6"}
{"_id":"ttyp-10","value":"Double Diode","version":1}
{"k":"0000000086","o":"0000000061","v":"001"}
{"_id":"ttyp-11","_uid":1,"_dt":1456822206340,"_s":"4252e7edba01e82f5b683a8c1d295730"}
{"_id":"ttyp-11","value":"Double Diode - Triode","version":1}
{"k":"0000000086","o":"0000000059","v":"001"}
{"_id":"ttyp-12","_uid":1,"_dt":1456822206340,"_s":"204f1f8af213e0dd40cd2b53eb872741"}
{"_id":"ttyp-12","value":"Indicateur d'accord","version":1}
{"k":"0000000086","o":"0000000061","v":"001"}
{"_id":"ttyp-13","_uid":1,"_dt":1456822206340,"_s":"bf6d0f32005af6673d2af83adb14ca7d"}
{"_id":"ttyp-13","value":"Triode - Diode Double","version":1}
{"k":"0000000086","o":"0000000068","v":"001"}
{"_id":"ttyp-14","_uid":1,"_dt":1456822206340,"_s":"fce2ceaf4870d9a31e4189fe0fec319e"}
{"_id":"ttyp-14","value":"Double Pentode (symétrique)","version":1}
{"k":"0000000086","o":"0000000054","v":"001"}
{"_id":"ttyp-15","_uid":1,"_dt":1456822206340,"_s":"b859751f3301f4cd3dd08cbfeaddebb6"}
{"_id":"ttyp-15","value":"Double Pentode","version":1}
{"k":"0000000086","o":"0000000062","v":"001"}
{"_id":"ttyp-16","_uid":1,"_dt":1456822206340,"_s":"a2185081e8e7bdc2ded3327b92d360bb"}
{"_id":"ttyp-16","value":"Double Diode - Pentode","version":1}
{"k":"0000000086","o":"0000000055","v":"001"}
{"_id":"ttyp-17","_uid":1,"_dt":1456822206340,"_s":"7892e4afb11cb8792d390d6eac83682f"}
{"_id":"ttyp-17","value":"Diode - Pentode","version":1}
{"k":"0000000086","o":"0000000071","v":"001"}
{"_id":"ttyp-18","_uid":1,"_dt":1456822206340,"_s":"c418d096a910482bd819a1f041aafe6f"}
{"_id":"ttyp-18","value":"Double Triode (Cathode commune)","version":1}
{"k":"0000000086","o":"0000000056","v":"001"}
{"_id":"ttyp-19","_uid":1,"_dt":1456822206340,"_s":"4c4f0e7cc79bae8d1fa55d85698ab981"}
{"_id":"ttyp-19","value":"Triode - Heptode","version":1}
{"k":"0000000086","o":"0000000057","v":"001"}
{"_id":"ttyp-20","_uid":1,"_dt":1456822206340,"_s":"f2032580cfb35691cd78c784b2a2ccf9"}
{"_id":"ttyp-20","value":"Triode - tétrode","version":1}
{"k":"0000000086","o":"0000000061","v":"001"}
{"_id":"ttyp-21","_uid":1,"_dt":1456822206340,"_s":"ef5f7df99463ced8c412a903db3b0877"}
{"_id":"ttyp-21","value":"Diode triode - Triode","version":1}
{"k":"0000000086","o":"0000000054","v":"001"}
{"_id":"ttyp-22","_uid":1,"_dt":1456822206340,"_s":"0c2bb8c8bbf22d360ab6af062691c602"}
{"_id":"ttyp-22","value":"Diode - Triode","version":1}
{"k":"0000000086","o":"0000000060","v":"001"}
{"_id":"ttyp-23","_uid":1,"_dt":1456822206340,"_s":"4a6d2ec00983ab3e8fbe3c39aa90b998"}
{"_id":"ttyp-23","value":"Tétrode de faisceau","version":1}
{"k":"0000000086","o":"0000000072","v":"001"}
{"_id":"ttyp-24","_uid":1,"_dt":1456822206340,"_s":"a104cd8d36be5e2d33e2c50e5abad0ce"}
{"_id":"ttyp-24","value":"Double Pentode (Cathode commune)","version":1}
{"k":"0000000086","o":"0000000078","v":"001"}
{"_id":"ttyp-25","_uid":1,"_dt":1456822206340,"_s":"8d2afb9b680045d55152bcfcd938dfaa"}
{"_id":"ttyp-25","value":"Double faisceau tétrode (symétrique)","version":1}
{"k":"0000000086","o":"0000000064","v":"001"}
{"_id":"ttyp-26","_uid":1,"_dt":1456822206340,"_s":"031dbe8914fd6e4f1be9abe3dd4e4b2c"}
{"_id":"ttyp-26","value":"Double faisceau tétrode","version":1}
{"k":"0000000086","o":"0000000058","v":"001"}
{"_id":"ttyp-27","_uid":1,"_dt":1456822206340,"_s":"4589e03839e1223ff2db63261ef324f4"}
{"_id":"ttyp-27","value":"Triode de faisceau","version":1}
{"k":"0000000086","o":"0000000049","v":"001"}
{"_id":"ttyp-28","_uid":1,"_dt":1456822206340,"_s":"7e5b3792cf2c2f532b8499150e11120c"}
{"_id":"ttyp-28","value":"Thyratron","version":1}
{"k":"0000000086","o":"0000000048","v":"001"}
{"_id":"ttyp-29","_uid":1,"_dt":1456822206340,"_s":"5af0156d5d52f389068627e4246ca82f"}
{"_id":"ttyp-29","value":"Tétrode","version":1}
{"k":"0000000086","o":"0000000059","v":"001"}
{"_id":"ttyp-30","_uid":1,"_dt":1456822206340,"_s":"31b9bba74b257618d76a8ef9e1bb08f4"}
{"_id":"ttyp-30","value":"Pentode recto verso","version":1}
{"k":"0000000086","o":"0000000065","v":"001"}
{"_id":"ttyp-31","_uid":1,"_dt":1456822206340,"_s":"49c95c770b5506324922afd054549ed6"}
{"_id":"ttyp-31","value":"Triple Triode (identique)","version":1}
{"k":"0000000086","o":"0000000053","v":"001"}
{"_id":"ttyp-32","_uid":1,"_dt":1456822206345,"_s":"57971c9f5044fe86da8e88df786b3ad7"}
{"_id":"ttyp-32","value":"Triode triple","version":1}
{"k":"0000000086","o":"0000000069","v":"001"}
{"_id":"ttyp-33","_uid":1,"_dt":1456822206345,"_s":"a6bf93825f3cfa7efac28d4f023ec972"}
{"_id":"ttyp-33","value":"Tétrode double (symétrique)","version":1}
{"k":"0000000086","o":"0000000055","v":"001"}
{"_id":"ttyp-34","_uid":1,"_dt":1456822206345,"_s":"dada17b4c734fb4b128a768c859faa88"}
{"_id":"ttyp-34","value":"Tétrode double","version":1}
{"k":"0000000086","o":"0000000064","v":"001"}
{"_id":"ttyp-35","_uid":1,"_dt":1456822206345,"_s":"93932b24741e74861f43eff2a2667ac0"}
{"_id":"ttyp-35","value":"Diode - Triode - Pentode","version":1}
{"k":"0000000086","o":"0000000063","v":"001"}
{"_id":"ttyp-36","_uid":1,"_dt":1456822206345,"_s":"5a13fcb1ace7551d83536b2fb977e595"}
{"_id":"ttyp-36","value":"Double Diode - tétrode","version":1}
{"k":"0000000086","o":"0000000064","v":"001"}
{"_id":"ttyp-37","_uid":1,"_dt":1456822206345,"_s":"c6adec2230494dbee59aa1fa30c8fd5d"}
{"_id":"ttyp-37","value":"Diode triple (identique)","version":1}
{"k":"0000000086","o":"0000000052","v":"001"}
{"_id":"ttyp-38","_uid":1,"_dt":1456822206345,"_s":"cd93f083674f7d0d5fb6ff589fda3a01"}
{"_id":"ttyp-38","value":"Diode triple","version":1}
{"k":"0000000086","o":"0000000062","v":"001"}
{"_id":"ttyp-39","_uid":1,"_dt":1456822206345,"_s":"9875b9fe107788970e9c88a067659d27"}
{"_id":"ttyp-39","value":"Double Diode - Pentode","version":1}
{"k":"0000000086","o":"0000000068","v":"001"}
{"_id":"ttyp-40","_uid":1,"_dt":1456822206345,"_s":"5249338be8c037bef651bdc18bfdfc5f"}
{"_id":"ttyp-40","value":"Double Diode - double Triode","version":1}
{"k":"0000000086","o":"0000000063","v":"001"}
{"_id":"ttyp-41","_uid":1,"_dt":1456822206345,"_s":"b058514228f46b684df8bf32d0196114"}
{"_id":"ttyp-41","value":"Double Triode - Pentode","version":1}
{"k":"0000000086","o":"0000000059","v":"001"}
{"_id":"ttyp-42","_uid":1,"_dt":1456822206345,"_s":"89c898ea06312db01db8302cb1d57363"}
{"_id":"ttyp-42","value":"Anode double Triode","version":1}
{"k":"0000000086","o":"0000000062","v":"001"}
{"_id":"ttyp-43","_uid":1,"_dt":1456822206345,"_s":"cda8f484f85763b7895794c58f7215bf"}
{"_id":"ttyp-43","value":"Modulateur de faisceau","version":1}
{"k":"0000000084","o":"0000000087","v":"001"}
{"_id":"news0","_uid":1,"_dt":1456822216060,"_s":"53307967d2d9c5de86c599d8da58765d"}
{"_id":"news0","value":"Base de données créée, 2766 tubes disponibles.","version":1}
{"k":"0000000088","o":"0000000144","v":"001"}
{"_id":"msg-leave","_uid":1,"_dt":1456822235140,"_s":"237342ed7446f8ab6a86383bcdeeee2f"}
{"_id":"msg-leave","value":"Vos données sont non enregistrées, si vous partez maintenant, vous perdrez toutes vos modifications.","version":1}
{"k":"0000000090","o":"0000000068","v":"001"}
{"_id":"msg-mandfld","_uid":1,"_dt":1456822235140,"_s":"1c2addadd152732bbf6ec76de5f7779e"}
{"_id":"msg-mandfld","value":"Le champ est obligatoire","version":1}
{"k":"0000000092","o":"0000000060","v":"001"}
{"_id":"nothingtosave","_uid":1,"_dt":1456822235140,"_s":"768355ccf21167eebe650147f92cceb7"}
{"_id":"nothingtosave","value":"Rien à sauver","version":1}
{"k":"0000000086","o":"0000000069","v":"001"}
{"_id":"savemod","_uid":1,"_dt":1456822235140,"_s":"f87e7874088bac2d10d7a8c157a88699"}
{"_id":"savemod","value":"Sauvegarder les modifications","version":1}
{"k":"0000000087","o":"0000000160","v":"001"}
{"_id":"tde8-mii","_uid":1,"_dt":1456822235140,"_s":"f4ab5f7b47b436566c19c3a791e0ced8"}
{"_id":"tde8-mii","value":"Fusionner vers la base de données globale. S'il vous plaît vérifier avec soin les modifications avant d'enregistrer.","version":1}
{"k":"0000000086","o":"0000000057","v":"001"}
{"_id":"tde8-T1","_uid":1,"_dt":1456822235140,"_s":"20cbeed6ace2998ff4df12b25182d6fd"}
{"_id":"tde8-T1","value":"Caractéristiques","version":1}
{"k":"0000000084","o":"0000000043","v":"001"}
{"_id":"name-","_uid":1,"_dt":1456822235140,"_s":"70b038750aaa29d4dabb34d1b013b6f8"}
{"_id":"name-","value":"Nom :","version":1}
{"k":"0000000084","o":"0000000044","v":"001"}
{"_id":"type-","_uid":1,"_dt":1456822235140,"_s":"5515db8b382bd5ba6171af2ebb17ef0e"}
{"_id":"type-","value":"Type :","version":1}
{"k":"0000000086","o":"0000000050","v":"001"}
{"_id":"loading","_uid":1,"_dt":1456822235140,"_s":"ac2d1aab94cb1ef858f8b6c605db47ea"}
{"_id":"loading","value":"Chargement","version":1}
{"k":"0000000082","o":"0000000059","v":"001"}
{"_id":"vh-","_uid":1,"_dt":1456822235140,"_s":"04f795c5a0eb97e18f1df7d6df48f4f9"}
{"_id":"vh-","value":"Tension des filaments :","version":1}
{"k":"0000000080","o":"0000000039","v":"001"}
{"_id":"V","_uid":1,"_dt":1456822235140,"_s":"ae5feb81292c0cd965fd980244362372"}
{"_id":"V","value":"Volts","version":1}
{"k":"0000000082","o":"0000000058","v":"001"}
{"_id":"ih-","_uid":1,"_dt":1456822235140,"_s":"f7a6d9ca946997f64fc1799fb41a1186"}
{"_id":"ih-","value":"Courant de filaments :","version":1}
{"k":"0000000080","o":"0000000042","v":"001"}
{"_id":"A","_uid":1,"_dt":1456822235140,"_s":"a54d7c909ee7fd3b36053da7f25d737a"}
{"_id":"A","value":"Ampères","version":1}
{"k":"0000000086","o":"0000000057","v":"001"}
{"_id":"tde8-dh","_uid":1,"_dt":1456822235140,"_s":"13e33f08f1d3557e46c25d20c4dd7abd"}
{"_id":"tde8-dh","value":"Filaments doubles","version":1}
{"k":"0000000084","o":"0000000044","v":"001"}
{"_id":"base-","_uid":1,"_dt":1456822235140,"_s":"de86984bc8c852232fd6c6d5182f6432"}
{"_id":"base-","value":"Base :","version":1}
{"k":"0000000084","o":"0000000048","v":"001"}
{"_id":"note-","_uid":1,"_dt":1456822235145,"_s":"8a84a56c1e2f05a23f77888050e805d2"}
{"_id":"note-","value":"Remarque :","version":1}
{"k":"0000000086","o":"0000000067","v":"001"}
{"_id":"tde8-T2","_uid":1,"_dt":1456822235145,"_s":"fb147a78f3b283a75c5e3c98bf29e49c"}
{"_id":"tde8-T2","value":"Caractéristiques maximales","version":1}
{"k":"0000000083","o":"0000000043","v":"001"}
{"_id":"unit","_uid":1,"_dt":1456822235145,"_s":"cd8fea2a661474f72130667a99719683"}
{"_id":"unit","value":"Unité","version":1}
{"k":"0000000090","o":"0000000113","v":"001"}
{"_id":"tde8-notype","_uid":1,"_dt":1456822235145,"_s":"93aaa3ec1ea41a50bb3245c8efef22da"}
{"_id":"tde8-notype","value":"Sélectionnez un type de tube avant d'entrer dans les cotes maximales","version":1}
{"k":"0000000085","o":"0000000065","v":"001"}
{"_id":"vamax-","_uid":1,"_dt":1456822235145,"_s":"4d8822d9dc84a0cc56eae9f9a89b4cff"}
{"_id":"vamax-","value":"Tension maximale d'Anode :","version":1}
{"k":"0000000084","o":"0000000043","v":"001"}
{"_id":"peak-","_uid":1,"_dt":1456822235145,"_s":"7be4b5bdc33e9745381c4bed212c0c8d"}
{"_id":"peak-","value":"PIC :","version":1}
{"k":"0000000088","o":"0000000062","v":"001"}
{"_id":"maxpower-","_uid":1,"_dt":1456822235145,"_s":"14f542392f3d364d93078636b69ebad6"}
{"_id":"maxpower-","value":"Puissance maximale :","version":1}
{"k":"0000000080","o":"0000000039","v":"001"}
{"_id":"W","_uid":1,"_dt":1456822235145,"_s":"465e42b41379c79633658ee7e4e6cddc"}
{"_id":"W","value":"Watts","version":1}
{"k":"0000000086","o":"0000000067","v":"001"}
{"_id":"vg2max-","_uid":1,"_dt":1456822235145,"_s":"b115ca25b1f55c5f664182d33810ca38"}
{"_id":"vg2max-","value":"Tension maximale grille 2 :","version":1}
{"k":"0000000083","o":"0000000040","v":"001"}
{"_id":"peak","_uid":1,"_dt":1456822235145,"_s":"316a1174ba8a5b5fb9ef29cc5d500faf"}
{"_id":"peak","value":"PIC","version":1}
{"k":"0000000086","o":"0000000066","v":"001"}
{"_id":"ig2max-","_uid":1,"_dt":1456822235145,"_s":"2097a834cb4f3eb2141d7132f2c00212"}
{"_id":"ig2max-","value":"Courant maximal grille 2 :","version":1}
{"k":"0000000085","o":"0000000067","v":"001"}
{"_id":"ikmax-","_uid":1,"_dt":1456822235145,"_s":"de6df74dc8a712547a7d0bdce866bd26"}
{"_id":"ikmax-","value":"Courant maximal de Cathode :","version":1}
{"k":"0000000087","o":"0000000078","v":"001"}
{"_id":"vg1nmax-","_uid":1,"_dt":1456822235145,"_s":"dcbc167d4e92736edd5cfd29afb99e25"}
{"_id":"vg1nmax-","value":"Tension grille négative maximale 1 :","version":1}
{"k":"0000000086","o":"0000000066","v":"001"}
{"_id":"ig1max-","_uid":1,"_dt":1456822235145,"_s":"393abaa52699fa700cda262db4ce7f98"}
{"_id":"ig1max-","value":"Courant maximal grille 1 :","version":1}
{"k":"0000000083","o":"0000000066","v":"001"}
{"_id":"cgk-","_uid":1,"_dt":1456822235150,"_s":"ce36a599a894c5edce70b4cf81943d18"}
{"_id":"cgk-","value":"Capacitances grille-Cathode :","version":1}
{"k":"0000000081","o":"0000000039","v":"001"}
{"_id":"pF","_uid":1,"_dt":1456822235150,"_s":"226d891cf2cafe4472ead5b20a118431"}
{"_id":"pF","value":"Pico","version":1}
{"k":"0000000081","o":"0000000047","v":"001"}
{"_id":"ga","_uid":1,"_dt":1456822235150,"_s":"61a1e8e814ba381e5281fb8fd9d69025"}
{"_id":"ga","value":"Grille-Anode","version":1}
{"k":"0000000082","o":"0000000051","v":"001"}
{"_id":"cak","_uid":1,"_dt":1456822235150,"_s":"9f4e2d5bd77c6de0eb3db88e9b2dc598"}
{"_id":"cak","value":"Anode-Cathode :","version":1}
{"k":"0000000086","o":"0000000048","v":"001"}
{"_id":"tde8-T3","_uid":1,"_dt":1456822235150,"_s":"588fbc6a56c9ae663355e684a30225c1"}
{"_id":"tde8-T3","value":"Fichiers","version":1}
{"k":"0000000086","o":"0000000126","v":"001"}
{"_id":"tde8-11","_uid":1,"_dt":1456822235150,"_s":"13785b74cffc4781867a19419a72e96f"}
{"_id":"tde8-11","value":"Naviguez pour sélectionner et télécharger un fichier sur votre feuille de données.","version":1}
{"k":"0000000096","o":"0000000091","v":"001"}
{"_id":"tde8-create-graph","_uid":1,"_dt":1456822235150,"_s":"10e35cff646891d4c21ec45353268036"}
{"_id":"tde8-create-graph","value":"Créer un nouveau graphique pour ce tube.","version":1}
{"k":"0000000087","o":"0000000054","v":"001"}
{"_id":"download","_uid":1,"_dt":1456822235150,"_s":"3dcc5e023c8742b8c36db5eea7c9e72e"}
{"_id":"download","value":"Télécharger","version":1}
{"k":"0000000086","o":"0000000071","v":"001"}
{"_id":"tde8-13","_uid":1,"_dt":1456822235150,"_s":"9e05931463d7d55d6cfbd43465256480"}
{"_id":"tde8-13","value":"Chargement, veuillez patienter.","version":1}
{"k":"0000000086","o":"0000000062","v":"001"}
{"_id":"tde8-T4","_uid":1,"_dt":1456822235150,"_s":"07614ecf0bd4e1c6d257043db332ad53"}
{"_id":"tde8-T4","value":"Exemples d'utilisation","version":1}
{"k":"0000000093","o":"0000000090","v":"001"}
{"_id":"tde8-new-usage","_uid":1,"_dt":1456822235150,"_s":"ccd27200ed457d7b700bf5113d698137"}
{"_id":"tde8-new-usage","value":"Créer un nouveau un exemple d'utilisation.","version":1}
{"k":"0000000083","o":"0000000041","v":"001"}
{"_id":"edit","_uid":1,"_dt":1456822235150,"_s":"dea1a6fabfe1948c5d62230845e300ce"}
{"_id":"edit","value":"Edit","version":1}
{"k":"0000000084","o":"0000000047","v":"001"}
{"_id":"views","_uid":1,"_dt":1456822837826,"_s":"6ac7235bc151122eb8f776ff78f1ca7c"}
{"_id":"views","value":"Affichage","version":1}
{"k":"0000000093","o":"0000000091","v":"001"}
{"_id":"filevw1-create","_uid":1,"_dt":1456822837826,"_s":"291b4413c0e6cecf915b6947638555a8"}
{"_id":"filevw1-create","value":"Créer un nouveau graphique pour cette image","version":1}
{"k":"0000000092","o":"0000000102","v":"001"}
{"_id":"filevw1-usage","_uid":1,"_dt":1456822837826,"_s":"8efb0292ac74468f61c8ef605955364a"}
{"_id":"filevw1-usage","value":"Créer un nouvel exemple d'utilisation avec ce graphique","version":1}
{"k":"0000000092","o":"0000000130","v":"001"}
{"_id":"cre1-seltitle","_uid":1,"_dt":1456822848706,"_s":"5a0d06ed37fd417a457ce5ee06e3d3db"}
{"_id":"cre1-seltitle","value":"Sélectionnez les documents que vous souhaitez utiliser pour la création graphique.","version":1}
{"k":"0000000096","o":"0000000155","v":"001"}
{"_id":"cre1-step-title-1","_uid":1,"_dt":1456822848711,"_s":"efc460b17359a16980b496cdab123b20"}
{"_id":"cre1-step-title-1","value":"Choisissez une image de réponse parmi les documents existants ou téléchargez un nouveau fichier image.","version":1}
{"k":"0000000096","o":"0000000142","v":"001"}
{"_id":"cre1-step-title-2","_uid":1,"_dt":1456822848711,"_s":"c2268507b3ef65e022fd4b51ca83faae"}
{"_id":"cre1-step-title-2","value":"Ajustez la position du graphique pour correspondre à votre image et les valeurs ci-dessous.","version":1}
{"k":"0000000096","o":"0000000351","v":"001"}
{"_id":"cre1-step-title-3","_uid":1,"_dt":1456822848711,"_s":"5464cc499da7c165fef46b36f3ec0ebe"}
{"_id":"cre1-step-title-3","value":"&#13; &#10; Pour chaque courbes dans l'image, cliquez sur le bouton Ajouter et dessiner des points de manière pour faire la courbe du graphique correspond à l'image &#13; &#10; courbe et régler la tension grid1. Double-cliquez sur un point pour l'édition d'une courbe existante &#13; &#10;        ","version":1}
{"k":"0000000096","o":"0000000130","v":"001"}
{"_id":"cre1-step-title-4","_uid":1,"_dt":1456822848716,"_s":"394d665872b564934bc8dd46613f5217"}
{"_id":"cre1-step-title-4","value":"Sélectionnez une description unique de ce diagramme, puis cliquez sur Terminer.","version":1}
{"k":"0000000099","o":"0000000113","v":"001"}
{"_id":"cre1-msg-chkconfirm1","_uid":1,"_dt":1456822848716,"_s":"c5a0c7fd214e1cfdfe91d5ec9d3ed56c"}
{"_id":"cre1-msg-chkconfirm1","value":"Êtes-vous sûr de que vouloir aller changer le type d'axe ?","version":1}
{"k":"0000000099","o":"0000000137","v":"001"}
{"_id":"cre1-msg-chkconfirm2","_uid":1,"_dt":1456822848716,"_s":"f5a90bc317142e5ecfe9b1e52bd97a53"}
{"_id":"cre1-msg-chkconfirm2","value":"Sachez que si vous modifiez le type d'axe, vous perdrez toutes les courbes actuelles","version":1}
{"k":"0000000099","o":"0000000107","v":"001"}
{"_id":"cre1-msg-imgconfirm1","_uid":1,"_dt":1456822848716,"_s":"5adc3f2e50522cec56c6b042948ee630"}
{"_id":"cre1-msg-imgconfirm1","value":"Êtes-vous sûr de que vouloir aller changer l'image ?","version":1}
{"k":"0000000099","o":"0000000177","v":"001"}
{"_id":"cre1-msg-imgconfirm2","_uid":1,"_dt":1456822848716,"_s":"04c21a052b8867331a652246c287cedb"}
{"_id":"cre1-msg-imgconfirm2","value":"Sachez que si vous modifiez l'image, vous perdrez toutes les courbes actuelles et autres informations pour l'image actuelle.","version":1}
{"k":"0000000100","o":"0000000092","v":"001"}
{"_id":"cre1-msg-overconfirm1","_uid":1,"_dt":1456822848716,"_s":"a12eb9f484763992ecc9fd1c5c8f0a79"}
{"_id":"cre1-msg-overconfirm1","value":"Un graphique avec ce nom existe déjà","version":1}
{"k":"0000000100","o":"0000000173","v":"001"}
{"_id":"cre1-msg-overconfirm2","_uid":1,"_dt":1456822848716,"_s":"585a1d930bf9509670dc44b96fb4c430"}
{"_id":"cre1-msg-overconfirm2","value":"Si vous continuez l'existant graphique sera remplacé. Dans le cas contraire, cliquez sur Annuler pour modifier le nom.","version":1}
{"k":"0000000091","o":"0000000056","v":"001"}
{"_id":"cre1-confirm","_uid":1,"_dt":1456822848716,"_s":"701fb4c6eaf6a4cd908415c15a728878"}
{"_id":"cre1-confirm","value":"Confirmer ?","version":1}
{"k":"0000000082","o":"0000000039","v":"001"}
{"_id":"yes","_uid":1,"_dt":1456822848716,"_s":"d8cdac6569385afc16b01a0f5f62f38b"}
{"_id":"yes","value":"Oui","version":1}
{"k":"0000000089","o":"0000000075","v":"001"}
{"_id":"cre1-title","_uid":1,"_dt":1456822848716,"_s":"146ab772c85e33d3ea32136a6be45c0b"}
{"_id":"cre1-title","value":"Créer un nouveau graphique pour","version":1}
{"k":"0000000085","o":"0000000046","v":"001"}
{"_id":"choose","_uid":1,"_dt":1456822848716,"_s":"67592cb154281e966d7eede4e9b2bab4"}
{"_id":"choose","value":"Choisir","version":1}
{"k":"0000000085","o":"0000000052","v":"001"}
{"_id":"upload","_uid":1,"_dt":1456822848716,"_s":"c3c4694e7a0ef7a96505368c3b16ec8d"}
{"_id":"upload","value":"Télécharger","version":1}
{"k":"0000000086","o":"0000000071","v":"001"}
{"_id":"cre1-13","_uid":1,"_dt":1456822848716,"_s":"d6a0833be452d0d6716cb0094fe6bc62"}
{"_id":"cre1-13","value":"Chargement, veuillez patienter.","version":1}
{"k":"0000000092","o":"0000000057","v":"001"}
{"_id":"cre1-previous","_uid":1,"_dt":1456822848716,"_s":"59f1696bcca935b6d8b08d56a6ef4af1"}
{"_id":"cre1-previous","value":"Précédent","version":1}
{"k":"0000000094","o":"0000000067","v":"001"}
{"_id":"cre1-imgopacity","_uid":1,"_dt":1456822848716,"_s":"44eb09e089855c278267fba8dcff034b"}
{"_id":"cre1-imgopacity","value":"Opacité de l'image","version":1}
{"k":"0000000088","o":"0000000048","v":"001"}
{"_id":"cre1-unit","_uid":1,"_dt":1456822848716,"_s":"1cbe3ed340d25846becd821e5ff39b8c"}
{"_id":"cre1-unit","value":"Unité","version":1}
{"k":"0000000089","o":"0000000051","v":"001"}
{"_id":"cre1-unit1","_uid":1,"_dt":1456822848716,"_s":"81337622768cb9d61e220145e94ef9c9"}
{"_id":"cre1-unit1","value":"Unité 1","version":1}
{"k":"0000000089","o":"0000000051","v":"001"}
{"_id":"cre1-unit2","_uid":1,"_dt":1456822848716,"_s":"d6316c6cec3351a07f80aead2dade444"}
{"_id":"cre1-unit2","value":"Unité 2","version":1}
{"k":"0000000089","o":"0000000051","v":"001"}
{"_id":"cre1-unit3","_uid":1,"_dt":1456822848716,"_s":"b8746c3ae88b40fabf3bb5d59e6f18fc"}
{"_id":"cre1-unit3","value":"Unité 3","version":1}
{"k":"0000000089","o":"0000000051","v":"001"}
{"_id":"cre1-unit4","_uid":1,"_dt":1456822848716,"_s":"34fa8b21f9ab5ee18e72b6cee95aa138"}
{"_id":"cre1-unit4","value":"Unité 4","version":1}
{"k":"0000000087","o":"0000000054","v":"001"}
{"_id":"cre1-vg2","_uid":1,"_dt":1456822848716,"_s":"e323362816e88e71534630fae666e839"}
{"_id":"cre1-vg2","value":"Grid2 tension","version":1}
{"k":"0000000092","o":"0000000059","v":"001"}
{"_id":"cre1-pstriode","_uid":1,"_dt":1456822848721,"_s":"6333a8260fc4d53646d5abf2067e9a41"}
{"_id":"cre1-pstriode","value":"Pseudo Triode","version":1}
{"k":"0000000090","o":"0000000057","v":"001"}
{"_id":"cre1-yscale","_uid":1,"_dt":1456822848721,"_s":"d9f347e6c5ad4469d4c9cda2d6281495"}
{"_id":"cre1-yscale","value":"Échelle de Y","version":1}
{"k":"0000000088","o":"0000000047","v":"001"}
{"_id":"cre1-ymin","_uid":1,"_dt":1456822848721,"_s":"d56ae0a2f3c294d4fa571fef5f110627"}
{"_id":"cre1-ymin","value":"Y Min","version":1}
{"k":"0000000090","o":"0000000056","v":"001"}
{"_id":"cre1-xscale","_uid":1,"_dt":1456822848721,"_s":"736faa8e9a0a4526d1accfbbc19771ca"}
{"_id":"cre1-xscale","value":"X l'échelle","version":1}
{"k":"0000000088","o":"0000000047","v":"001"}
{"_id":"cre1-xmin","_uid":1,"_dt":1456822848721,"_s":"347dbed9e3bf0190ea117bc719f6ecf4"}
{"_id":"cre1-xmin","value":"X Min","version":1}
{"k":"0000000087","o":"0000000054","v":"001"}
{"_id":"cre1-log","_uid":1,"_dt":1456822848721,"_s":"e9df9885b78f23e44f8b0d6cf8d6733e"}
{"_id":"cre1-log","value":"Logarithmique","version":1}
{"k":"0000000087","o":"0000000057","v":"001"}
{"_id":"cre1-vg1","_uid":1,"_dt":1456822848721,"_s":"799138b05dd4c3191ef62190c1bad2fc"}
{"_id":"cre1-vg1","value":"Tension de grid1","version":1}
{"k":"0000000093","o":"0000000065","v":"001"}
{"_id":"terminatecurve","_uid":1,"_dt":1456822848721,"_s":"0750f66b4f486833822cbdd5750ca718"}
{"_id":"terminatecurve","value":"Terminer la courbe","version":1}
{"k":"0000000090","o":"0000000061","v":"001"}
{"_id":"cancelcurve","_uid":1,"_dt":1456822848721,"_s":"1362d43cd5ca8963e59135f6bdbe60d9"}
{"_id":"cancelcurve","value":"Annuler la courbe","version":1}
{"k":"0000000087","o":"0000000055","v":"001"}
{"_id":"addcurve","_uid":1,"_dt":1456822848721,"_s":"1b036409f19889aaa6bf970441cf0a90"}
{"_id":"addcurve","value":"Ajouter courbe","version":1}
{"k":"0000000095","o":"0000000060","v":"001"}
{"_id":"cre1-description","_uid":1,"_dt":1456822848721,"_s":"96ecba301a3ae018b7bcbb049945ceb5"}
{"_id":"cre1-description","value":"Description","version":1}
{"k":"0000000085","o":"0000000047","v":"001"}
{"_id":"finish","_uid":1,"_dt":1456822848721,"_s":"ce48dc447bf99f1a8b4ae059404f4b3c"}
{"_id":"finish","value":"Finition","version":1}
{"k":"0000000088","o":"0000000051","v":"001"}
{"_id":"cre1-next","_uid":1,"_dt":1456822848721,"_s":"4005b947e590c7bfbfc8d81eb024be6a"}
{"_id":"cre1-next","value":"Prochaine","version":1}
{"k":"0000000087","o":"0000000062","v":"001"}
{"_id":"tc1-c-tt","_uid":1,"_dt":1456823147307,"_s":"3d37d1f6f44ba2ad13068b4e35f5ac34"}
{"_id":"tc1-c-tt","value":"Fonction de transfert","version":1}
{"k":"0000000087","o":"0000000061","v":"001"}
{"_id":"tc1-c-av","_uid":1,"_dt":1456823147307,"_s":"5e7f823554fa1785d37c2ee5bad0becc"}
{"_id":"tc1-c-av","value":"Anode de tension (V)","version":1}
{"k":"0000000087","o":"0000000061","v":"001"}
{"_id":"tc1-c-ac","_uid":1,"_dt":1456823147307,"_s":"c95452bec12eb546d52e6ef0eeb39114"}
{"_id":"tc1-c-ac","value":"Courant d'anode (mA)","version":1}
{"k":"0000000087","o":"0000000057","v":"001"}
{"_id":"tc1-c-wp","_uid":1,"_dt":1456823147307,"_s":"25475e29893f08edcfc5a472c7a5ad31"}
{"_id":"tc1-c-wp","value":"Point de travail","version":1}
{"k":"0000000092","o":"0000000119","v":"001"}
{"_id":"tdu7-seltitle","_uid":1,"_dt":1456823262742,"_s":"70c8fcc57660056bcb2d7ee65bb67f97"}
{"_id":"tdu7-seltitle","value":"Sélectionnez les documents que vous souhaitez afficher dans cet exemple.","version":1}
{"k":"0000000088","o":"0000000058","v":"001"}
{"_id":"tdu7-edit","_uid":1,"_dt":1456823262742,"_s":"6f284ad20f2464b9cd9a1730d51b348d"}
{"_id":"tdu7-edit","value":"Modifier ce tube","version":1}
{"k":"0000000089","o":"0000000069","v":"001"}
{"_id":"tdu7-title","_uid":1,"_dt":1456823262742,"_s":"c53db168c6cd86b60fbc68f3607511c2"}
{"_id":"tdu7-title","value":"Exemple d'utilisation pour","version":1}
{"k":"0000000086","o":"0000000058","v":"001"}
{"_id":"exname-","_uid":1,"_dt":1456823262742,"_s":"e219f31b84d6d9a5fbb33b1e6d08bd3b"}
{"_id":"exname-","value":"Nom de l'exemple :","version":1}
{"k":"0000000088","o":"0000000046","v":"001"}
{"_id":"tdu7-mode","_uid":1,"_dt":1456823262742,"_s":"8d16ec80b093613f5bd89642f04a9397"}
{"_id":"tdu7-mode","value":"Mode","version":1}
{"k":"0000000081","o":"0000000052","v":"001"}
{"_id":"na","_uid":1,"_dt":1456823262742,"_s":"992e673dc11c6c26d3cd370d38b8f2bb"}
{"_id":"na","value":"Ne s'applique pas","version":1}
{"k":"0000000091","o":"0000000058","v":"001"}
{"_id":"tdu7-forunit","_uid":1,"_dt":1456823262742,"_s":"a4e2706dcfdf475487688227cf5ba604"}
{"_id":"tdu7-forunit","value":"Pour l'unité","version":1}
{"k":"0000000086","o":"0000000070","v":"001"}
{"_id":"tdu7-T2","_uid":1,"_dt":1456823262742,"_s":"cf0bf5222ee5fb573161d9635253b114"}
{"_id":"tdu7-T2","value":"Caractéristiques électriques","version":1}
{"k":"0000000082","o":"0000000051","v":"001"}
{"_id":"va-","_uid":1,"_dt":1456823262742,"_s":"300e48e6cca07da31bc8b74e7685f67e"}
{"_id":"va-","value":"Tension anode :","version":1}
{"k":"0000000083","o":"0000000063","v":"001"}
{"_id":"ia0-","_uid":1,"_dt":1456823262742,"_s":"c1dea8ac63066c02c17d47f24a2198ef"}
{"_id":"ia0-","value":"Courant d'anode à zéro :","version":1}
{"k":"0000000085","o":"0000000063","v":"001"}
{"_id":"vinpp-","_uid":1,"_dt":1456823262742,"_s":"13f6115268186c482922e6db3948a135"}
{"_id":"vinpp-","value":"Tension d'entrée (pp) :","version":1}
{"k":"0000000084","o":"0000000046","v":"001"}
{"_id":"load-","_uid":1,"_dt":1456823262742,"_s":"3da627cf588e2a606c2f5c1f44b955ec"}
{"_id":"load-","value":"Charge :","version":1}
{"k":"0000000083","o":"0000000041","v":"001"}
{"_id":"ohms","_uid":1,"_dt":1456823262742,"_s":"572f95a74e64e52f8e3cfd9c397fc31d"}
{"_id":"ohms","value":"Ohms","version":1}
{"k":"0000000086","o":"0000000046","v":"001"}
{"_id":"tdu7-T3","_uid":1,"_dt":1456823262742,"_s":"5ecfb6b19a322cd79a051b98cf9d24f0"}
{"_id":"tdu7-T3","value":"Traces","version":1}
{"k":"0000000097","o":"0000000085","v":"001"}
{"_id":"tdu7-file-selector","_uid":1,"_dt":1456823262747,"_s":"2cd748e49435115d971a5ed1e8d8a1c6"}
{"_id":"tdu7-file-selector","value":"Sélectionnez un document ci-joint","version":1}
{"k":"0000000088","o":"0000000046","v":"001"}
{"_id":"tdu7-test","_uid":1,"_dt":1456823262747,"_s":"0a039f5eca1b3be697c003b70084c000"}
{"_id":"tdu7-test","value":"Test","version":1}
{"k":"0000000088","o":"0000000055","v":"001"}
{"_id":"vw5-vamax","_uid":1,"_dt":1456823492298,"_s":"2f1dd91222923ce7142fa2479cd3ae75"}
{"_id":"vw5-vamax","value":"Tension anode","version":1}
{"k":"0000000089","o":"0000000063","v":"001"}
{"_id":"vw5-vamaxp","_uid":1,"_dt":1456823492298,"_s":"ad25219618f39d068e71ecacca0c4912"}
{"_id":"vw5-vamaxp","value":"Tension anode (peak)","version":1}
{"k":"0000000088","o":"0000000061","v":"001"}
{"_id":"vw5-pamax","_uid":1,"_dt":1456823492298,"_s":"8e0df6715f303f62eb49907a1dbc4f68"}
{"_id":"vw5-pamax","value":"Max puissance anode","version":1}
{"k":"0000000089","o":"0000000062","v":"001"}
{"_id":"vw5-vg2max","_uid":1,"_dt":1456823492298,"_s":"39ba865e4f3e9ea018c0a4b8c8cee129"}
{"_id":"vw5-vg2max","value":"Tension de grille 2","version":1}
{"k":"0000000090","o":"0000000069","v":"001"}
{"_id":"vw5-vg2maxp","_uid":1,"_dt":1456823492298,"_s":"ff7e7f032910361b1bbdb288bac402c2"}
{"_id":"vw5-vg2maxp","value":"Tension de grille 2 (PIC)","version":1}
{"k":"0000000089","o":"0000000058","v":"001"}
{"_id":"vw5-ig2max","_uid":1,"_dt":1456823492303,"_s":"843d0f3b4e79f8cf2eead5d3e537559d"}
{"_id":"vw5-ig2max","value":"Grille 2 actuel","version":1}
{"k":"0000000090","o":"0000000069","v":"001"}
{"_id":"vw5-ig2maxp","_uid":1,"_dt":1456823492303,"_s":"848e7194c2b1b3fb61c17d64dfdecdc7"}
{"_id":"vw5-ig2maxp","value":"Courant de grille 2 (PIC)","version":1}
{"k":"0000000089","o":"0000000059","v":"001"}
{"_id":"vw5-pg2max","_uid":1,"_dt":1456823492303,"_s":"e5ba7a601a98741307fca9313c779e44"}
{"_id":"vw5-pg2max","value":"Max power Grid 2","version":1}
{"k":"0000000088","o":"0000000060","v":"001"}
{"_id":"vw5-ikmax","_uid":1,"_dt":1456823492303,"_s":"5574617211bfb7d9a8f5a62d6ac4e325"}
{"_id":"vw5-ikmax","value":"Courant de cathode","version":1}
{"k":"0000000089","o":"0000000067","v":"001"}
{"_id":"vw5-ikmaxp","_uid":1,"_dt":1456823492303,"_s":"b4e28e92c25ae1d71ade92922ae00904"}
{"_id":"vw5-ikmaxp","value":"Courant de cathode (PIC)","version":1}
{"k":"0000000090","o":"0000000073","v":"001"}
{"_id":"vw5-vg1nmax","_uid":1,"_dt":1456823492303,"_s":"e21a2aa5ee50619b568637ebb3a2ef28"}
{"_id":"vw5-vg1nmax","value":"Tension négative de grille 1","version":1}
{"k":"0000000091","o":"0000000080","v":"001"}
{"_id":"vw5-vg1nmaxp","_uid":1,"_dt":1456823492303,"_s":"4e95acc4cf5784d2cfaefe41c2da3fbf"}
{"_id":"vw5-vg1nmaxp","value":"Tension négative de grille 1 (PIC)","version":1}
{"k":"0000000089","o":"0000000057","v":"001"}
{"_id":"vw5-ig1max","_uid":1,"_dt":1456823492303,"_s":"b323ec07fd3643050abdc47d42fdb95d"}
{"_id":"vw5-ig1max","value":"Grille 1 cours","version":1}
{"k":"0000000090","o":"0000000065","v":"001"}
{"_id":"vw5-ig1maxp","_uid":1,"_dt":1456823492303,"_s":"2122d5dfaaf3880379592cef610d50db"}
{"_id":"vw5-ig1maxp","value":"Grille 1 actuel (PIC)","version":1}
{"k":"0000000089","o":"0000000071","v":"001"}
{"_id":"vw5-vhkmax","_uid":1,"_dt":1456823492303,"_s":"c8942027a9a49f01dfc8b2513f1ce31b"}
{"_id":"vw5-vhkmax","value":"Tension de chauffage-cathode","version":1}
{"k":"0000000090","o":"0000000079","v":"001"}
{"_id":"vw5-vhkmaxp","_uid":1,"_dt":1456823492303,"_s":"627c72d72414d68cc8dd88441e1902dc"}
{"_id":"vw5-vhkmaxp","value":"Tension de chauffage-cathode (peak)","version":1}
{"k":"0000000086","o":"0000000066","v":"001"}
{"_id":"vw5-cgk","_uid":1,"_dt":1456823492303,"_s":"e75d9ce7265832f5056121cea67287d7"}
{"_id":"vw5-cgk","value":"Capacité 1-cathode grille","version":1}
{"k":"0000000086","o":"0000000068","v":"001"}
{"_id":"vw5-cak","_uid":1,"_dt":1456823492303,"_s":"bbd9104d1e26580efc74f8229e4598a1"}
{"_id":"vw5-cak","value":"capacité de l'anode-cathode","version":1}
{"k":"0000000086","o":"0000000064","v":"001"}
{"_id":"vw5-cga","_uid":1,"_dt":1456823492303,"_s":"db2a36da8df6bc7601b0ab91bacd77bd"}
{"_id":"vw5-cga","value":"Capacité 1-anode grille","version":1}
{"k":"0000000087","o":"0000000049","v":"001"}
{"_id":"vw5-note","_uid":1,"_dt":1456823492303,"_s":"91422d48e34f3e753ae6738064267c6b"}
{"_id":"vw5-note","value":"Remarque","version":1}
{"k":"0000000087","o":"0000000047","v":"001"}
{"_id":"vw5-unit","_uid":1,"_dt":1456823492303,"_s":"92c05cc8f9cfbf1a4e6470bd0cf4b79d"}
{"_id":"vw5-unit","value":"Unité","version":1}
{"k":"0000000087","o":"0000000058","v":"001"}
{"_id":"vw5-mode","_uid":1,"_dt":1456823492303,"_s":"5233e4910134e819b364a6200d9b5bbb"}
{"_id":"vw5-mode","value":"Mode de connexion","version":1}
{"k":"0000000085","o":"0000000052","v":"001"}
{"_id":"vw5-va","_uid":1,"_dt":1456823492303,"_s":"6188b97952f07a0a74ae56bbc9e546cc"}
{"_id":"vw5-va","value":"Tension anode","version":1}
{"k":"0000000089","o":"0000000064","v":"001"}
{"_id":"vw5-iazero","_uid":1,"_dt":1456823492303,"_s":"e35a6480fc0e248625ac71845bd90c2c"}
{"_id":"vw5-iazero","value":"Anode actuel à zéro","version":1}
{"k":"0000000087","o":"0000000070","v":"001"}
{"_id":"vw5-load","_uid":1,"_dt":1456823492303,"_s":"08d43e64d14098b8e4fa61269e537308"}
{"_id":"vw5-load","value":"Résistance de charge d'anode","version":1}
{"k":"0000000088","o":"0000000075","v":"001"}
{"_id":"vw5-vinpp","_uid":1,"_dt":1456823492303,"_s":"dbf45dc572324322a2ad0fe1c7632100"}
{"_id":"vw5-vinpp","value":"Tension d'entrée (crête-crête)","version":1}
{"k":"0000000084","o":"0000000057","v":"001"}
{"_id":"noinf","_uid":1,"_dt":1456823492303,"_s":"6d6c3b76ae3739f67126f324d0e01cb9"}
{"_id":"noinf","value":"Aucune informations","version":1}
{"k":"0000000086","o":"0000000069","v":"001"}
{"_id":"genchar","_uid":1,"_dt":1456823492303,"_s":"5730ab0fbdb3b4e3d846e6d9a639eb78"}
{"_id":"genchar","value":"Caractéristiques générales","version":1}
{"k":"0000000085","o":"0000000060","v":"001"}
{"_id":"vw5-vh","_uid":1,"_dt":1456823492303,"_s":"775477ee0d056c6d6d1d34d0d8f1e9f7"}
{"_id":"vw5-vh","value":"Tension des filaments","version":1}
{"k":"0000000085","o":"0000000059","v":"001"}
{"_id":"vw5-ih","_uid":1,"_dt":1456823492303,"_s":"ad5ea4ab1887f49ad5b8b1dfc3961944"}
{"_id":"vw5-ih","value":"Courant de filaments","version":1}
{"k":"0000000081","o":"0000000037","v":"001"}
{"_id":"or","_uid":1,"_dt":1456823492308,"_s":"40e3b4f30582bfa0dcc0b24c460a2ef6"}
{"_id":"or","value":"ou","version":1}
{"k":"0000000085","o":"0000000047","v":"001"}
{"_id":"pinout","_uid":1,"_dt":1456823492308,"_s":"48022c7406778c99b53ccf8318e7ebf8"}
{"_id":"pinout","value":"Brochage","version":1}
{"k":"0000000088","o":"0000000063","v":"001"}
{"_id":"pinoutcnx","_uid":1,"_dt":1456823492308,"_s":"af4e78981449000eec3d54b412e9c5d7"}
{"_id":"pinoutcnx","value":"Connexion de brochage","version":1}
{"k":"0000000085","o":"0000000055","v":"001"}
{"_id":"socket","_uid":1,"_dt":1456823492308,"_s":"2ab758f9b7c2710639769e729a15ad6c"}
{"_id":"socket","value":"Prise de courant","version":1}
{"k":"0000000089","o":"0000000070","v":"001"}
{"_id":"maxratings","_uid":1,"_dt":1456823492308,"_s":"c67cba4258c2e2037a89166d3ca57bc7"}
{"_id":"maxratings","value":"Caractéristiques maximales","version":1}
{"k":"0000000087","o":"0000000063","v":"001"}
{"_id":"usageexs","_uid":1,"_dt":1456823492308,"_s":"442c9f2aa099c8a44f0eb8e515afa92d"}
{"_id":"usageexs","value":"Exemples d'utilisation","version":1}
{"k":"0000000088","o":"0000000088","v":"001"}
{"_id":"nousageex","_uid":1,"_dt":1456823492308,"_s":"a8f0d92e4d5b2d48b0009e85f95c2583"}
{"_id":"nousageex","value":"Aucun exemple d'utilisation jointe à ce tube.","version":1}
{"k":"0000000087","o":"0000000052","v":"001"}
{"_id":"settings","_uid":1,"_dt":1456823508482,"_s":"4b4d85404410875d4774fa0be2c12b71"}
{"_id":"settings","value":"Paramètres","version":1}
{"k":"0000000085","o":"0000000047","v":"001"}
{"_id":"colors","_uid":1,"_dt":1456823508782,"_s":"a33932fb8adcae79bb3662dc28841821"}
{"_id":"colors","value":"Couleurs","version":1}
{"k":"0000000084","o":"0000000044","v":"001"}
{"_id":"theme","_uid":1,"_dt":1456823508782,"_s":"3246aada7cd0001b1489d5dcf205e069"}
{"_id":"theme","value":"Thème","version":1}
{"k":"0000000083","o":"0000000043","v":"001"}
{"_id":"dark","_uid":1,"_dt":1456823508782,"_s":"9ababab7da73ffa3305166e800fce7ad"}
{"_id":"dark","value":"Sombre","version":1}
{"k":"0000000084","o":"0000000046","v":"001"}
{"_id":"light","_uid":1,"_dt":1456823508782,"_s":"4bdc820bc1c2dce026cbadbb9696c463"}
{"_id":"light","value":"Lumière","version":1}
{"k":"0000000093","o":"0000000071","v":"001"}
{"_id":"news-tubeadded","_uid":1,"_dt":1456824001868,"_s":"769168507fb146c38645584db891882a"}
{"_id":"news-tubeadded","value":"Nouveau tube ajouté \\0","version":1}
{"k":"0000000090","o":"0000000066","v":"001"}
{"_id":"selectfield","_uid":1,"_dt":1456824279533,"_s":"676679f6aa632f8831a330d45b6571ef"}
{"_id":"selectfield","value":"Sélectionnez un champ","version":1}
{"k":"0000000090","o":"0000000068","v":"001"}
{"_id":"selectvalue","_uid":1,"_dt":1456824279533,"_s":"76929df67a420078444e0e965a85383e"}
{"_id":"selectvalue","value":"Sélectionnez une valeur","version":1}
{"k":"0000000084","o":"0000000044","v":"001"}
{"_id":"value","_uid":1,"_dt":1456824279538,"_s":"253897fe6491237590af30a3a7c63cd4"}
{"_id":"value","value":"Valeur","version":1}
{"k":"0000000088","o":"0000000052","v":"001"}
{"_id":"wholeword","_uid":1,"_dt":1456824279538,"_s":"d96b77344873f70766288cceb7c72221"}
{"_id":"wholeword","value":"Mot entier","version":1}
{"k":"0000000092","o":"0000000066","v":"001"}
{"_id":"-remove-field","_uid":1,"_dt":1456824279538,"_s":"333a6e3b3f7e100f1bfc5d2d3af9fd49"}
{"_id":"-remove-field","value":"Retirer ce critère ","version":1}
{"k":"0000000095","o":"0000000070","v":"001"}
{"_id":"news-tubeupdated","_uid":1,"_dt":1456825351950,"_s":"1b3fee25ad0d8d52e5c41f3919a5aaa7"}
{"_id":"news-tubeupdated","value":"Tube \\0 mis à jour.","version":1}
{"k":"0000000087","o":"0000000067","v":"001"}
{"_id":"vg10zero","_uid":1,"_dt":1456829416245,"_s":"2c9c2270205727f3637c7e4b2ddbbc90"}
{"_id":"vg10zero","value":"Tension de grille à zéro","version":1}
{"k":"0000000083","o":"0000000059","v":"001"}
{"_id":"vapp","_uid":1,"_dt":1456829416245,"_s":"02ba454a0883ed28cea824477ac1fcf5"}
{"_id":"vapp","value":"Tension de sortie (pp)","version":1}
{"k":"0000000083","o":"0000000051","v":"001"}
{"_id":"pmax","_uid":1,"_dt":1456829416245,"_s":"b17495a6e30207219538d29060c2dffd"}
{"_id":"pmax","value":"Puissance maxi","version":1}
{"k":"0000000088","o":"0000000067","v":"001"}
{"_id":"transzero","_uid":1,"_dt":1456829416245,"_s":"6644cb1c1c4db9b8244fef50ce4d50d2"}
{"_id":"transzero","value":"Transconductance à zéro","version":1}
{"k":"0000000083","o":"0000000041","v":"001"}
{"_id":"gain","_uid":1,"_dt":1456829416250,"_s":"f5e24b89383ec1993ae5308f1a4e068a"}
{"_id":"gain","value":"Gain","version":1}
{"k":"0000000085","o":"0000000067","v":"001"}
{"_id":"rizero","_uid":1,"_dt":1456829416250,"_s":"acbc5fad7dc6fb6a8130ce7b55e4a807"}
{"_id":"rizero","value":"Résistance interne à zéro","version":1}
{"k":"0000000088","o":"0000000064","v":"001"}
{"_id":"besttrans","_uid":1,"_dt":1456916767184,"_s":"31fd7517526a701beba1e6f69d03d3e9"}
{"_id":"besttrans","value":"Meilleures traductions","version":1}
{"k":"0000000084","o":"0000000050","v":"001"}
{"_id":"users","_uid":1,"_dt":1456916767189,"_s":"576ce0fb8b5f0d6c685cf61e712d1b20"}
{"_id":"users","value":"Utilisateurs","version":1}
{"k":"0000000085","o":"0000000063","v":"001"}
{"_id":"tubedb","_uid":1,"_dt":1456916767189,"_s":"f590afb33564508cb4a76707ec1b7a30"}
{"_id":"tubedb","value":"Base de données de tube","version":1}
{"k":"0000000088","o":"0000000051","v":"001"}
{"_id":"documents","_uid":1,"_dt":1456916767189,"_s":"989a9005a22e60607e0c3b07c1cf7a9b"}
{"_id":"documents","value":"Documents","version":1}
{"k":"0000000084","o":"0000000049","v":"001"}
{"_id":"trans","_uid":1,"_dt":1456916767189,"_s":"375994b5f1d778ffb760fdf0755535bd"}
{"_id":"trans","value":"Traductions","version":1}
{"k":"0000000086","o":"0000000084","v":"001"}
{"_id":"nf1-nf1","_uid":1,"_dt":1456916767699,"_s":"f7c2541ec9e8a950dc779d2b182bc3c6"}
{"_id":"nf1-nf1","value":"&#13; &#10; Introuvable. &#13; &#10;        ","version":1}
{"k":"0000000086","o":"0000000118","v":"001"}
{"_id":"nf1-nf2","_uid":1,"_dt":1456916767699,"_s":"51fe1066e2149a484c9e641cd2b969f7"}
{"_id":"nf1-nf2","value":"&#13; &#10; La page où vous voulez aller n'existe pas.    &#13; &#10;        ","version":1}
{"k":"0000000086","o":"0000000066","v":"001"}
{"_id":"nf1-nf3","_uid":1,"_dt":1456916767699,"_s":"fb0e483c0fd525034ff3a3369d46e97d"}
{"_id":"nf1-nf3","value":"aller à la page d'accueil","version":1}
{"k":"0000000087","o":"0000000082","v":"001"}
{"_id":"vhknmax-","_uid":1,"_dt":1457108675540,"_s":"3b370fc3be408a0c0560c8395cf0228c"}
{"_id":"vhknmax-","value":"Tension négative Cathode chauffage max :","version":1}
{"k":"0000000087","o":"0000000048","v":"001"}
{"_id":"positive","_uid":1,"_dt":1457108675540,"_s":"b0ce9a57a6a966ad87a49e203533df2f"}
{"_id":"positive","value":"Positif","version":1}
{"k":"0000000089","o":"0000000075","v":"001"}
{"_id":"acm1-apply","_uid":1,"_dt":1457108895500,"_s":"c27eadaff00e43d5d34d1e1c9e89de3f"}
{"_id":"acm1-apply","value":"Appliquer comme point de travail","version":1}
{"k":"0000000090","o":"0000000083","v":"001"}
{"_id":"vw5-vhknmax","_uid":1,"_dt":1457109001385,"_s":"2f5849cee821d43912d4c88194335ccd"}
{"_id":"vw5-vhknmax","value":"Cathode chauffage max tension négative","version":1}
{"k":"0000000090","o":"0000000086","v":"001"}
{"_id":"vw5-vhkpmax","_uid":1,"_dt":1457109001385,"_s":"ea08405c9c029470ff1b9ec515f2dffe"}
{"_id":"vw5-vhkpmax","value":"Max chauffage Cathode une tension Positive","version":1}
{"k":"0000000091","o":"0000000087","v":"001"}
{"_id":"msg-wrongpwd","_uid":1,"_dt":1457178020482,"_s":"139dab0c3bc5e521a137d3341f88e4cb"}
{"_id":"msg-wrongpwd","value":"Aucun utilisateur ou mot de passe erroné.","version":1}
{"k":"0000000090","o":"0000000081","v":"001"}
{"_id":"name-exists","_uid":1,"_dt":1457378779265,"_s":"b6b6a5e60b87170611cfadb31316c812"}
{"_id":"name-exists","value":"Un tube portant ce nom existe déjà.","version":1}
{"k":"0000000089","o":"0000000074","v":"001"}
{"_id":"btran1-bt1","_uid":1,"_dt":1457947798979,"_s":"bb2cfff7fccbf3e9e2a5d18bd2debeeb"}
{"_id":"btran1-bt1","value":"Popose une meilleure traduction","version":1}
{"k":"0000000089","o":"0000000095","v":"001"}
{"_id":"btran1-bt2","_uid":1,"_dt":1457947798981,"_s":"3f1296a121f9e5c8a0eee08bbeeac2a5"}
{"_id":"btran1-bt2","value":"&#13; &#10; Entrez votre proposition &#13; &#10;    ","version":1}
{"k":"0000000089","o":"0000000135","v":"001"}
{"_id":"btran1-bt3","_uid":1,"_dt":1457947798981,"_s":"df32c0a6a38decbaf0f54fed62b339d0"}
{"_id":"btran1-bt3","value":"&#13; &#10; Le texte sera modifié après l'approbation d'un administrateur. &#13; &#10;    ","version":1}
{"k":"0000000093","o":"0000000086","v":"001"}
{"_id":"adm1-dlg-title","_uid":1,"_dt":1457947805004,"_s":"29490e8f595981cea79488131d3e4786"}
{"_id":"adm1-dlg-title","value":"S'il vous plaît confirmer l'opération","version":1}
{"k":"0000000087","o":"0000000059","v":"001"}
{"_id":"newsedit","_uid":1,"_dt":1457947805005,"_s":"5276f8f4e5a9c709ddc520a219092e79"}
{"_id":"newsedit","value":"Rédacteur en chef","version":1}
{"k":"0000000085","o":"0000000045","v":"001"}
{"_id":"tables","_uid":1,"_dt":1457947805005,"_s":"aa0eb2f8c95d9d696ac6e1e00f7a8b9b"}
{"_id":"tables","value":"Tables","version":1}
{"k":"0000000100","o":"0000000091","v":"001"}
{"_id":"adm-trans1-delselrows","_uid":1,"_dt":1457947806072,"_s":"d561f92e0fbc916ff4fa902f0ee9e53b"}
{"_id":"adm-trans1-delselrows","value":"Supprimer les lignes sélectionnées.","version":1}
{"k":"0000000103","o":"0000000092","v":"001"}
{"_id":"adm-trans1-editdlg-title","_uid":1,"_dt":1457947806073,"_s":"a01663545f66b3fd26e61af1fe6f31c9"}
{"_id":"adm-trans1-editdlg-title","value":"S'il vous plaît entrer des valeurs","version":1}
{"k":"0000000088","o":"0000000056","v":"001"}
{"_id":"original-","_uid":1,"_dt":1457947806073,"_s":"37044e76e2e656a03b723898063d549f"}
{"_id":"original-","value":"Langue source:","version":1}
{"k":"0000000088","o":"0000000055","v":"001"}
{"_id":"proposal-","_uid":1,"_dt":1457947806074,"_s":"89baa7b6a60f1a0f23ce40405017bcd4"}
{"_id":"proposal-","value":"Proposition :","version":1}
{"k":"0000000084","o":"0000000044","v":"001"}
{"_id":"merge","_uid":1,"_dt":1457947806074,"_s":"dc407d26b6eda25bb1119a3e9f68f872"}
{"_id":"merge","value":"Fusion","version":1}
{"k":"0000000085","o":"0000000052","v":"001"}
{"_id":"delsel","_uid":1,"_dt":1457947806074,"_s":"ac39fd0ecf4211c8bc797a64a484d401"}
{"_id":"delsel","value":"Supprimer les","version":1}
{"k":"0000000102","o":"0000000070","v":"001"}
{"_id":"adm-trans1-originaltext","_uid":1,"_dt":1457947806074,"_s":"b820b5df46d0c04f87be14188fd50167"}
{"_id":"adm-trans1-originaltext","value":"Texte original","version":1}
{"k":"0000000096","o":"0000000072","v":"001"}
{"_id":"adm-trans1-locale","_uid":1,"_dt":1457947806075,"_s":"21d5cda3e656b818a1cd2f76cbc38f9e"}
{"_id":"adm-trans1-locale","value":"Paramètres régionaux","version":1}
{"k":"0000000098","o":"0000000063","v":"001"}
{"_id":"adm-trans1-proposal","_uid":1,"_dt":1457947806075,"_s":"c90345ef1c1a72d6faf1fe5c373d608b"}
{"_id":"adm-trans1-proposal","value":"Proposition","version":1}
{"k":"0000000105","o":"0000000083","v":"001"}
{"_id":"adm-trans1-currentlanguage","_uid":1,"_dt":1457947806075,"_s":"5018a3623386ea30c4f88eb3ddd2e772"}
{"_id":"adm-trans1-currentlanguage","value":"Texte en langage courant","version":1}
{"k":"0000000083","o":"0000000048","v":"001"}
{"_id":"user","_uid":1,"_dt":1457947806076,"_s":"9d899c47deaa9252a44021ff34f8f476"}
{"_id":"user","value":"Utilisateur","version":1}
{"k":"0000000086","o":"0000000047","v":"001"}
{"_id":"actions","_uid":1,"_dt":1457947806078,"_s":"6bdaa842e0b846753f473800e72cb810"}
{"_id":"actions","value":"Actions","version":1}
{"k":"0000000083","o":"0000000055","v":"001"}
{"_id":"base","_uid":1,"_dt":1457947810095,"_s":"e9ee860946bcc246e7355813b1b7407c"}
{"_id":"base","value":"Base","version":1,"isBest":true}
{"k":"0000000099","o":"0000000090","v":"001"}
{"_id":"admtrans1-delselrows","_uid":1,"_dt":1457947829988,"_s":"d1277512eec75b52e32c0ca11c289c71"}
{"_id":"admtrans1-delselrows","value":"Supprimer les lignes sélectionnées.","version":1}
{"k":"0000000102","o":"0000000091","v":"001"}
{"_id":"admtrans1-editdlg-title","_uid":1,"_dt":1457947829990,"_s":"6fd37603dc344d8594bc8f7cacc0da85"}
{"_id":"admtrans1-editdlg-title","value":"S'il vous plaît entrer des valeurs","version":1}
{"k":"0000000091","o":"0000000057","v":"001"}
{"_id":"translation-","_uid":1,"_dt":1457947829990,"_s":"8e41e138c0ea93eb72b8cb4f758c253f"}
{"_id":"translation-","value":"Traduction :","version":1}
{"k":"0000000090","o":"0000000065","v":"001"}
{"_id":"selectedlng","_uid":1,"_dt":1457947829990,"_s":"eebc87d605d0992fa4cc67e7660d97b7"}
{"_id":"selectedlng","value":"Langue sélectionnée","version":1}
{"k":"0000000101","o":"0000000069","v":"001"}
{"_id":"admtrans1-originaltext","_uid":1,"_dt":1457947829991,"_s":"9d9ab68bbaf0232b888338a69c699d31"}
{"_id":"admtrans1-originaltext","value":"Texte original","version":1}
{"k":"0000000104","o":"0000000093","v":"001"}
{"_id":"admtrans1-seletedlanguage","_uid":1,"_dt":1457947829991,"_s":"8f1721cd3a36c39efdf087e457589937"}
{"_id":"admtrans1-seletedlanguage","value":"Texte dans la langue sélectionnée","version":1}
{"k":"0000000104","o":"0000000082","v":"001"}
{"_id":"admtrans1-currentlanguage","_uid":1,"_dt":1457947829991,"_s":"84d0e3d0b33f5d519db791edc7cfa7ea"}
{"_id":"admtrans1-currentlanguage","value":"Texte en langage courant","version":1}
{"k":"0000000083","o":"0000000045","v":"001"}
{"_id":"best","_uid":1,"_dt":1457947829992,"_s":"451672670b83407fc7d40d86adbe345e"}
{"_id":"best","value":"Meilleur","version":1}
{"k":"0000000086","o":"0000000047","v":"001"}
{"_id":"version","_uid":1,"_dt":1457947829992,"_s":"ff9ffa6457a640e28ba9adeebaaf78cc"}
{"_id":"version","value":"Version","version":1}
{"k":"0000000058","o":"0000000000","v":"001"}
{"_id":"username","_uid":1,"_dt":1457993669799,"_a":"del"}

{"k":"0000000055","o":"0000000000","v":"001"}
{"_id":"email","_uid":1,"_dt":1457993669799,"_a":"del"}

{"k":"0000000087","o":"0000000058","v":"001"}
{"_id":"username","_uid":1,"_dt":1457993669799,"_s":"c71efa70f956ec31d834e57d63378d29"}
{"_id":"username","value":"Nom d'utilisateur","version":1}
{"k":"0000000084","o":"0000000046","v":"001"}
{"_id":"email","_uid":1,"_dt":1457993669799,"_s":"0ded4569491a5da1a949b5b1ae811021"}
{"_id":"email","value":"Courriel","version":1}
{"k":"0000000099","o":"0000000117","v":"001"}
{"_id":"msg-successvalidated","_uid":1,"_dt":1458037136871,"_s":"1824c66a550bd4845e49696c4e49bbe4"}
{"_id":"msg-successvalidated","value":"Votre compte est validé, vous pouvez vous connecter maintenant.","version":1}
{"k":"0000000058","o":"0000000000","v":"001"}
{"_id":"username","_uid":1,"_dt":1458037137531,"_a":"del"}

{"k":"0000000055","o":"0000000000","v":"001"}
{"_id":"email","_uid":1,"_dt":1458037137531,"_a":"del"}

{"k":"0000000087","o":"0000000058","v":"001"}
{"_id":"username","_uid":1,"_dt":1458037137531,"_s":"c71efa70f956ec31d834e57d63378d29"}
{"_id":"username","value":"Nom d'utilisateur","version":1}
{"k":"0000000084","o":"0000000046","v":"001"}
{"_id":"email","_uid":1,"_dt":1458037137531,"_s":"0ded4569491a5da1a949b5b1ae811021"}
{"_id":"email","value":"Courriel","version":1}
{"k":"0000000094","o":"0000000059","v":"001"}
{"_id":"adm-users1-user","_uid":1,"_dt":1458037158091,"_s":"f8a5e5c9b82afa65f2b0d5f28e2e1710"}
{"_id":"adm-users1-user","value":"Utilisateur","version":1}
{"k":"0000000095","o":"0000000063","v":"001"}
{"_id":"adm-users1-admin","_uid":1,"_dt":1458037158096,"_s":"5b3f2854a82fa0cab51a1ed49db2876d"}
{"_id":"adm-users1-admin","value":"Administrateur","version":1}
{"k":"0000000086","o":"0000000050","v":"001"}
{"_id":"unblock","_uid":1,"_dt":1458037158096,"_s":"651afa0836bf92d1302b56cfd09a4623"}
{"_id":"unblock","value":"Débloquer","version":1}
{"k":"0000000084","o":"0000000042","v":"001"}
{"_id":"block","_uid":1,"_dt":1458037158101,"_s":"4058f78c5d738d9bf924a8ed096fde6f"}
{"_id":"block","value":"Bloc","version":1}
{"k":"0000000087","o":"0000000048","v":"001"}
{"_id":"validate","_uid":1,"_dt":1458037158101,"_s":"35efc67d0fe35436cd6c6cbab6224f9c"}
{"_id":"validate","value":"Valider","version":1}
{"k":"0000000090","o":"0000000059","v":"001"}
{"_id":"displayname","_uid":1,"_dt":1458037158101,"_s":"2311182e778a4e0d0e7297f057bafbd1"}
{"_id":"displayname","value":"Nom d'affichage","version":1}
{"k":"0000000087","o":"0000000055","v":"001"}
{"_id":"provider","_uid":1,"_dt":1458037158101,"_s":"44ff5b0fc8be2be1f93b1cc5f4fddedd"}
{"_id":"provider","value":"Fournisseur de","version":1}
{"k":"0000000083","o":"0000000042","v":"001"}
{"_id":"role","_uid":1,"_dt":1458037158101,"_s":"ba4658fb23595666a7b585678d03d8fb"}
{"_id":"role","value":"Rôle","version":1}
{"k":"0000000088","o":"0000000049","v":"001"}
{"_id":"validated","_uid":1,"_dt":1458037158101,"_s":"34be5c7ae8ad2fa5f9b94fcba985757e"}
{"_id":"validated","value":"Validé","version":1}
{"k":"0000000086","o":"0000000047","v":"001"}
{"_id":"blocked","_uid":1,"_dt":1458037158106,"_s":"507185c6bae299e763b1b016f96e6373"}
{"_id":"blocked","value":"Bloqué","version":1}
{"k":"0000000091","o":"0000000066","v":"001"}
{"_id":"failattempts","_uid":1,"_dt":1458037158106,"_s":"163b77045b7d684f41029d34c26b6d09"}
{"_id":"failattempts","value":"Échec des tentatives","version":1}
{"k":"0000000088","o":"0000000061","v":"001"}
{"_id":"lastlogin","_uid":1,"_dt":1458037158106,"_s":"1f7fbbb8d05befe68ed242e896bcbc74"}
{"_id":"lastlogin","value":"Dernière connexion","version":1}
{"k":"0000000085","o":"0000000051","v":"001"}
{"_id":"lastip","_uid":1,"_dt":1458037158106,"_s":"ba66fe0f9970d0548c232e1cf71eb029"}
{"_id":"lastip","value":"Dernière IP","version":1}
{"k":"0000000094","o":"0000000067","v":"001"}
{"_id":"validationtoken","_uid":1,"_dt":1458037158106,"_s":"b4bf116093729957acc8563f7a3ee817"}
{"_id":"validationtoken","value":"Jeton de validation","version":1}
{"k":"0000000093","o":"0000000066","v":"001"}
{"_id":"validationtime","_uid":1,"_dt":1458037158106,"_s":"dc63001b7905e7db049c07dbb2682416"}
{"_id":"validationtime","value":"Temps de validation","version":1}
{"k":"0000000088","o":"0000000051","v":"001"}
{"_id":"positive-","_uid":1,"_dt":1458038970739,"_s":"1e4345ba4bcc6d705ecbdee7195ea673"}
{"_id":"positive-","value":"Positif :","version":1}
{"k":"0000000083","o":"0000000052","v":"001"}
{"_id":"cak-","_uid":1,"_dt":1458038970739,"_s":"c1c6559e8a4100a8bba69cd336bfb179"}
{"_id":"cak-","value":"Anode-Cathode :","version":1}
{"k":"0000000103","o":"0000000095","v":"001"}
{"_id":"adm-doc1-renamedlg-title","_uid":1,"_dt":1458044038935,"_s":"6ef357c8d102f4648fb8900060185c8d"}
{"_id":"adm-doc1-renamedlg-title","value":"S'il vous plaît entrez le nouveau nom","version":1}
{"k":"0000000085","o":"0000000056","v":"001"}
{"_id":"rename","_uid":1,"_dt":1458044038935,"_s":"6b62209e24eadb7604ebbcd166df70db"}
{"_id":"rename","value":"Changement de nom","version":1}
{"k":"0000000083","o":"0000000040","v":"001"}
{"_id":"name","_uid":1,"_dt":1458044038935,"_s":"e3007b69fdebeebafb238374d5539d75"}
{"_id":"name","value":"Nom","version":1}
{"k":"0000000083","o":"0000000043","v":"001"}
{"_id":"size","_uid":1,"_dt":1458044038940,"_s":"c945bda722144385a1e835d2a5989003"}
{"_id":"size","value":"Taille","version":1}
{"k":"0000000085","o":"0000000044","v":"001"}
{"_id":"linked","_uid":1,"_dt":1458044038940,"_s":"f84ced9b455925ff20036c8c2a1f6848"}
{"_id":"linked","value":"Liée","version":1}
{"k":"0000000087","o":"0000000048","v":"001"}
{"_id":"linkedto","_uid":1,"_dt":1458044038940,"_s":"dd8d241eea198c4585c56e532880b87e"}
{"_id":"linkedto","value":"Lié à","version":1}
{"k":"0000000086","o":"0000000049","v":"001"}
{"_id":"missing","_uid":1,"_dt":1458044038940,"_s":"adfe5ea194eacf9d77581eb82892ec56"}
{"_id":"missing","value":"Manque de","version":1}
{"k":"0000000058","o":"0000000000","v":"001"}
{"_id":"username","_uid":1,"_dt":1458161857208,"_a":"del"}

{"k":"0000000055","o":"0000000000","v":"001"}
{"_id":"email","_uid":1,"_dt":1458161857208,"_a":"del"}

{"k":"0000000087","o":"0000000058","v":"001"}
{"_id":"username","_uid":1,"_dt":1458161857208,"_s":"c71efa70f956ec31d834e57d63378d29"}
{"_id":"username","value":"Nom d'utilisateur","version":1}
{"k":"0000000084","o":"0000000046","v":"001"}
{"_id":"email","_uid":1,"_dt":1458161857208,"_s":"0ded4569491a5da1a949b5b1ae811021"}
{"_id":"email","value":"Courriel","version":1}
{"k":"0000000090","o":"0000000116","v":"001"}
{"_id":"news-export","_uid":1,"_dt":1458595130111,"_s":"10fae25a1a4a83633a9af7cc22f64411"}
{"_id":"news-export","value":"Exporter vers XLS et CSV ajoutés à la visionneuse pour les graphiques.","version":1}
{"k":"0000000095","o":"0000000062","v":"001"}
{"_id":"filevw1-download","_uid":1,"_dt":1458595173071,"_s":"ae1866573d4134ae208aa2e5d5060ef2"}
{"_id":"filevw1-download","value":"Télécharger","version":1}
{"k":"0000000058","o":"0000000000","v":"001"}
{"_id":"username","_uid":1,"_dt":1458595291201,"_a":"del"}

{"k":"0000000055","o":"0000000000","v":"001"}
{"_id":"email","_uid":1,"_dt":1458595291201,"_a":"del"}

{"k":"0000000087","o":"0000000058","v":"001"}
{"_id":"username","_uid":1,"_dt":1458595291201,"_s":"c71efa70f956ec31d834e57d63378d29"}
{"_id":"username","value":"Nom d'utilisateur","version":1}
{"k":"0000000084","o":"0000000046","v":"001"}
{"_id":"email","_uid":1,"_dt":1458595291201,"_s":"0ded4569491a5da1a949b5b1ae811021"}
{"_id":"email","value":"Courriel","version":1}
{"k":"0000000093","o":"0000000076","v":"001"}
{"_id":"newacccreation","_uid":1,"_dt":1458597281100,"_s":"c9a7f0a1b5b425fa9dbe2233810e344a"}
{"_id":"newacccreation","value":"Création d'un nouveau compte","version":1}
{"k":"0000000091","o":"0000000342","v":"001"}
{"_id":"confmailbody","_uid":1,"_dt":1458597281100,"_s":"df659b5b444b7cda32a7632a8c7d74b9"}
{"_id":"confmailbody","value":"Bonjour \\0 \\0 un compte a été créé pour vous à \\1. \\0 veuillez consulter l'url suivante pour activer votre compte. \\0 \\2 \\0 \\0 \\0 si le compte a été créé par erreur, vous pouvez visiter le lien suivant pour refuser cette invitation. \\0 \\3 \\0 \\0 meilleures salutations \\0 \\4","version":1}
{"k":"0000000092","o":"0000000212","v":"001"}
{"_id":"msg-emailsent","_uid":1,"_dt":1458597283510,"_s":"7ce78c96f8b4f2bb2324ea7ba6818e8d"}
{"_id":"msg-emailsent","value":"Un email de confirmation a été envoyé. S'il vous plaît consulter votre messagerie et cliquez sur le lien dans l'email envoyé pour valider la création du compte.","version":1}
{"k":"0000000070","o":"0000000000","v":"001"}
{"_id":"msg-successvalidated","_uid":1,"_dt":1458597331780,"_a":"del"}

{"k":"0000000099","o":"0000000117","v":"001"}
{"_id":"msg-successvalidated","_uid":1,"_dt":1458597331780,"_s":"1824c66a550bd4845e49696c4e49bbe4"}
{"_id":"msg-successvalidated","value":"Votre compte est validé, vous pouvez vous connecter maintenant.","version":1}
{"k":"0000000058","o":"0000000000","v":"001"}
{"_id":"username","_uid":1,"_dt":1458597332245,"_a":"del"}

{"k":"0000000055","o":"0000000000","v":"001"}
{"_id":"email","_uid":1,"_dt":1458597332245,"_a":"del"}

{"k":"0000000087","o":"0000000058","v":"001"}
{"_id":"username","_uid":1,"_dt":1458597332245,"_s":"c71efa70f956ec31d834e57d63378d29"}
{"_id":"username","value":"Nom d'utilisateur","version":1}
{"k":"0000000084","o":"0000000046","v":"001"}
{"_id":"email","_uid":1,"_dt":1458597332245,"_s":"0ded4569491a5da1a949b5b1ae811021"}
{"_id":"email","value":"Courriel","version":1}
{"k":"0000000070","o":"0000000000","v":"001"}
{"_id":"msg-successvalidated","_uid":1,"_dt":1458597332550,"_a":"del"}

{"k":"0000000099","o":"0000000117","v":"001"}
{"_id":"msg-successvalidated","_uid":1,"_dt":1458597332550,"_s":"1824c66a550bd4845e49696c4e49bbe4"}
{"_id":"msg-successvalidated","value":"Votre compte est validé, vous pouvez vous connecter maintenant.","version":1}
{"k":"0000000058","o":"0000000000","v":"001"}
{"_id":"username","_uid":1,"_dt":1458597348540,"_a":"del"}

{"k":"0000000055","o":"0000000000","v":"001"}
{"_id":"email","_uid":1,"_dt":1458597348540,"_a":"del"}

{"k":"0000000087","o":"0000000058","v":"001"}
{"_id":"username","_uid":1,"_dt":1458597348545,"_s":"c71efa70f956ec31d834e57d63378d29"}
{"_id":"username","value":"Nom d'utilisateur","version":1}
{"k":"0000000084","o":"0000000046","v":"001"}
{"_id":"email","_uid":1,"_dt":1458597348545,"_s":"0ded4569491a5da1a949b5b1ae811021"}
{"_id":"email","value":"Courriel","version":1}
{"k":"0000000091","o":"0000000081","v":"001"}
{"_id":"invalid_expr","_uid":1,"_dt":1458597404440,"_s":"cdce4f482360ec7f1a7cfdb1fe925519"}
{"_id":"invalid_expr","value":"Paramètres de recherche non valide.","version":1}
{"k":"0000000058","o":"0000000000","v":"001"}
{"_id":"username","_uid":1,"_dt":1458598049996,"_a":"del"}

{"k":"0000000055","o":"0000000000","v":"001"}
{"_id":"email","_uid":1,"_dt":1458598049996,"_a":"del"}

{"k":"0000000087","o":"0000000058","v":"001"}
{"_id":"username","_uid":1,"_dt":1458598049996,"_s":"c71efa70f956ec31d834e57d63378d29"}
{"_id":"username","value":"Nom d'utilisateur","version":1}
{"k":"0000000084","o":"0000000046","v":"001"}
{"_id":"email","_uid":1,"_dt":1458598049996,"_s":"0ded4569491a5da1a949b5b1ae811021"}
{"_id":"email","value":"Courriel","version":1}
{"k":"0000000066","o":"0000000000","v":"001"}
{"_id":"news-tubeupdated","_uid":1,"_dt":1458936889366,"_a":"del"}

{"k":"0000000064","o":"0000000000","v":"001"}
{"_id":"news-tubeadded","_uid":1,"_dt":1458936889366,"_a":"del"}

{"k":"0000000095","o":"0000000070","v":"001"}
{"_id":"news-tubeupdated","_uid":1,"_dt":1458936889366,"_s":"de90cc789ba487f2a4bf7dd44fd1eb40"}
{"_id":"news-tubeupdated","value":"Tube de mise à jour.","version":1}
{"k":"0000000093","o":"0000000067","v":"001"}
{"_id":"news-tubeadded","_uid":1,"_dt":1458936889371,"_s":"e6fb9c73703c60239bab9caef8b7c438"}
{"_id":"news-tubeadded","value":"Nouveau tube ajouté","version":1}
{"k":"0000000067","o":"0000000000","v":"001"}
{"_id":"cre1-step-title-3","_uid":1,"_dt":1458937013725,"_a":"del"}

{"k":"0000000096","o":"0000000314","v":"001"}
{"_id":"cre1-step-title-3","_uid":1,"_dt":1458937013725,"_s":"c355d40ee6b591019d5586a32ab8fbe0"}
{"_id":"cre1-step-title-3","value":"Pour chaque courbes dans l'image, cliquez sur le bouton Ajouter et dessiner des points de manière à évoquer la courbe de graphique correspond à la courbe de l'image et régler la tension grid1. Double-cliquez sur un point pour l'édition d'une courbe existante","version":1}
{"k":"0000000058","o":"0000000000","v":"001"}
{"_id":"username","_uid":1,"_dt":1459407452173,"_a":"del"}

{"k":"0000000055","o":"0000000000","v":"001"}
{"_id":"email","_uid":1,"_dt":1459407452173,"_a":"del"}

{"k":"0000000087","o":"0000000058","v":"001"}
{"_id":"username","_uid":1,"_dt":1459407452173,"_s":"c71efa70f956ec31d834e57d63378d29"}
{"_id":"username","value":"Nom d'utilisateur","version":1}
{"k":"0000000084","o":"0000000046","v":"001"}
{"_id":"email","_uid":1,"_dt":1459407452173,"_s":"0ded4569491a5da1a949b5b1ae811021"}
{"_id":"email","value":"Courriel","version":1}
{"k":"0000000064","o":"0000000000","v":"001"}
{"_id":"news-tubeadded","_uid":1,"_dt":1459604223120,"_a":"del"}

{"k":"0000000066","o":"0000000000","v":"001"}
{"_id":"news-tubeupdated","_uid":1,"_dt":1459604223120,"_a":"del"}

{"k":"0000000093","o":"0000000071","v":"001"}
{"_id":"news-tubeadded","_uid":1,"_dt":1459604223120,"_s":"769168507fb146c38645584db891882a"}
{"_id":"news-tubeadded","value":"Nouveau tube ajouté \\0","version":1}
{"k":"0000000095","o":"0000000070","v":"001"}
{"_id":"news-tubeupdated","_uid":1,"_dt":1459604223125,"_s":"1b3fee25ad0d8d52e5c41f3919a5aaa7"}
{"_id":"news-tubeupdated","value":"Tube \\0 mis à jour.","version":1}
{"k":"0000000066","o":"0000000000","v":"001"}
{"_id":"news-tubeupdated","_uid":1,"_dt":1461045325785,"_a":"del"}

{"k":"0000000064","o":"0000000000","v":"001"}
{"_id":"news-tubeadded","_uid":1,"_dt":1461045325785,"_a":"del"}

{"k":"0000000095","o":"0000000070","v":"001"}
{"_id":"news-tubeupdated","_uid":1,"_dt":1461045325790,"_s":"1b3fee25ad0d8d52e5c41f3919a5aaa7"}
{"_id":"news-tubeupdated","value":"Tube \\0 mis à jour.","version":1}
{"k":"0000000093","o":"0000000071","v":"001"}
{"_id":"news-tubeadded","_uid":1,"_dt":1461045325790,"_s":"769168507fb146c38645584db891882a"}
{"_id":"news-tubeadded","value":"Nouveau tube ajouté \\0","version":1}
{"k":"0000000058","o":"0000000000","v":"001"}
{"_id":"username","_uid":1,"_dt":1461045345215,"_a":"del"}

{"k":"0000000055","o":"0000000000","v":"001"}
{"_id":"email","_uid":1,"_dt":1461045345215,"_a":"del"}

{"k":"0000000087","o":"0000000058","v":"001"}
{"_id":"username","_uid":1,"_dt":1461045345220,"_s":"c71efa70f956ec31d834e57d63378d29"}
{"_id":"username","value":"Nom d'utilisateur","version":1}
{"k":"0000000084","o":"0000000046","v":"001"}
{"_id":"email","_uid":1,"_dt":1461045345220,"_s":"0ded4569491a5da1a949b5b1ae811021"}
{"_id":"email","value":"Courriel","version":1}
{"k":"0000000067","o":"0000000000","v":"001"}
{"_id":"cre1-step-title-3","_uid":1,"_dt":1461144901990,"_a":"del"}

{"k":"0000000096","o":"0000000314","v":"001"}
{"_id":"cre1-step-title-3","_uid":1,"_dt":1461144901990,"_s":"c355d40ee6b591019d5586a32ab8fbe0"}
{"_id":"cre1-step-title-3","value":"Pour chaque courbes dans l'image, cliquez sur le bouton Ajouter et dessiner des points de manière à évoquer la courbe de graphique correspond à la courbe de l'image et régler la tension grid1. Double-cliquez sur un point pour l'édition d'une courbe existante","version":1}
{"k":"0000000066","o":"0000000000","v":"001"}
{"_id":"news-tubeupdated","_uid":1,"_dt":1461159250357,"_a":"del"}

{"k":"0000000064","o":"0000000000","v":"001"}
{"_id":"news-tubeadded","_uid":1,"_dt":1461159250357,"_a":"del"}

{"k":"0000000095","o":"0000000070","v":"001"}
{"_id":"news-tubeupdated","_uid":1,"_dt":1461159250357,"_s":"1b3fee25ad0d8d52e5c41f3919a5aaa7"}
{"_id":"news-tubeupdated","value":"Tube \\0 mis à jour.","version":1}
{"k":"0000000093","o":"0000000071","v":"001"}
{"_id":"news-tubeadded","_uid":1,"_dt":1461159250357,"_s":"769168507fb146c38645584db891882a"}
{"_id":"news-tubeadded","value":"Nouveau tube ajouté \\0","version":1}
{"k":"0000000058","o":"0000000000","v":"001"}
{"_id":"username","_uid":1,"_dt":1461668109957,"_a":"del"}

{"k":"0000000055","o":"0000000000","v":"001"}
{"_id":"email","_uid":1,"_dt":1461668109962,"_a":"del"}

{"k":"0000000087","o":"0000000058","v":"001"}
{"_id":"username","_uid":1,"_dt":1461668109962,"_s":"c71efa70f956ec31d834e57d63378d29"}
{"_id":"username","value":"Nom d'utilisateur","version":1}
{"k":"0000000084","o":"0000000046","v":"001"}
{"_id":"email","_uid":1,"_dt":1461668109962,"_s":"0ded4569491a5da1a949b5b1ae811021"}
{"_id":"email","value":"Courriel","version":1}
{"k":"0000000058","o":"0000000000","v":"001"}
{"_id":"username","_uid":1,"_dt":1463556843317,"_a":"del"}

{"k":"0000000055","o":"0000000000","v":"001"}
{"_id":"email","_uid":1,"_dt":1463556843317,"_a":"del"}

{"k":"0000000087","o":"0000000060","v":"001"}
{"_id":"username","_uid":1,"_dt":1463556843317,"_s":"b1f6b8e9f1f54931ec7f9eaab8df94e5"}
{"_id":"username","value":"Nom d’utilisateur","version":1}
{"k":"0000000084","o":"0000000046","v":"001"}
{"_id":"email","_uid":1,"_dt":1463556843317,"_s":"0ded4569491a5da1a949b5b1ae811021"}
{"_id":"email","value":"Courriel","version":1}
{"k":"0000000066","o":"0000000000","v":"001"}
{"_id":"news-tubeupdated","_uid":1,"_dt":1463558264619,"_a":"del"}

{"k":"0000000064","o":"0000000000","v":"001"}
{"_id":"news-tubeadded","_uid":1,"_dt":1463558264619,"_a":"del"}

{"k":"0000000095","o":"0000000070","v":"001"}
{"_id":"news-tubeupdated","_uid":1,"_dt":1463558264619,"_s":"1b3fee25ad0d8d52e5c41f3919a5aaa7"}
{"_id":"news-tubeupdated","value":"Tube \\0 mis à jour.","version":1}
{"k":"0000000093","o":"0000000071","v":"001"}
{"_id":"news-tubeadded","_uid":1,"_dt":1463558264619,"_s":"769168507fb146c38645584db891882a"}
{"_id":"news-tubeadded","value":"Nouveau tube ajouté \\0","version":1}
{"k":"0000000067","o":"0000000000","v":"001"}
{"_id":"cre1-step-title-3","_uid":1,"_dt":1463744681351,"_a":"del"}

{"k":"0000000096","o":"0000000322","v":"001"}
{"_id":"cre1-step-title-3","_uid":1,"_dt":1463744681356,"_s":"36de029e629d7b1c5ff8bc871a88f368"}
{"_id":"cre1-step-title-3","value":"Pour chaque courbes dans l’image, cliquez sur le bouton Ajouter et dessiner des points de manière à évoquer la courbe de graphique correspond à la courbe de l’image et régler la tension grid1. Double-cliquez sur un point pour l’édition d’une courbe existante","version":1}
