{"k":"0000000089","o":"0000000063","v":"001"}
{"_id":"hom1-ddlg0","_uid":1,"_dt":1458993243067,"_s":"9b5296cefacc2fbb3630dc6f9ed0a73d"}
{"_id":"hom1-ddlg0","value":"Esborrar dades tube?","version":1}
{"k":"0000000089","o":"0000000130","v":"001"}
{"_id":"hom1-ddlg1","_uid":1,"_dt":1458993243067,"_s":"41ba983995c3dce7db59811d95149715"}
{"_id":"hom1-ddlg1","value":"&#13; &#10; Esteu segur que voleu suprimir la versió d'aquest tub? &#13; &#10;        ","version":1}
{"k":"0000000089","o":"0000000201","v":"001"}
{"_id":"hom1-ddlg2","_uid":1,"_dt":1458993243067,"_s":"a9be9ca9f3a7d3e79bb91cbec0b11dc5"}
{"_id":"hom1-ddlg2","value":"&#13; &#10; Ser conscient que si existeix un públic versió d'aquest tub, vostè obtindrà el públic versió sobre el seu futur cerques. &#13; &#10;        ","version":1}
{"k":"0000000085","o":"0000000047","v":"001"}
{"_id":"delete","_uid":1,"_dt":1458993243067,"_s":"bdf1798ef19d9e0e7b01aa61a24f2b8b"}
{"_id":"delete","value":"Suprimir","version":1}
{"k":"0000000085","o":"0000000049","v":"001"}
{"_id":"cancel","_uid":1,"_dt":1458993243067,"_s":"8d16390706d69427902ccb939485c7c9"}
{"_id":"cancel","value":"Cancel·la","version":1}
{"k":"0000000092","o":"0000000087","v":"001"}
{"_id":"hom1-seltitle","_uid":1,"_dt":1458993243067,"_s":"90dbc371cb3382c5e89fcb15460d143d"}
{"_id":"hom1-seltitle","value":"Llista de documents adjunts a aquest tub:","version":1}
{"k":"0000000083","o":"0000000048","v":"001"}
{"_id":"info","_uid":1,"_dt":1458993243067,"_s":"8109e8e4fe0a73815b67985e2ccd6e8c"}
{"_id":"info","value":"informació","version":1}
{"k":"0000000084","o":"0000000044","v":"001"}
{"_id":"close","_uid":1,"_dt":1458993243067,"_s":"d4c6175f7a7848b83af713ea5405aea4"}
{"_id":"close","value":"Tancar","version":1}
{"k":"0000000086","o":"0000000045","v":"001"}
{"_id":"warning","_uid":1,"_dt":1458993243072,"_s":"e852f01a59c556131f9834b3a7169108"}
{"_id":"warning","value":"Avís","version":1}
{"k":"0000000084","o":"0000000043","v":"001"}
{"_id":"error","_uid":1,"_dt":1458993243072,"_s":"371a33cdb1d3ac7b59606a7d05e7d571"}
{"_id":"error","value":"error","version":1}
{"k":"0000000088","o":"0000000059","v":"001"}
{"_id":"hom1-edit","_uid":1,"_dt":1458993243072,"_s":"53b3567a9877623f4636aae6906f0595"}
{"_id":"hom1-edit","value":"Editar aquest tub","version":1}
{"k":"0000000091","o":"0000000088","v":"001"}
{"_id":"hom1-ucreate","_uid":1,"_dt":1458993243072,"_s":"a74459a4e3e338dfe855fa411aad8195"}
{"_id":"hom1-ucreate","value":"Crear un nou exemple d'ús per a aquest tub","version":1}
{"k":"0000000091","o":"0000000082","v":"001"}
{"_id":"hom1-gcreate","_uid":1,"_dt":1458993243072,"_s":"12243deee3fd6460ffb9e661c9e70b9d"}
{"_id":"hom1-gcreate","value":"Crear un gràfic nou per a aquest tub","version":1}
{"k":"0000000093","o":"0000000078","v":"001"}
{"_id":"hom1-attachdoc","_uid":1,"_dt":1458993243072,"_s":"22c157cde5462e23575f596f330b5d5b"}
{"_id":"hom1-attachdoc","value":"Adjunteu documents a aquest tub","version":1}
{"k":"0000000090","o":"0000000085","v":"001"}
{"_id":"hom1-delete","_uid":1,"_dt":1458993243072,"_s":"de9a0dc612768078c74a8b68e90544b5"}
{"_id":"hom1-delete","value":"Suprimir la versió d'usuari d'aquest tub","version":1}
{"k":"0000000092","o":"0000000062","v":"001"}
{"_id":"settingspanel","_uid":1,"_dt":1458993243072,"_s":"ed9b5a6faec9f432efc0f2a3866faec8"}
{"_id":"settingspanel","value":"Plafó d'escenes","version":1}
{"k":"0000000089","o":"0000000059","v":"001"}
{"_id":"createtube","_uid":1,"_dt":1458993243072,"_s":"0370f02a2ea31bb71eba04ee0ccb4da5"}
{"_id":"createtube","value":"Crear un nou tub","version":1}
{"k":"0000000088","o":"0000000063","v":"001"}
{"_id":"hom1-slbl","_uid":1,"_dt":1458993243072,"_s":"111d246164aae62a46ac45c7ab390002"}
{"_id":"hom1-slbl","value":"Cerca per referència","version":1}
{"k":"0000000088","o":"0000000057","v":"001"}
{"_id":"advsearch","_uid":1,"_dt":1458993243072,"_s":"2b1c6c2e8365b0b2d2d6b1e66c066ced"}
{"_id":"advsearch","value":"Cerca avançada","version":1}
{"k":"0000000089","o":"0000000061","v":"001"}
{"_id":"latestnews","_uid":1,"_dt":1458993243072,"_s":"8a40407069796f97e6ebc4298be4dcc4"}
{"_id":"latestnews","value":"Últimes notícies","version":1}
{"k":"0000000085","o":"0000000044","v":"001"}
{"_id":"search","_uid":1,"_dt":1458993243072,"_s":"fc7a19d2138cba4b06b572d17f8ded21"}
{"_id":"search","value":"Cerca","version":1}
{"k":"0000000088","o":"0000000075","v":"001"}
{"_id":"hom1-albl","_uid":1,"_dt":1458993243072,"_s":"e751708d259a45ebbf5bb1c87f61f482"}
{"_id":"hom1-albl","value":"Afegir els seus criteris de cerca","version":1}
{"k":"0000000091","o":"0000000057","v":"001"}
{"_id":"simplesearch","_uid":1,"_dt":1458993243072,"_s":"07a55c4cbc0e2306665c589324b808b3"}
{"_id":"simplesearch","value":"Cerca simple","version":1}
{"k":"0000000082","o":"0000000055","v":"001"}
{"_id":"add","_uid":1,"_dt":1458993243072,"_s":"71d626e1947a0fc713b00a1e1c65d4f1"}
{"_id":"add","value":"Afegeix un camp nou","version":1}
{"k":"0000000095","o":"0000000069","v":"001"}
{"_id":"news-tubeupdated","_uid":1,"_dt":1458993243072,"_s":"f3595b7fdbdacb171be9a493ee13f372"}
{"_id":"news-tubeupdated","value":"Tub \\0 actualitzat.","version":1}
{"k":"0000000093","o":"0000000065","v":"001"}
{"_id":"news-tubeadded","_uid":1,"_dt":1458993243072,"_s":"48d1004c0c897cb483356a9bb31d1fd9"}
{"_id":"news-tubeadded","value":"Nou tub afegit \\0","version":1}
{"k":"0000000090","o":"0000000101","v":"001"}
{"_id":"news-export","_uid":1,"_dt":1458993243072,"_s":"c9a39b711f1d7b88344d451820128504"}
{"_id":"news-export","value":"Exportar a XLS i CSV afegit a l'espectador pels gràfics.","version":1}
{"k":"0000000084","o":"0000000081","v":"001"}
{"_id":"news0","_uid":1,"_dt":1458993243072,"_s":"013afed3db85367a627bd2c9aabd5ffe"}
{"_id":"news0","value":"Base de dades creada, 2766 tubs disponible.","version":1}
{"k":"0000000086","o":"0000000049","v":"001"}
{"_id":"welcome","_uid":1,"_dt":1458993243077,"_s":"e852a7e91623bd3fb27cf9e2e30e36fb"}
{"_id":"welcome","value":"Benvingut","version":1}
{"k":"0000000085","o":"0000000045","v":"001"}
{"_id":"logout","_uid":1,"_dt":1458993243077,"_s":"2ed5135df903a1893b8ed2c1b4f2ec45"}
{"_id":"logout","value":"Logout","version":1}
{"k":"0000000084","o":"0000000048","v":"001"}
{"_id":"login","_uid":1,"_dt":1458993243077,"_s":"169b649f0a58936b9dc923a2622b0296"}
{"_id":"login","value":"Connecti's","version":1}
