{"k":"0000000089","o":"0000000064","v":"001"}
{"_id":"hom1-ddlg0","_uid":1,"_dt":1458993256257,"_s":"6cdb8678da78ca9c58f97aad24df2a48"}
{"_id":"hom1-ddlg0","value":"Elimina dati di tubo?","version":1}
{"k":"0000000089","o":"0000000132","v":"001"}
{"_id":"hom1-ddlg1","_uid":1,"_dt":1458993256257,"_s":"f4ebc06aa7479fc8e26491e04c8b822e"}
{"_id":"hom1-ddlg1","value":"&#13; &#10; Sei sicuro di voler eliminare la versione di questo tubo? &#13; &#10;        ","version":1}
{"k":"0000000089","o":"0000000209","v":"001"}
{"_id":"hom1-ddlg2","_uid":1,"_dt":1458993256257,"_s":"0bb47cdacb801cceeb16561ba90552ad"}
{"_id":"hom1-ddlg2","value":"&#13; &#10; Essere consapevoli del fatto che, se esiste una versione pubblica di questo tubo, si otterrà la versione pubblica ai futuri ricerche. &#13; &#10;        ","version":1}
{"k":"0000000085","o":"0000000046","v":"001"}
{"_id":"delete","_uid":1,"_dt":1458993256257,"_s":"a10ac108e5aca426aea9620e469cdfb8"}
{"_id":"delete","value":"Elimina","version":1}
{"k":"0000000085","o":"0000000046","v":"001"}
{"_id":"cancel","_uid":1,"_dt":1458993256257,"_s":"64eb72d19c68ead498fc04b540507466"}
{"_id":"cancel","value":"Annulla","version":1}
{"k":"0000000092","o":"0000000093","v":"001"}
{"_id":"hom1-seltitle","_uid":1,"_dt":1458993256257,"_s":"7777f13d47e0686fd2c0c6053fd8fac2"}
{"_id":"hom1-seltitle","value":"Elenco dei documenti allegati a questo filmato:","version":1}
{"k":"0000000083","o":"0000000041","v":"001"}
{"_id":"info","_uid":1,"_dt":1458993256257,"_s":"212a0c9df3bbb0097def7001e4036d56"}
{"_id":"info","value":"Info","version":1}
{"k":"0000000084","o":"0000000046","v":"001"}
{"_id":"close","_uid":1,"_dt":1458993256257,"_s":"47cf1fc177d2c9c7320d721914571e98"}
{"_id":"close","value":"Chiudere","version":1}
{"k":"0000000086","o":"0000000046","v":"001"}
{"_id":"warning","_uid":1,"_dt":1458993256257,"_s":"a7616f2dba43e265ef98cf17de36cf70"}
{"_id":"warning","value":"avviso","version":1}
{"k":"0000000084","o":"0000000044","v":"001"}
{"_id":"error","_uid":1,"_dt":1458993256257,"_s":"23f8dc86e74e1144cc7760320572b8fd"}
{"_id":"error","value":"errore","version":1}
{"k":"0000000088","o":"0000000064","v":"001"}
{"_id":"hom1-edit","_uid":1,"_dt":1458993256257,"_s":"5619a293f772661669c6c8853b607301"}
{"_id":"hom1-edit","value":"Modificare questo tubo","version":1}
{"k":"0000000091","o":"0000000096","v":"001"}
{"_id":"hom1-ucreate","_uid":1,"_dt":1458993256257,"_s":"6158a0f7019c3f22023f19acbb6e33d0"}
{"_id":"hom1-ucreate","value":"Creare un nuovo esempio di utilizzo per questo tubo","version":1}
{"k":"0000000091","o":"0000000084","v":"001"}
{"_id":"hom1-gcreate","_uid":1,"_dt":1458993256257,"_s":"0e4a1b613d0457e7f13f96474f2a6b1a"}
{"_id":"hom1-gcreate","value":"Creare un nuovo grafico per questo tubo","version":1}
{"k":"0000000093","o":"0000000079","v":"001"}
{"_id":"hom1-attachdoc","_uid":1,"_dt":1458993256257,"_s":"55268e23b5eea58066efda1d2c8dbea6"}
{"_id":"hom1-attachdoc","value":"Allegare documenti a questo tubo","version":1}
{"k":"0000000090","o":"0000000090","v":"001"}
{"_id":"hom1-delete","_uid":1,"_dt":1458993256257,"_s":"38d67f01edd369eaa7020710b424d307"}
{"_id":"hom1-delete","value":"Eliminare la versione di utente di questo tubo","version":1}
{"k":"0000000092","o":"0000000067","v":"001"}
{"_id":"settingspanel","_uid":1,"_dt":1458993256257,"_s":"9f233eaa01d0a90c7809c45c6f047ff8"}
{"_id":"settingspanel","value":"Pannello impostazioni","version":1}
{"k":"0000000089","o":"0000000063","v":"001"}
{"_id":"createtube","_uid":1,"_dt":1458993256257,"_s":"29bcb4d619b8943fb433192b956d3259"}
{"_id":"createtube","value":"Creare un nuovo tubo","version":1}
{"k":"0000000088","o":"0000000065","v":"001"}
{"_id":"hom1-slbl","_uid":1,"_dt":1458993256257,"_s":"c17a67e38aa8c28dd14e162ac3fb1bd9"}
{"_id":"hom1-slbl","value":"Ricerca per riferimento","version":1}
{"k":"0000000088","o":"0000000058","v":"001"}
{"_id":"advsearch","_uid":1,"_dt":1458993256257,"_s":"9ce70d2b4b5091b422f64834e0c379c6"}
{"_id":"advsearch","value":"Ricerca avanzata","version":1}
{"k":"0000000089","o":"0000000057","v":"001"}
{"_id":"latestnews","_uid":1,"_dt":1458993256262,"_s":"66c165087a41f55dfd276a16904bef9d"}
{"_id":"latestnews","value":"Ultime notizie","version":1}
{"k":"0000000085","o":"0000000046","v":"001"}
{"_id":"search","_uid":1,"_dt":1458993256262,"_s":"6df6d2ccbda62c811bd81d142c6ff23c"}
{"_id":"search","value":"Ricerca","version":1}
{"k":"0000000088","o":"0000000076","v":"001"}
{"_id":"hom1-albl","_uid":1,"_dt":1458993256262,"_s":"b0dbf313263935346a6c87f144dc9745"}
{"_id":"hom1-albl","value":"Aggiungi i tuoi criteri di ricerca","version":1}
{"k":"0000000091","o":"0000000061","v":"001"}
{"_id":"simplesearch","_uid":1,"_dt":1458993256262,"_s":"17972898f2065621a3bbd9e61cbc2e86"}
{"_id":"simplesearch","value":"Ricerca semplice","version":1}
{"k":"0000000082","o":"0000000061","v":"001"}
{"_id":"add","_uid":1,"_dt":1458993256262,"_s":"75f71ffc911ee056fd16f1a80b11215e"}
{"_id":"add","value":"Aggiungere un nuovo campo","version":1}
{"k":"0000000095","o":"0000000069","v":"001"}
{"_id":"news-tubeupdated","_uid":1,"_dt":1458993256262,"_s":"0e4697fc463579a383ad2e3de4edcf3a"}
{"_id":"news-tubeupdated","value":"Tubo \\0 aggiornato.","version":1}
{"k":"0000000093","o":"0000000070","v":"001"}
{"_id":"news-tubeadded","_uid":1,"_dt":1458993256262,"_s":"d1241efc87873e3cde69ecef66759c42"}
{"_id":"news-tubeadded","value":"Nuovo tubo aggiunto \\0","version":1}
{"k":"0000000090","o":"0000000116","v":"001"}
{"_id":"news-export","_uid":1,"_dt":1458993256262,"_s":"f342a7475a49668453c7f8e2a29f24e2"}
{"_id":"news-export","value":"Esportare in formato XLS e CSV aggiunto al visualizzatore per i grafici.","version":1}
{"k":"0000000084","o":"0000000077","v":"001"}
{"_id":"news0","_uid":1,"_dt":1458993256262,"_s":"2aa40ca7f10b0a1cb4f320b82a8c061e"}
{"_id":"news0","value":"Database creato, 2766 tubi disponibili.","version":1}
{"k":"0000000086","o":"0000000049","v":"001"}
{"_id":"welcome","_uid":1,"_dt":1458993256262,"_s":"8c0316ed11c156bee07cf8b24c814886"}
{"_id":"welcome","value":"Benvenuto","version":1}
{"k":"0000000085","o":"0000000045","v":"001"}
{"_id":"logout","_uid":1,"_dt":1458993256262,"_s":"2ed5135df903a1893b8ed2c1b4f2ec45"}
{"_id":"logout","value":"Logout","version":1}
{"k":"0000000084","o":"0000000056","v":"001"}
{"_id":"login","_uid":1,"_dt":1458993256262,"_s":"b620a5ee75239ba6587114ef4c53722c"}
{"_id":"login","value":"account di accesso","version":1}
