{"k":"0000000089","o":"0000000079","v":"001"}
{"_id":"hom1-ddlg0","_uid":1,"_dt":1458161915088,"_s":"78985000601602f98ab729f250b00f96"}
{"_id":"hom1-ddlg0","value":"管データを削除しますか。","version":1}
{"k":"0000000089","o":"0000000155","v":"001"}
{"_id":"hom1-ddlg1","_uid":1,"_dt":1458161915088,"_s":"e7f4ec7ebd23ae1fc0269b648867439e"}
{"_id":"hom1-ddlg1","value":"&#13; &#10; あなたはこのチューブのバージョンを削除してもよろしいですか? &#13; &#10;","version":1}
{"k":"0000000089","o":"0000000220","v":"001"}
{"_id":"hom1-ddlg2","_uid":1,"_dt":1458161915088,"_s":"70a4f3c58f96de53f893ee418bea22cd"}
{"_id":"hom1-ddlg2","value":"&#13; &#10; このチューブの公開バージョンが存在する場合は、公共のバージョンを取得あなた未来検索には注意してください &#13; &#10;","version":1}
{"k":"0000000085","o":"0000000045","v":"001"}
{"_id":"delete","_uid":1,"_dt":1458161915088,"_s":"f618f030152a20cbd16a53fdeb4781cb"}
{"_id":"delete","value":"削除","version":1}
{"k":"0000000085","o":"0000000054","v":"001"}
{"_id":"cancel","_uid":1,"_dt":1458161915088,"_s":"2d2bc752a2cc776ca1830f20967750f6"}
{"_id":"cancel","value":"キャンセル","version":1}
{"k":"0000000092","o":"0000000116","v":"001"}
{"_id":"hom1-seltitle","_uid":1,"_dt":1458161915093,"_s":"534ecec74a211f4f789a38cd1d3281be"}
{"_id":"hom1-seltitle","value":"このチューブに接続されているドキュメントの一覧:","version":1}
{"k":"0000000083","o":"0000000043","v":"001"}
{"_id":"info","_uid":1,"_dt":1458161915093,"_s":"eb79d6b94f3dc6a273e730b067d82fb3"}
{"_id":"info","value":"情報","version":1}
{"k":"0000000084","o":"0000000047","v":"001"}
{"_id":"close","_uid":1,"_dt":1458161915093,"_s":"281836a212e012afb494c7b93bb1f499"}
{"_id":"close","value":"閉じる","version":1}
{"k":"0000000086","o":"0000000046","v":"001"}
{"_id":"warning","_uid":1,"_dt":1458161915093,"_s":"e84d4844644ec14d657bc5ca9664185e"}
{"_id":"warning","value":"警告","version":1}
{"k":"0000000084","o":"0000000047","v":"001"}
{"_id":"error","_uid":1,"_dt":1458161915093,"_s":"7dc7f2839d40f93fc9174ebedbc30d82"}
{"_id":"error","value":"エラー","version":1}
{"k":"0000000088","o":"0000000081","v":"001"}
{"_id":"hom1-edit","_uid":1,"_dt":1458161915093,"_s":"8b006a9ee0cde47a54bac74209de41f1"}
{"_id":"hom1-edit","value":"このチューブを編集します。","version":1}
{"k":"0000000091","o":"0000000105","v":"001"}
{"_id":"hom1-ucreate","_uid":1,"_dt":1458161915093,"_s":"c6bd4d5408350ddc4b2df1dac2b4f4af"}
{"_id":"hom1-ucreate","value":"このチューブの新しい使用例を作成します。","version":1}
{"k":"0000000091","o":"0000000105","v":"001"}
{"_id":"hom1-gcreate","_uid":1,"_dt":1458161915093,"_s":"cbe28774fefe6126e546265bb284b599"}
{"_id":"hom1-gcreate","value":"このチューブの新しいグラフを作成します。","version":1}
{"k":"0000000093","o":"0000000107","v":"001"}
{"_id":"hom1-attachdoc","_uid":1,"_dt":1458161915093,"_s":"9333fe42ed481fbb82215e481da359fe"}
{"_id":"hom1-attachdoc","value":"このチューブにドキュメントを添付します。","version":1}
{"k":"0000000090","o":"0000000114","v":"001"}
{"_id":"hom1-delete","_uid":1,"_dt":1458161915093,"_s":"9411081db1d5cf9805ee412d5247c1d9"}
{"_id":"hom1-delete","value":"このチューブのユーザー バージョンを削除します。","version":1}
{"k":"0000000092","o":"0000000064","v":"001"}
{"_id":"settingspanel","_uid":1,"_dt":1458161915093,"_s":"908d92ed8d34ab337675b06e4d7f307f"}
{"_id":"settingspanel","value":"[設定] パネル","version":1}
{"k":"0000000089","o":"0000000085","v":"001"}
{"_id":"createtube","_uid":1,"_dt":1458161915093,"_s":"221a6fecb8e55e51425c0c7fe3595859"}
{"_id":"createtube","value":"新しいチューブを作成します。","version":1}
{"k":"0000000088","o":"0000000057","v":"001"}
{"_id":"hom1-slbl","_uid":1,"_dt":1458161915093,"_s":"56338faf0a4d22dfd50eadb43c488f6c"}
{"_id":"hom1-slbl","value":"参照の検索","version":1}
{"k":"0000000088","o":"0000000057","v":"001"}
{"_id":"advsearch","_uid":1,"_dt":1458161915093,"_s":"e537ebde28085e3afa603908d4390273"}
{"_id":"advsearch","value":"高度な検索","version":1}
{"k":"0000000089","o":"0000000064","v":"001"}
{"_id":"latestnews","_uid":1,"_dt":1458161915093,"_s":"97b98eb3b330926abfddc60e90904a93"}
{"_id":"latestnews","value":"最新のニュース","version":1}
{"k":"0000000085","o":"0000000045","v":"001"}
{"_id":"search","_uid":1,"_dt":1458161915098,"_s":"841c53e4130caf7d82079d94ce4893d0"}
{"_id":"search","value":"検索","version":1}
{"k":"0000000088","o":"0000000087","v":"001"}
{"_id":"hom1-albl","_uid":1,"_dt":1458161915098,"_s":"f01225ef3aa3c5d8d2764fd7b1979cdf"}
{"_id":"hom1-albl","value":"あなたの検索基準を追加します。","version":1}
{"k":"0000000091","o":"0000000057","v":"001"}
{"_id":"simplesearch","_uid":1,"_dt":1458161915098,"_s":"563b54f0db89d17b018d361ae46cb12b"}
{"_id":"simplesearch","value":"簡易検索","version":1}
{"k":"0000000082","o":"0000000081","v":"001"}
{"_id":"add","_uid":1,"_dt":1458161915098,"_s":"bac326ebc70345fedfcf3cd6cb0bcf46"}
{"_id":"add","value":"新しいフィールドを追加します。","version":1}
{"k":"0000000095","o":"0000000087","v":"001"}
{"_id":"news-tubeupdated","_uid":1,"_dt":1458161915098,"_s":"eb768821a1f89b936b6fca97be80897c"}
{"_id":"news-tubeupdated","value":"チューブ \\0 を更新します。","version":1}
{"k":"0000000090","o":"0000000146","v":"001"}
{"_id":"news-export","_uid":1,"_dt":1458161915098,"_s":"1ac4455914c5707cb908b7239f6d7714"}
{"_id":"news-export","value":"Xls ファイルにエクスポートし、グラフのビューアーに CSV を追加しました。","version":1}
{"k":"0000000093","o":"0000000078","v":"001"}
{"_id":"news-tubeadded","_uid":1,"_dt":1458161915098,"_s":"d199bb84a7224351179f1e748e9807e0"}
{"_id":"news-tubeadded","value":"新しいチューブ追加 \\0","version":1}
{"k":"0000000084","o":"0000000106","v":"001"}
{"_id":"news0","_uid":1,"_dt":1458161915098,"_s":"d37c30da864ff8cbf8314cb103289329"}
{"_id":"news0","value":"データベース作成、両あたり 2766年チューブつき。","version":1}
{"k":"0000000086","o":"0000000052","v":"001"}
{"_id":"welcome","_uid":1,"_dt":1458161915098,"_s":"ece3fa6f263ac78a9d728d39fcd6080e"}
{"_id":"welcome","value":"ようこそ","version":1}
{"k":"0000000085","o":"0000000054","v":"001"}
{"_id":"logout","_uid":1,"_dt":1458161915098,"_s":"b41294c1a06f8cd0f0a9eb5a5b06d09c"}
{"_id":"logout","value":"ログアウト","version":1}
{"k":"0000000084","o":"0000000050","v":"001"}
{"_id":"login","_uid":1,"_dt":1458161915098,"_s":"7c3dbd767948334b4708ff5faf1b0f90"}
{"_id":"login","value":"ログイン","version":1}
{"k":"0000000086","o":"0000000078","v":"001"}
{"_id":"ttyp-33","_uid":1,"_dt":1458390167953,"_s":"554742ead055304505feaf934651870b"}
{"_id":"ttyp-33","value":"ダブル ・ テトロード (対称)","version":1}
{"k":"0000000087","o":"0000000059","v":"001"}
{"_id":"filament","_uid":1,"_dt":1458390167953,"_s":"66a51c8bff74801140e413e27bb3b01e"}
{"_id":"filament","value":"フィラメント","version":1}
{"k":"0000000083","o":"0000000046","v":"001"}
{"_id":"base","_uid":1,"_dt":1458390167958,"_s":"52defe61c2b265639e6c607ec91749f5"}
{"_id":"base","value":"ベース","version":1}
{"k":"0000000085","o":"0000000052","v":"001"}
{"_id":"anode-","_uid":1,"_dt":1458390167958,"_s":"97f20489f32a89a96dd663b23f1d4346"}
{"_id":"anode-","value":"アノード:","version":1}
{"k":"0000000085","o":"0000000051","v":"001"}
{"_id":"pinout","_uid":1,"_dt":1458390167958,"_s":"2eb38e57c1c38b42aea17c93e3469204"}
{"_id":"pinout","value":"ピン配置","version":1}
{"k":"0000000085","o":"0000000054","v":"001"}
{"_id":"grid2-","_uid":1,"_dt":1458390167958,"_s":"e967c543e979732f6a8c58e08eab6c69"}
{"_id":"grid2-","value":"グリッド 2:","version":1}
{"k":"0000000084","o":"0000000045","v":"001"}
{"_id":"unit-","_uid":1,"_dt":1458390167958,"_s":"2dd557bac7c5f587b9836fcd70e821d7"}
{"_id":"unit-","value":"単位:","version":1}
{"k":"0000000085","o":"0000000053","v":"001"}
{"_id":"-unit1","_uid":1,"_dt":1458390167958,"_s":"5655b1b91aba86018946eea5177d364c"}
{"_id":"-unit1","value":"ユニット 1","version":1}
{"k":"0000000085","o":"0000000053","v":"001"}
{"_id":"-unit2","_uid":1,"_dt":1458390167958,"_s":"60f580c6ec074c3c23d822782cbb479c"}
{"_id":"-unit2","value":"ユニット 2","version":1}
{"k":"0000000085","o":"0000000053","v":"001"}
{"_id":"-unit3","_uid":1,"_dt":1458390167958,"_s":"79c264d657f83a3f1908a2a1f5aae46a"}
{"_id":"-unit3","value":"ユニット 3","version":1}
{"k":"0000000085","o":"0000000053","v":"001"}
{"_id":"-unit4","_uid":1,"_dt":1458390167958,"_s":"fd89b05dc9749ac536b8535e4375f0b8"}
{"_id":"-unit4","value":"ユニット 4","version":1}
{"k":"0000000084","o":"0000000077","v":"001"}
{"_id":"-view","_uid":1,"_dt":1458390167958,"_s":"50a1137ea94b1d55825411c657d19867"}
{"_id":"-view","value":"このチューブを表示します。","version":1}
{"k":"0000000083","o":"0000000055","v":"001"}
{"_id":"docs","_uid":1,"_dt":1458390167958,"_s":"5a737ffb4dd5587e6d0b9ac654255034"}
{"_id":"docs","value":"ドキュメント","version":1}
{"k":"0000000083","o":"0000000043","v":"001"}
{"_id":"more","_uid":1,"_dt":1458390167958,"_s":"78bad3865b510758ba057dee2ef276b2"}
{"_id":"more","value":"より","version":1}
{"k":"0000000088","o":"0000000057","v":"001"}
{"_id":"versionof","_uid":1,"_dt":1458390167958,"_s":"5b81866522ccf422d84b1f0becbc390e"}
{"_id":"versionof","value":"バージョン","version":1}
{"k":"0000000085","o":"0000000069","v":"001"}
{"_id":"log5-1","_uid":1,"_dt":1458390174958,"_s":"ba0131e67ca9c8a00d43cf319d5d5394"}
{"_id":"log5-1","value":"サービスへのログイン","version":1}
{"k":"0000000085","o":"0000000057","v":"001"}
{"_id":"signup","_uid":1,"_dt":1458390174958,"_s":"10cbd986bea3a871c58c5092856f4d50"}
{"_id":"signup","value":"サインアップ","version":1}
{"k":"0000000087","o":"0000000083","v":"001"}
{"_id":"resetpwd","_uid":1,"_dt":1458390174958,"_s":"55750e6b20423104f30719631b0bd31a"}
{"_id":"resetpwd","value":"パスワードをリセットします。","version":1}
{"k":"0000000087","o":"0000000098","v":"001"}
{"_id":"log5-uu2","_uid":1,"_dt":1458390174958,"_s":"6155fb5971041d7bff8aab67f80d5fe6"}
{"_id":"log5-uu2","value":"あなたのユーザー名を入力してください。","version":1}
{"k":"0000000087","o":"0000000056","v":"001"}
{"_id":"username","_uid":1,"_dt":1458390174958,"_s":"d715268a316d323ff2b7c80d5f8fe179"}
{"_id":"username","value":"ユーザー名","version":1}
{"k":"0000000087","o":"0000000105","v":"001"}
{"_id":"log5-ue2","_uid":1,"_dt":1458390174958,"_s":"f6b0262493e5e04c5bd5ed956626ce2e"}
{"_id":"log5-ue2","value":"あなたのメール アドレスを入力してください。","version":1}
{"k":"0000000084","o":"0000000053","v":"001"}
{"_id":"email","_uid":1,"_dt":1458390174958,"_s":"3e5d1cb933bfe9c27d451c46fc85a85d"}
{"_id":"email","value":"電子メール","version":1}
{"k":"0000000087","o":"0000000104","v":"001"}
{"_id":"log5-ul2","_uid":1,"_dt":1458390174958,"_s":"d9a0246981293afc0e3e6e3e733132e7"}
{"_id":"log5-ul2","value":"ログインまたは e メールを入力してください。","version":1}
{"k":"0000000087","o":"0000000074","v":"001"}
{"_id":"log5-ul3","_uid":1,"_dt":1458390174958,"_s":"12001225c4cb8bb763349fde668dca26"}
{"_id":"log5-ul3","value":"ログインまたは e メール","version":1}
{"k":"0000000087","o":"0000000098","v":"001"}
{"_id":"log5-up2","_uid":1,"_dt":1458390174958,"_s":"065a7b3b2539ea54cd66ff79db55a340"}
{"_id":"log5-up2","value":"あなたのパスワードを入力してください。","version":1}
{"k":"0000000082","o":"0000000051","v":"001"}
{"_id":"pwd","_uid":1,"_dt":1458390174958,"_s":"2e254501fb169d31c2246d443e57d640"}
{"_id":"pwd","value":"パスワード","version":1}
{"k":"0000000088","o":"0000000084","v":"001"}
{"_id":"log5-upc2","_uid":1,"_dt":1458390174958,"_s":"527ec65880ff1c4cac000b9df1052e9f"}
{"_id":"log5-upc2","value":"パスワードをご確認ください。","version":1}
{"k":"0000000088","o":"0000000066","v":"001"}
{"_id":"log5-upc3","_uid":1,"_dt":1458390174958,"_s":"69ee6adf017e29fb44a6685fff65f99e"}
{"_id":"log5-upc3","value":"パスワードの確認","version":1}
{"k":"0000000087","o":"0000000047","v":"001"}
{"_id":"register","_uid":1,"_dt":1458390174958,"_s":"3fa37b9a763187504b9af3222edf2dcc"}
{"_id":"register","value":"登録","version":1}
{"k":"0000000084","o":"0000000050","v":"001"}
{"_id":"reset","_uid":1,"_dt":1458390174958,"_s":"0765957e3e6afcc3913192b554d49ecb"}
{"_id":"reset","value":"リセット","version":1}
{"k":"0000000088","o":"0000000072","v":"001"}
{"_id":"forgotpwd","_uid":1,"_dt":1458390174958,"_s":"7396233f11a22afc216dc5f899cb5ae6"}
{"_id":"forgotpwd","value":"パスワードを忘れた方","version":1}
{"k":"0000000089","o":"0000000085","v":"001"}
{"_id":"log5-altlr","_uid":1,"_dt":1458390174958,"_s":"06796ff685dcea16df15287106c6317b"}
{"_id":"log5-altlr","value":"ログインまたは、登録します。","version":1}
{"k":"0000000093","o":"0000000096","v":"001"}
{"_id":"tt-createlocal","_uid":1,"_dt":1458390174958,"_s":"26ffa63b87f9bf83684e655f2ba9787b"}
{"_id":"tt-createlocal","value":"ローカル アカウントを作成します。","version":1}
{"k":"0000000084","o":"0000000050","v":"001"}
{"_id":"local","_uid":1,"_dt":1458390174958,"_s":"56c0ee08d61b2794c053b0ee4e78ad07"}
{"_id":"local","value":"ローカル","version":1}
{"k":"0000000091","o":"0000000090","v":"001"}
{"_id":"tt-logwlocal","_uid":1,"_dt":1458390174958,"_s":"8273694195a627c640219e86d837bb8c"}
{"_id":"tt-logwlocal","value":"ローカルのアカウントでログイン","version":1}
{"k":"0000000090","o":"0000000072","v":"001"}
{"_id":"tt-cwgoogle","_uid":1,"_dt":1458390174958,"_s":"5fcac17125f8a5e11c5b79e86916eeee"}
{"_id":"tt-cwgoogle","value":"Google と接続します。","version":1}
{"k":"0000000086","o":"0000000070","v":"001"}
{"_id":"tt-cwfb","_uid":1,"_dt":1458390174958,"_s":"26d45fd53bc2e34da7ba7fa91b8d23b6"}
{"_id":"tt-cwfb","value":"Facebook と接続します。","version":1}
{"k":"0000000091","o":"0000000078","v":"001"}
{"_id":"tt-cwtwitter","_uid":1,"_dt":1458390174958,"_s":"2ee037dd13e0efbc733262019145171e"}
{"_id":"tt-cwtwitter","value":"ツイッターでください。","version":1}
{"k":"0000000090","o":"0000000072","v":"001"}
{"_id":"tt-cwgithub","_uid":1,"_dt":1458390174958,"_s":"4e961865f44d81d8b06b12d069f97edf"}
{"_id":"tt-cwgithub","value":"Github と接続します。","version":1}
{"k":"0000000091","o":"0000000108","v":"001"}
{"_id":"msg-wrongpwd","_uid":1,"_dt":1458390177778,"_s":"92cf83441e59438fac1f7688487675da"}
{"_id":"msg-wrongpwd","value":"ユーザーまたはパスワードが間違っています。","version":1}
{"k":"0000000096","o":"0000000129","v":"001"}
{"_id":"msg-loginattemtps","_uid":1,"_dt":1458390188473,"_s":"a29a265c227c4757a48a136ae2efc91f"}
{"_id":"msg-loginattemtps","value":"ログイン成功。\\0 の試みの接続は、前に失敗しています。","version":1}
{"k":"0000000088","o":"0000000159","v":"001"}
{"_id":"msg-leave","_uid":1,"_dt":1458390190778,"_s":"c72be49744eb458069193d234381e948"}
{"_id":"msg-leave","value":"あなたのデータが保存されている、今するおくと、あなたのすべての変更を緩めます。","version":1}
{"k":"0000000090","o":"0000000068","v":"001"}
{"_id":"msg-mandfld","_uid":1,"_dt":1458390190778,"_s":"660a5f9108a4006e731bbf0e621f103c"}
{"_id":"msg-mandfld","value":"フィールドは必須","version":1}
{"k":"0000000092","o":"0000000058","v":"001"}
{"_id":"nothingtosave","_uid":1,"_dt":1458390190778,"_s":"13cbbe2fe17763572c38336159cbc406"}
{"_id":"nothingtosave","value":"何も保存","version":1}
{"k":"0000000086","o":"0000000067","v":"001"}
{"_id":"savemod","_uid":1,"_dt":1458390190778,"_s":"741a1984e536c42ca3760d78bef1fad3"}
{"_id":"savemod","value":"変更を保存します。","version":1}
{"k":"0000000087","o":"0000000162","v":"001"}
{"_id":"tde8-mii","_uid":1,"_dt":1458390190778,"_s":"c308a12c23dc4f253da0aee152633165"}
{"_id":"tde8-mii","value":"グローバル データベースにマージされます。保存する前に変更を慎重にご確認ください。","version":1}
{"k":"0000000086","o":"0000000046","v":"001"}
{"_id":"tde8-T1","_uid":1,"_dt":1458390190783,"_s":"5e13dc54a4174a9c0f8746b3edaf571c"}
{"_id":"tde8-T1","value":"特性","version":1}
{"k":"0000000084","o":"0000000045","v":"001"}
{"_id":"name-","_uid":1,"_dt":1458390190783,"_s":"b9e8b5fc999e94a7470be400fd023ab7"}
{"_id":"name-","value":"名前:","version":1}
{"k":"0000000084","o":"0000000048","v":"001"}
{"_id":"type-","_uid":1,"_dt":1458390190783,"_s":"6bc571349fe08a91187d2e2ad04e587c"}
{"_id":"type-","value":"タイプ:","version":1}
{"k":"0000000086","o":"0000000052","v":"001"}
{"_id":"loading","_uid":1,"_dt":1458390190783,"_s":"f622cf2099cdfeee620746e40af650d3"}
{"_id":"loading","value":"読み込み","version":1}
{"k":"0000000082","o":"0000000061","v":"001"}
{"_id":"vh-","_uid":1,"_dt":1458390190783,"_s":"9e7e9e4c644e289ed90245f7df5bc11b"}
{"_id":"vh-","value":"フィラメント電圧:","version":1}
{"k":"0000000080","o":"0000000043","v":"001"}
{"_id":"V","_uid":1,"_dt":1458390190783,"_s":"45d1b1f305a4d71902c40b1b2937a728"}
{"_id":"V","value":"ボルト","version":1}
{"k":"0000000082","o":"0000000061","v":"001"}
{"_id":"ih-","_uid":1,"_dt":1458390190783,"_s":"2c830327bc046b4edf2c16a1f11029a3"}
{"_id":"ih-","value":"フィラメント電流:","version":1}
{"k":"0000000080","o":"0000000046","v":"001"}
{"_id":"A","_uid":1,"_dt":1458390190783,"_s":"d1b91e5cf1893d08ce4343fbd6f62d62"}
{"_id":"A","value":"アンペア","version":1}
{"k":"0000000086","o":"0000000068","v":"001"}
{"_id":"tde8-dh","_uid":1,"_dt":1458390190783,"_s":"21176aef121e513ddc54215c3e083bd8"}
{"_id":"tde8-dh","value":"ダブル フィラメント","version":1}
{"k":"0000000084","o":"0000000045","v":"001"}
{"_id":"note-","_uid":1,"_dt":1458390190783,"_s":"f5c0796a6b6ff26f3afc08c8b8631cbb"}
{"_id":"note-","value":"メモ:","version":1}
{"k":"0000000086","o":"0000000052","v":"001"}
{"_id":"tde8-T2","_uid":1,"_dt":1458390190783,"_s":"2802cb667e57933ccef55642c3b0120f"}
{"_id":"tde8-T2","value":"最大定格","version":1}
{"k":"0000000083","o":"0000000049","v":"001"}
{"_id":"unit","_uid":1,"_dt":1458390190783,"_s":"b5e3bfebf30d94fc9bd466623e0bc409"}
{"_id":"unit","value":"ユニット","version":1}
{"k":"0000000090","o":"0000000119","v":"001"}
{"_id":"tde8-notype","_uid":1,"_dt":1458390190783,"_s":"a2980b16ecf2369cc74d440b1dc676f6"}
{"_id":"tde8-notype","value":"最大定格を入力する前にチューブの種類を選択します。","version":1}
{"k":"0000000085","o":"0000000058","v":"001"}
{"_id":"vamax-","_uid":1,"_dt":1458390190783,"_s":"18536881e59ce663351155a58b2bd74d"}
{"_id":"vamax-","value":"最大陽極電圧:","version":1}
{"k":"0000000084","o":"0000000048","v":"001"}
{"_id":"peak-","_uid":1,"_dt":1458390190783,"_s":"7398ac47c4574e97622ba50ac4954bcb"}
{"_id":"peak-","value":"ピーク:","version":1}
{"k":"0000000088","o":"0000000055","v":"001"}
{"_id":"maxpower-","_uid":1,"_dt":1458390190783,"_s":"449e20b951306c01d550eb2274d4da67"}
{"_id":"maxpower-","value":"最大電力:","version":1}
{"k":"0000000080","o":"0000000043","v":"001"}
{"_id":"W","_uid":1,"_dt":1458390190783,"_s":"c6ddbdd4bf159ccab7ea524556c1a675"}
{"_id":"W","value":"ワット","version":1}
{"k":"0000000086","o":"0000000071","v":"001"}
{"_id":"vg2max-","_uid":1,"_dt":1458390190783,"_s":"2a0f0f5be7a1cc123b7ce0227f883821"}
{"_id":"vg2max-","value":"最大グリッド 2 の電圧:","version":1}
{"k":"0000000086","o":"0000000068","v":"001"}
{"_id":"ig2max-","_uid":1,"_dt":1458390190783,"_s":"43f64cfe3b5b0acda3eb3bf09cd2ce9e"}
{"_id":"ig2max-","value":"最大グリッド 2 電流:","version":1}
{"k":"0000000085","o":"0000000064","v":"001"}
{"_id":"ikmax-","_uid":1,"_dt":1458390190783,"_s":"11510783f8a0f0b5815ff4d710ca37e3"}
{"_id":"ikmax-","value":"最大カソード電流:","version":1}
{"k":"0000000087","o":"0000000072","v":"001"}
{"_id":"vg1nmax-","_uid":1,"_dt":1458390190783,"_s":"65dd21e8c40cd99efff31cb01e5439ec"}
{"_id":"vg1nmax-","value":"最大グリッド負 1 電圧:","version":1}
{"k":"0000000087","o":"0000000086","v":"001"}
{"_id":"vhknmax-","_uid":1,"_dt":1458390190783,"_s":"d5c2c39d834bb242f0e0b2bd7d73c886"}
{"_id":"vhknmax-","value":"最大ヒーター ・ カソード負電圧:","version":1}
{"k":"0000000088","o":"0000000048","v":"001"}
{"_id":"positive-","_uid":1,"_dt":1458390190783,"_s":"fc13ee3b71213843236fb5d5813c75ed"}
{"_id":"positive-","value":"正。","version":1}
{"k":"0000000086","o":"0000000068","v":"001"}
{"_id":"ig1max-","_uid":1,"_dt":1458390190783,"_s":"6a7b91831236582fd20ec58b3c9a4b40"}
{"_id":"ig1max-","value":"最大グリッド 1 電流:","version":1}
{"k":"0000000083","o":"0000000085","v":"001"}
{"_id":"cgk-","_uid":1,"_dt":1458390190783,"_s":"23b157af766b3772c7c121da181716cd"}
{"_id":"cgk-","value":"キャパシタンス グリッド-カソード:","version":1}
{"k":"0000000081","o":"0000000041","v":"001"}
{"_id":"pF","_uid":1,"_dt":1458390190783,"_s":"3c305e4bd31759d05bc5b1950f98abe5"}
{"_id":"pF","value":"ピコ","version":1}
{"k":"0000000081","o":"0000000064","v":"001"}
{"_id":"ga","_uid":1,"_dt":1458390190788,"_s":"299e4d893bf32907e046a58b674f16a7"}
{"_id":"ga","value":"グリッド ・ アノード","version":1}
{"k":"0000000083","o":"0000000063","v":"001"}
{"_id":"cak-","_uid":1,"_dt":1458390190788,"_s":"9f3553ede60d300bc4198387055d7809"}
{"_id":"cak-","value":"アノード-カソード:","version":1}
{"k":"0000000086","o":"0000000052","v":"001"}
{"_id":"tde8-T3","_uid":1,"_dt":1458390190788,"_s":"2e54f90fc86f063a180cbe4db3c0f292"}
{"_id":"tde8-T3","value":"ファイル","version":1}
{"k":"0000000086","o":"0000000127","v":"001"}
{"_id":"tde8-11","_uid":1,"_dt":1458390190788,"_s":"df813c04e16bde7b6c824a026ec8c3ee"}
{"_id":"tde8-11","value":"選択し、データシートにファイルをアップロードを参照します。","version":1}
{"k":"0000000096","o":"0000000110","v":"001"}
{"_id":"tde8-create-graph","_uid":1,"_dt":1458390190788,"_s":"97566db3eb7fa84e947b71c087496110"}
{"_id":"tde8-create-graph","value":"このチューブの新しいグラフを作成します。","version":1}
{"k":"0000000087","o":"0000000059","v":"001"}
{"_id":"download","_uid":1,"_dt":1458390190788,"_s":"8eb76de5bf5405040792c821d2902653"}
{"_id":"download","value":"ダウンロード","version":1}
{"k":"0000000086","o":"0000000085","v":"001"}
{"_id":"tde8-13","_uid":1,"_dt":1458390190788,"_s":"fc011ad9f3c01d0405ea4b18baf309ae"}
{"_id":"tde8-13","value":"アップロード、お待ちください。","version":1}
{"k":"0000000086","o":"0000000049","v":"001"}
{"_id":"tde8-T4","_uid":1,"_dt":1458390190788,"_s":"8f0ed9f1b6875e07e8e8aad3d9775098"}
{"_id":"tde8-T4","value":"使用例","version":1}
{"k":"0000000093","o":"0000000086","v":"001"}
{"_id":"tde8-new-usage","_uid":1,"_dt":1458390190788,"_s":"8522df33ddd48bc9c7901c7c97355941"}
{"_id":"tde8-new-usage","value":"使用例を新規に作成します。","version":1}
{"k":"0000000083","o":"0000000043","v":"001"}
{"_id":"edit","_uid":1,"_dt":1458390190788,"_s":"3d776ee209a70f083f171fd4a2722e2f"}
{"_id":"edit","value":"編集","version":1}
{"k":"0000000085","o":"0000000044","v":"001"}
{"_id":"ttyp-1","_uid":1,"_dt":1458390191873,"_s":"cdae2b7a985001141f0cd56a30fe6858"}
{"_id":"ttyp-1","value":"5 極","version":1}
{"k":"0000000085","o":"0000000063","v":"001"}
{"_id":"ttyp-2","_uid":1,"_dt":1458390191873,"_s":"aa16f3ffa790f1d345aabb3fe20cc5d8"}
{"_id":"ttyp-2","value":"二重三極管 (対称)","version":1}
{"k":"0000000085","o":"0000000054","v":"001"}
{"_id":"ttyp-3","_uid":1,"_dt":1458390191873,"_s":"942884beb6c33adf94c82c71375d144d"}
{"_id":"ttyp-3","value":"二重三極管","version":1}
{"k":"0000000085","o":"0000000048","v":"001"}
{"_id":"ttyp-4","_uid":1,"_dt":1458390191873,"_s":"ae6093c75a82d5fe048946c361c9d7e8"}
{"_id":"ttyp-4","value":"三極管","version":1}
{"k":"0000000085","o":"0000000054","v":"001"}
{"_id":"ttyp-5","_uid":1,"_dt":1458390191873,"_s":"ef479517282935c5491e523dfbfda0b5"}
{"_id":"ttyp-5","value":"ダイオード","version":1}
{"k":"0000000085","o":"0000000051","v":"001"}
{"_id":"ttyp-6","_uid":1,"_dt":1458390191873,"_s":"9c6e3e2b682c5a3bc5bfb2608063888a"}
{"_id":"ttyp-6","value":"FW 整流器","version":1}
{"k":"0000000085","o":"0000000057","v":"001"}
{"_id":"ttyp-7","_uid":1,"_dt":1458390191873,"_s":"1c12955aecde059fa00e9e3a2fe0e74c"}
{"_id":"ttyp-7","value":"三極管・ 5 極","version":1}
{"k":"0000000085","o":"0000000046","v":"001"}
{"_id":"ttyp-8","_uid":1,"_dt":1458390191873,"_s":"a64fa9c3c83a059e3ad3d05548ad2d4b"}
{"_id":"ttyp-8","value":"Heptode","version":1}
{"k":"0000000085","o":"0000000069","v":"001"}
{"_id":"ttyp-9","_uid":1,"_dt":1458390191873,"_s":"3ef8d4e875005c6fdd7fdb64a7ca9680"}
{"_id":"ttyp-9","value":"二重ダイオード (対称)","version":1}
{"k":"0000000086","o":"0000000061","v":"001"}
{"_id":"ttyp-10","_uid":1,"_dt":1458390191873,"_s":"38efb16a1be374f25c0c248fbab988c2"}
{"_id":"ttyp-10","value":"二重ダイオード","version":1}
{"k":"0000000086","o":"0000000073","v":"001"}
{"_id":"ttyp-11","_uid":1,"_dt":1458390191873,"_s":"287043380a597760b57d1c25485e0251"}
{"_id":"ttyp-11","value":"二重ダイオード - 三極管","version":1}
{"k":"0000000086","o":"0000000080","v":"001"}
{"_id":"ttyp-12","_uid":1,"_dt":1458390191873,"_s":"5dfb6c9657f5eb9a2757e053332f42e9"}
{"_id":"ttyp-12","value":"チューニング インジケーター","version":1}
{"k":"0000000086","o":"0000000073","v":"001"}
{"_id":"ttyp-13","_uid":1,"_dt":1458390191873,"_s":"45af5867745df83b7f35be3bd0db4d1a"}
{"_id":"ttyp-13","value":"三極管の二重ダイオード","version":1}
{"k":"0000000086","o":"0000000064","v":"001"}
{"_id":"ttyp-14","_uid":1,"_dt":1458390191873,"_s":"50b239dda6f782ace3281f4a3fabd49a"}
{"_id":"ttyp-14","value":"ダブル 5 極 (対称)","version":1}
{"k":"0000000086","o":"0000000055","v":"001"}
{"_id":"ttyp-15","_uid":1,"_dt":1458390191873,"_s":"69dd64985d47d63c7b96096bd1532af1"}
{"_id":"ttyp-15","value":"ダブル 5 極","version":1}
{"k":"0000000086","o":"0000000069","v":"001"}
{"_id":"ttyp-16","_uid":1,"_dt":1458390191873,"_s":"36f2dd3455c359a4fac98d0409783c49"}
{"_id":"ttyp-16","value":"二重ダイオード - 5 極","version":1}
{"k":"0000000086","o":"0000000063","v":"001"}
{"_id":"ttyp-17","_uid":1,"_dt":1458390191878,"_s":"faeb7530f96b4a7c240c037324fd0268"}
{"_id":"ttyp-17","value":"ダイオード - 5 極","version":1}
{"k":"0000000086","o":"0000000084","v":"001"}
{"_id":"ttyp-18","_uid":1,"_dt":1458390191878,"_s":"c89f6bd8f097e60290e52f732f498e72"}
{"_id":"ttyp-18","value":"二重三極管 (コモン ・ カソード)","version":1}
{"k":"0000000086","o":"0000000059","v":"001"}
{"_id":"ttyp-19","_uid":1,"_dt":1458390191878,"_s":"48c443c5204ab9852aa68b4c343ed605"}
{"_id":"ttyp-19","value":"三極管 - Heptode","version":1}
{"k":"0000000086","o":"0000000071","v":"001"}
{"_id":"ttyp-20","_uid":1,"_dt":1458390191878,"_s":"6aea27c7285c79e390b604f0c9bdbb37"}
{"_id":"ttyp-20","value":"三極管 - ・ テトロード","version":1}
{"k":"0000000086","o":"0000000076","v":"001"}
{"_id":"ttyp-21","_uid":1,"_dt":1458390191878,"_s":"46bdebd17e83b852d1214b53404c58c5"}
{"_id":"ttyp-21","value":"三極管ダイオード - 三極管","version":1}
{"k":"0000000086","o":"0000000067","v":"001"}
{"_id":"ttyp-22","_uid":1,"_dt":1458390191878,"_s":"0f6968b666bd9c3b727a35f1c72d4e3c"}
{"_id":"ttyp-22","value":"ダイオード - 三極管","version":1}
{"k":"0000000086","o":"0000000069","v":"001"}
{"_id":"ttyp-23","_uid":1,"_dt":1458390191878,"_s":"882b866a6741d85612cee514f0975b34"}
{"_id":"ttyp-23","value":"ビーム ・ テトロード","version":1}
{"k":"0000000086","o":"0000000084","v":"001"}
{"_id":"ttyp-24","_uid":1,"_dt":1458390191878,"_s":"8f6c3cbe8d8452bf968dac31c9174c63"}
{"_id":"ttyp-24","value":"ダブル 5 極 (コモン ・ カソード)","version":1}
{"k":"0000000086","o":"0000000084","v":"001"}
{"_id":"ttyp-25","_uid":1,"_dt":1458390191878,"_s":"a01bbda031825f0b663233acf78e258e"}
{"_id":"ttyp-25","value":"二重ビーム ・ テトロード (対称)","version":1}
{"k":"0000000086","o":"0000000075","v":"001"}
{"_id":"ttyp-26","_uid":1,"_dt":1458390191878,"_s":"f34024dcf052347b10bc16fc0869f683"}
{"_id":"ttyp-26","value":"二重ビーム ・ テトロード","version":1}
{"k":"0000000086","o":"0000000073","v":"001"}
{"_id":"ttyp-27","_uid":1,"_dt":1458390191878,"_s":"3a889d2ad4346c6878face1ecf849848"}
{"_id":"ttyp-27","value":"三極管をビームします。","version":1}
{"k":"0000000086","o":"0000000058","v":"001"}
{"_id":"ttyp-28","_uid":1,"_dt":1458390191878,"_s":"38bb4358925b31b1397ce1bf1d109782"}
{"_id":"ttyp-28","value":"サイラトロン","version":1}
{"k":"0000000086","o":"0000000059","v":"001"}
{"_id":"ttyp-29","_uid":1,"_dt":1458390191878,"_s":"592050feb164dce1f8be7d0589fe993b"}
{"_id":"ttyp-29","value":"・ テトロード","version":1}
{"k":"0000000086","o":"0000000052","v":"001"}
{"_id":"ttyp-30","_uid":1,"_dt":1458390191878,"_s":"4b59ae2dc38026a36a30ff6c677496ee"}
{"_id":"ttyp-30","value":"二重 5 極","version":1}
{"k":"0000000086","o":"0000000070","v":"001"}
{"_id":"ttyp-31","_uid":1,"_dt":1458390191878,"_s":"bb3f58a42846c29d5147a24e98ea5068"}
{"_id":"ttyp-31","value":"トリプル三極管 (同一)","version":1}
{"k":"0000000086","o":"0000000061","v":"001"}
{"_id":"ttyp-32","_uid":1,"_dt":1458390191878,"_s":"619939b9ed5bb3c523efb3d550eb70ef"}
{"_id":"ttyp-32","value":"トリプル三極管","version":1}
{"k":"0000000086","o":"0000000069","v":"001"}
{"_id":"ttyp-34","_uid":1,"_dt":1458390191878,"_s":"180569a015ff0f3c373dc2d5f2a9831d"}
{"_id":"ttyp-34","value":"ダブル ・ テトロード","version":1}
{"k":"0000000086","o":"0000000076","v":"001"}
{"_id":"ttyp-35","_uid":1,"_dt":1458390191878,"_s":"d4c3feeb5df4d4a9bbba4ebd50941c70"}
{"_id":"ttyp-35","value":"ダイオード - 三極管・ 5 極","version":1}
{"k":"0000000086","o":"0000000083","v":"001"}
{"_id":"ttyp-36","_uid":1,"_dt":1458390191878,"_s":"ece5579c6da67037d9c788c5a226fcf5"}
{"_id":"ttyp-36","value":"二重ダイオード - ・ テトロード","version":1}
{"k":"0000000086","o":"0000000077","v":"001"}
{"_id":"ttyp-37","_uid":1,"_dt":1458390191878,"_s":"fecf787ee785ac81d1ae7e4b73cd1e86"}
{"_id":"ttyp-37","value":"トリプル ダイオード (同一)","version":1}
{"k":"0000000086","o":"0000000068","v":"001"}
{"_id":"ttyp-38","_uid":1,"_dt":1458390191883,"_s":"8c9839692f13fdec56fff8c52dd9ad1c"}
{"_id":"ttyp-38","value":"トリプル ダイオード","version":1}
{"k":"0000000086","o":"0000000069","v":"001"}
{"_id":"ttyp-39","_uid":1,"_dt":1458390191883,"_s":"646c03afd800648c851bebb205084960"}
{"_id":"ttyp-39","value":"二重ダイオード - 5 極","version":1}
{"k":"0000000086","o":"0000000079","v":"001"}
{"_id":"ttyp-40","_uid":1,"_dt":1458390191883,"_s":"76ab89ecb3ad28e85e858ae7263629d8"}
{"_id":"ttyp-40","value":"二重ダイオード - 二重三極管","version":1}
{"k":"0000000086","o":"0000000064","v":"001"}
{"_id":"ttyp-41","_uid":1,"_dt":1458390191883,"_s":"1b6e171b537adfba67c5bcf9c18680d7"}
{"_id":"ttyp-41","value":"二重三極管・ 5 極","version":1}
{"k":"0000000086","o":"0000000061","v":"001"}
{"_id":"ttyp-42","_uid":1,"_dt":1458390191883,"_s":"e06901e150b48913dd7dc95ae19b173a"}
{"_id":"ttyp-42","value":"二重陽極三極管","version":1}
{"k":"0000000086","o":"0000000052","v":"001"}
{"_id":"ttyp-43","_uid":1,"_dt":1458390191883,"_s":"f2b7dea897b59df1cdcaf6fa5aa1eade"}
{"_id":"ttyp-43","value":"光変調器","version":1}
{"k":"0000000088","o":"0000000054","v":"001"}
{"_id":"vw5-vamax","_uid":1,"_dt":1462392856549,"_s":"037bef3e2019c5241eb9e39933c6436d"}
{"_id":"vw5-vamax","value":"陽極電圧","version":1}
{"k":"0000000089","o":"0000000073","v":"001"}
{"_id":"vw5-vamaxp","_uid":1,"_dt":1462392856549,"_s":"c0ad5800fd4d0ea8994d667f5118ab90"}
{"_id":"vw5-vamaxp","value":"アノード電圧 (ピーク)","version":1}
{"k":"0000000088","o":"0000000060","v":"001"}
{"_id":"vw5-pamax","_uid":1,"_dt":1462392856554,"_s":"2f73d76bc283fb2b6a588266e9953720"}
{"_id":"vw5-pamax","value":"陽極電源最大","version":1}
{"k":"0000000089","o":"0000000063","v":"001"}
{"_id":"vw5-vg2max","_uid":1,"_dt":1462392856554,"_s":"fd11943ac8e055a8737322298d382448"}
{"_id":"vw5-vg2max","value":"2 グリッド電圧","version":1}
{"k":"0000000090","o":"0000000076","v":"001"}
{"_id":"vw5-vg2maxp","_uid":1,"_dt":1462392856554,"_s":"d528277e68b827dd6f1c3965a9e0d549"}
{"_id":"vw5-vg2maxp","value":"2 グリッド電圧 (ピーク)","version":1}
{"k":"0000000089","o":"0000000064","v":"001"}
{"_id":"vw5-ig2max","_uid":1,"_dt":1462392856554,"_s":"635884c7353cd4320059af3bb94fda2f"}
{"_id":"vw5-ig2max","value":"グリッド 2 現在","version":1}
{"k":"0000000090","o":"0000000076","v":"001"}
{"_id":"vw5-ig2maxp","_uid":1,"_dt":1462392856554,"_s":"b4053f5d0966a8ae297c478c137e71f6"}
{"_id":"vw5-ig2maxp","value":"2 グリッド電流 (ピーク)","version":1}
{"k":"0000000089","o":"0000000065","v":"001"}
{"_id":"vw5-pg2max","_uid":1,"_dt":1462392856554,"_s":"7be7dd8b0fe06dde4e6729bdd330055d"}
{"_id":"vw5-pg2max","value":"グリッド 2 力 max","version":1}
{"k":"0000000088","o":"0000000060","v":"001"}
{"_id":"vw5-ikmax","_uid":1,"_dt":1462392856554,"_s":"a0c28285f6fa06be229810d61c9f88eb"}
{"_id":"vw5-ikmax","value":"カソード電流","version":1}
{"k":"0000000089","o":"0000000073","v":"001"}
{"_id":"vw5-ikmaxp","_uid":1,"_dt":1462392856554,"_s":"27a9b838a4cf632f506098b2f4382e0c"}
{"_id":"vw5-ikmaxp","value":"カソード電流 (ピーク)","version":1}
{"k":"0000000090","o":"0000000068","v":"001"}
{"_id":"vw5-vg1nmax","_uid":1,"_dt":1462392856554,"_s":"5cf541a92d2cc5ff369a8367d4e4d5ee"}
{"_id":"vw5-vg1nmax","value":"グリッド 1 負電圧","version":1}
{"k":"0000000091","o":"0000000081","v":"001"}
{"_id":"vw5-vg1nmaxp","_uid":1,"_dt":1462392856554,"_s":"1227ef8188ff39859b272c546110822d"}
{"_id":"vw5-vg1nmaxp","value":"グリッド 1 負電圧 (ピーク)","version":1}
{"k":"0000000089","o":"0000000064","v":"001"}
{"_id":"vw5-ig1max","_uid":1,"_dt":1462392856554,"_s":"5ae3d81efd8ef22830d94d4107ca7b1d"}
{"_id":"vw5-ig1max","value":"グリッド 1 現在","version":1}
{"k":"0000000090","o":"0000000077","v":"001"}
{"_id":"vw5-ig1maxp","_uid":1,"_dt":1462392856554,"_s":"13d8ac74f4e923bca146b2048c520e05"}
{"_id":"vw5-ig1maxp","value":"グリッド 1 現在 (ピーク)","version":1}
{"k":"0000000090","o":"0000000088","v":"001"}
{"_id":"vw5-vhknmax","_uid":1,"_dt":1462392856554,"_s":"d040abbdda079891e3fe3abb19b237d8"}
{"_id":"vw5-vhknmax","value":"最大ヒーター ・ カソード負電圧","version":1}
{"k":"0000000090","o":"0000000088","v":"001"}
{"_id":"vw5-vhkpmax","_uid":1,"_dt":1462392856554,"_s":"5671d0d3f77dd27b9e699aa125a2fc2c"}
{"_id":"vw5-vhkpmax","value":"最大ヒーター ・ カソード正電圧","version":1}
{"k":"0000000086","o":"0000000076","v":"001"}
{"_id":"vw5-cgk","_uid":1,"_dt":1462392856554,"_s":"c239134b7bda55e859aca629e03c2f42"}
{"_id":"vw5-cgk","value":"グリッド 1 陰極の静電容量","version":1}
{"k":"0000000086","o":"0000000070","v":"001"}
{"_id":"vw5-cak","_uid":1,"_dt":1462392856554,"_s":"e92555a61dc580b33a0ae5658db68b65"}
{"_id":"vw5-cak","value":"陽極と陰極の静電容量","version":1}
{"k":"0000000086","o":"0000000067","v":"001"}
{"_id":"vw5-cga","_uid":1,"_dt":1462392856554,"_s":"1ea7855a4de8aee4f9b8b01cada59c79"}
{"_id":"vw5-cga","value":"グリッド 1 陽極容量","version":1}
{"k":"0000000087","o":"0000000047","v":"001"}
{"_id":"vw5-note","_uid":1,"_dt":1462392856554,"_s":"238746478561ee20c816ce39fa945666"}
{"_id":"vw5-note","value":"メモ","version":1}
{"k":"0000000087","o":"0000000053","v":"001"}
{"_id":"vw5-unit","_uid":1,"_dt":1462392856554,"_s":"ceffa31317a5e0a641dddf3afd915242"}
{"_id":"vw5-unit","value":"ユニット","version":1}
{"k":"0000000087","o":"0000000056","v":"001"}
{"_id":"vw5-mode","_uid":1,"_dt":1462392856554,"_s":"57254355f0c98592c53218b7c57e737a"}
{"_id":"vw5-mode","value":"接続モード","version":1}
{"k":"0000000085","o":"0000000051","v":"001"}
{"_id":"vw5-va","_uid":1,"_dt":1462392856559,"_s":"29e7f57c0c93b34344a70352d65b1471"}
{"_id":"vw5-va","value":"陽極電圧","version":1}
{"k":"0000000089","o":"0000000067","v":"001"}
{"_id":"vw5-iazero","_uid":1,"_dt":1462392856559,"_s":"ee80373cc81c7712572e3ebb2f96c819"}
{"_id":"vw5-iazero","value":"アノード電流ゼロ","version":1}
{"k":"0000000087","o":"0000000065","v":"001"}
{"_id":"vw5-load","_uid":1,"_dt":1462392856559,"_s":"4726309e254e57475392dcbdb5306eed"}
{"_id":"vw5-load","value":"アノード負荷抵抗","version":1}
{"k":"0000000088","o":"0000000066","v":"001"}
{"_id":"vw5-vinpp","_uid":1,"_dt":1462392856559,"_s":"55058df9a6b6f8ab307b96f56cf18952"}
{"_id":"vw5-vinpp","value":"入力電圧 (ピーク)","version":1}
{"k":"0000000084","o":"0000000050","v":"001"}
{"_id":"noinf","_uid":1,"_dt":1462392856559,"_s":"dc483b5090c4abd64785617c9b5fd710"}
{"_id":"noinf","value":"ない情報","version":1}
{"k":"0000000086","o":"0000000058","v":"001"}
{"_id":"genchar","_uid":1,"_dt":1462392856559,"_s":"39d9263cc053f484e1b2574def07fb94"}
{"_id":"genchar","value":"一般的な特徴","version":1}
{"k":"0000000085","o":"0000000063","v":"001"}
{"_id":"vw5-vh","_uid":1,"_dt":1462392856559,"_s":"c994fe1b2088c2ff82095a002c82d2d2"}
{"_id":"vw5-vh","value":"フィラメント電圧","version":1}
{"k":"0000000085","o":"0000000063","v":"001"}
{"_id":"vw5-ih","_uid":1,"_dt":1462392856559,"_s":"1b2869323a792e6cd30006c084dbcb68"}
{"_id":"vw5-ih","value":"フィラメント電流","version":1}
{"k":"0000000081","o":"0000000044","v":"001"}
{"_id":"or","_uid":1,"_dt":1462392856559,"_s":"f3864068309afdd3e9d542dd658e4879"}
{"_id":"or","value":"または","version":1}
{"k":"0000000088","o":"0000000054","v":"001"}
{"_id":"pinoutcnx","_uid":1,"_dt":1462392856559,"_s":"b44a8446a90a4720c4a7a00fbf3490ee"}
{"_id":"pinoutcnx","value":"ピン接続","version":1}
{"k":"0000000085","o":"0000000051","v":"001"}
{"_id":"socket","_uid":1,"_dt":1462392856559,"_s":"5b8634cb6ed2155802c168c69b5fa544"}
{"_id":"socket","value":"ソケット","version":1}
{"k":"0000000089","o":"0000000055","v":"001"}
{"_id":"maxratings","_uid":1,"_dt":1462392856559,"_s":"7ed0a8b2054bc2b0f6d615e920b14eaa"}
{"_id":"maxratings","value":"最大定格","version":1}
{"k":"0000000087","o":"0000000050","v":"001"}
{"_id":"usageexs","_uid":1,"_dt":1462392856559,"_s":"a82be5675ae38d59e9d3dbc2936f250e"}
{"_id":"usageexs","value":"使用例","version":1}
{"k":"0000000088","o":"0000000102","v":"001"}
{"_id":"nousageex","_uid":1,"_dt":1462392856559,"_s":"a46459c74097d05b9719cc0cd8995246"}
{"_id":"nousageex","value":"使用例はこの管に接続されているないです。","version":1}
{"k":"0000000084","o":"0000000119","v":"001"}
{"_id":"nodoc","_uid":1,"_dt":1462392856559,"_s":"3c9ca31a06a3c67c1657cddf5d80ddb7"}
{"_id":"nodoc","value":"このチューブに接続されているドキュメントはありません。","version":1}
{"k":"0000000086","o":"0000000049","v":"001"}
{"_id":"usageex","_uid":1,"_dt":1462392856559,"_s":"337ee3bfffbdfeedb139980648bf8107"}
{"_id":"usageex","value":"使用例","version":1}
{"k":"0000000086","o":"0000000058","v":"001"}
{"_id":"display","_uid":1,"_dt":1462392856559,"_s":"d3d72a8fa8dcb6ae3f59827ac25f5e8a"}
{"_id":"display","value":"ディスプレイ","version":1}
{"k":"0000000087","o":"0000000053","v":"001"}
{"_id":"tc1-c-tt","_uid":1,"_dt":1462890936696,"_s":"cdefccd9ffaa7997396852c0be14650e"}
{"_id":"tc1-c-tt","value":"転送処遇","version":1}
{"k":"0000000087","o":"0000000063","v":"001"}
{"_id":"tc1-c-av","_uid":1,"_dt":1462890936711,"_s":"226f3a9318b455c9fdb14065e09430a1"}
{"_id":"tc1-c-av","value":"アノード電圧 (V)","version":1}
{"k":"0000000087","o":"0000000058","v":"001"}
{"_id":"tc1-c-ac","_uid":1,"_dt":1462890936711,"_s":"d2736ac2ee53994e7ce973ca040631f7"}
{"_id":"tc1-c-ac","value":"陽極電流 (mA)","version":1}
{"k":"0000000087","o":"0000000059","v":"001"}
{"_id":"tc1-c-wp","_uid":1,"_dt":1462890936711,"_s":"cd2dc90221efc284e520bbf9f06e2226"}
{"_id":"tc1-c-wp","value":"作業ポイント","version":1}
{"k":"0000000087","o":"0000000068","v":"001"}
{"_id":"vg10zero","_uid":1,"_dt":1462890936711,"_s":"3b196625273baf7ff9753a57747af6da"}
{"_id":"vg10zero","value":"ゼロでグリッド電圧","version":1}
{"k":"0000000083","o":"0000000054","v":"001"}
{"_id":"vapp","_uid":1,"_dt":1462890936711,"_s":"f498b392b28519a3d1b2ebdc6a92f91c"}
{"_id":"vapp","value":"出力電圧 (pp)","version":1}
{"k":"0000000083","o":"0000000059","v":"001"}
{"_id":"pmax","_uid":1,"_dt":1462890936711,"_s":"116e8e6ed381e1d35c9c5cd58e7085b2"}
{"_id":"pmax","value":"マックス パワー","version":1}
{"k":"0000000088","o":"0000000078","v":"001"}
{"_id":"transzero","_uid":1,"_dt":1462890936711,"_s":"67e6aaa46c7d4df290f205a515464c7c"}
{"_id":"transzero","value":"ゼロの相互コンダクタンス","version":1}
{"k":"0000000083","o":"0000000046","v":"001"}
{"_id":"gain","_uid":1,"_dt":1462890936711,"_s":"a47fdde0118d8d0f02982201de9f7e62"}
{"_id":"gain","value":"ゲイン","version":1}
{"k":"0000000085","o":"0000000056","v":"001"}
{"_id":"rizero","_uid":1,"_dt":1462890936711,"_s":"7d469f5c3e196982ae62a5b6452528a1"}
{"_id":"rizero","value":"0 で内部抵抗","version":1}
