{"k":"0000000089","o":"0000000066","v":"001"}
{"_id":"hom1-ddlg0","_uid":1,"_dt":1458161921778,"_s":"a39d2a9f13ae5c1a1cbee715b3190c0e"}
{"_id":"hom1-ddlg0","value":"¿Borrar datos de tubo?","version":1}
{"k":"0000000089","o":"0000000134","v":"001"}
{"_id":"hom1-ddlg1","_uid":1,"_dt":1458161921778,"_s":"326ad95a0b8533019ffceb7be44bd920"}
{"_id":"hom1-ddlg1","value":"&#13; &#10; ¿Está seguro que desea eliminar la versión de este tubo? &#13; &#10;        ","version":1}
{"k":"0000000089","o":"0000000199","v":"001"}
{"_id":"hom1-ddlg2","_uid":1,"_dt":1458161921778,"_s":"7cc26e6ffc7370990afbb7b46ff61702"}
{"_id":"hom1-ddlg2","value":"&#13; &#10; Ten en cuenta que si existe una versión pública de este tubo, obtendrá la versión pública sobre tus futuras búsquedas. &#13; &#10;        ","version":1}
{"k":"0000000085","o":"0000000047","v":"001"}
{"_id":"delete","_uid":1,"_dt":1458161921778,"_s":"bf59bfecbaafbfdc0a644ab71b91ab47"}
{"_id":"delete","value":"Eliminar","version":1}
{"k":"0000000085","o":"0000000047","v":"001"}
{"_id":"cancel","_uid":1,"_dt":1458161921778,"_s":"57964b3b1f01a789dfe0913c6311ebdd"}
{"_id":"cancel","value":"Cancelar","version":1}
{"k":"0000000092","o":"0000000091","v":"001"}
{"_id":"hom1-seltitle","_uid":1,"_dt":1458161921778,"_s":"f59cb450819864ffaf93413e1183ea2e"}
{"_id":"hom1-seltitle","value":"Lista de los documentos adjuntos a este tubo:","version":1}
{"k":"0000000083","o":"0000000049","v":"001"}
{"_id":"info","_uid":1,"_dt":1458161921778,"_s":"5b4be705f39df7942dc1e6e28739800f"}
{"_id":"info","value":"información","version":1}
{"k":"0000000084","o":"0000000044","v":"001"}
{"_id":"close","_uid":1,"_dt":1458161921778,"_s":"86bc0e5467e1fdf136ea53530b1018f3"}
{"_id":"close","value":"Cerrar","version":1}
{"k":"0000000086","o":"0000000051","v":"001"}
{"_id":"warning","_uid":1,"_dt":1458161921778,"_s":"11212b40ceee39b72e6dbd70f977c4e4"}
{"_id":"warning","value":"ADVERTENCIA","version":1}
{"k":"0000000084","o":"0000000043","v":"001"}
{"_id":"error","_uid":1,"_dt":1458161921778,"_s":"371a33cdb1d3ac7b59606a7d05e7d571"}
{"_id":"error","value":"error","version":1}
{"k":"0000000088","o":"0000000058","v":"001"}
{"_id":"hom1-edit","_uid":1,"_dt":1458161921778,"_s":"b9d0836edb3b08632a762a926be86b46"}
{"_id":"hom1-edit","value":"Editar este tubo","version":1}
{"k":"0000000091","o":"0000000087","v":"001"}
{"_id":"hom1-ucreate","_uid":1,"_dt":1458161921778,"_s":"d6499d1fe9cc24c51d305b6470ed79e5"}
{"_id":"hom1-ucreate","value":"Crear un nuevo ejemplo de uso de este tubo","version":1}
{"k":"0000000091","o":"0000000083","v":"001"}
{"_id":"hom1-gcreate","_uid":1,"_dt":1458161921783,"_s":"5c9a1c16599a31372f1f656df003c1be"}
{"_id":"hom1-gcreate","value":"Crear un nuevo gráfico para este tubo","version":1}
{"k":"0000000093","o":"0000000078","v":"001"}
{"_id":"hom1-attachdoc","_uid":1,"_dt":1458161921783,"_s":"8d7e1a329af53984793ae369d7063758"}
{"_id":"hom1-attachdoc","value":"Adjuntar documentos a este tubo","version":1}
{"k":"0000000090","o":"0000000088","v":"001"}
{"_id":"hom1-delete","_uid":1,"_dt":1458161921783,"_s":"205f76c3e40d1ed53072e22eecddd4bc"}
{"_id":"hom1-delete","value":"Eliminar la versión de usuario de este tubo","version":1}
{"k":"0000000092","o":"0000000062","v":"001"}
{"_id":"settingspanel","_uid":1,"_dt":1458161921783,"_s":"05d2537d60b56f0a106fc455c0829481"}
{"_id":"settingspanel","value":"Panel de ajustes","version":1}
{"k":"0000000089","o":"0000000062","v":"001"}
{"_id":"createtube","_uid":1,"_dt":1458161921783,"_s":"e19520e91c5b8304d4d5b22344dcc6af"}
{"_id":"createtube","value":"Crear un nuevo tubo","version":1}
{"k":"0000000088","o":"0000000069","v":"001"}
{"_id":"hom1-slbl","_uid":1,"_dt":1458161921783,"_s":"886e2cf3f0261eb71bb02860b8b5f3d9"}
{"_id":"hom1-slbl","value":"Búsqueda de una referencia","version":1}
{"k":"0000000088","o":"0000000060","v":"001"}
{"_id":"advsearch","_uid":1,"_dt":1458161921783,"_s":"02aa9094c95afabfbf6e420536118b6f"}
{"_id":"advsearch","value":"Búsqueda avanzada","version":1}
{"k":"0000000089","o":"0000000060","v":"001"}
{"_id":"latestnews","_uid":1,"_dt":1458161921783,"_s":"fc0c21d99aa25997d386f036cc192856"}
{"_id":"latestnews","value":"Últimas noticias","version":1}
{"k":"0000000085","o":"0000000051","v":"001"}
{"_id":"search","_uid":1,"_dt":1458161921783,"_s":"17e4275db5f616bf7b269c29e16bd73f"}
{"_id":"search","value":"Búsqueda de","version":1}
{"k":"0000000088","o":"0000000076","v":"001"}
{"_id":"hom1-albl","_uid":1,"_dt":1458161921783,"_s":"ce4770b69f39545ae3de93581541416b"}
{"_id":"hom1-albl","value":"Añadir tus criterios de búsqueda","version":1}
{"k":"0000000091","o":"0000000061","v":"001"}
{"_id":"simplesearch","_uid":1,"_dt":1458161921783,"_s":"df87053f3434fbd1a661eb0cf4aef544"}
{"_id":"simplesearch","value":"Búsqueda simple","version":1}
{"k":"0000000082","o":"0000000058","v":"001"}
{"_id":"add","_uid":1,"_dt":1458161921783,"_s":"5c17de26c8951e528e92695fee2988e6"}
{"_id":"add","value":"Agregar un nuevo campo","version":1}
{"k":"0000000095","o":"0000000070","v":"001"}
{"_id":"news-tubeupdated","_uid":1,"_dt":1458161921783,"_s":"83e9766f792ef865dfcd9c4e9cdbc939"}
{"_id":"news-tubeupdated","value":"Tubo \\0 actualizado.","version":1}
{"k":"0000000090","o":"0000000100","v":"001"}
{"_id":"news-export","_uid":1,"_dt":1458161921788,"_s":"1f7be269f026fb39028a2f7ed298e472"}
{"_id":"news-export","value":"Exportar a XLS y CSV añade al visor para los gráficos.","version":1}
{"k":"0000000093","o":"0000000068","v":"001"}
{"_id":"news-tubeadded","_uid":1,"_dt":1458161921788,"_s":"b36f59f13de66430a791a687ba966cb7"}
{"_id":"news-tubeadded","value":"Nuevo tubo añade \\0","version":1}
{"k":"0000000084","o":"0000000083","v":"001"}
{"_id":"news0","_uid":1,"_dt":1458161921788,"_s":"3c19bf47dcbc0d78fb71eccbe97a5786"}
{"_id":"news0","value":"Base de datos creada, 2766 tubos disponibles.","version":1}
{"k":"0000000086","o":"0000000050","v":"001"}
{"_id":"welcome","_uid":1,"_dt":1458161921788,"_s":"e3a73683cc6b2787a94c308b7be1d56d"}
{"_id":"welcome","value":"Bienvenida","version":1}
{"k":"0000000085","o":"0000000056","v":"001"}
{"_id":"logout","_uid":1,"_dt":1458161921788,"_s":"ae3997f933e3f01fb8d414595606968d"}
{"_id":"logout","value":"Cierre de sesión","version":1}
{"k":"0000000084","o":"0000000055","v":"001"}
{"_id":"login","_uid":1,"_dt":1458161921788,"_s":"44b464ef7ab0002659bafea29f8df97d"}
{"_id":"login","value":"Inicio de sesión","version":1}
