{"k":"0000000081","o":"0000001055","v":"001"}
{"_id":2320,"_uid":1,"_dt":1461246014692,"_s":"4bf46632c309b2eb0316c85fa3e7a347"}
{"_id":2320,"_text":"KT88 ttype_2 tbase_8 tpins_18","name":"KT88","vh1":6.3,"ih1":1.6,"base":8,"type":2,"pinout":18,"notes":"","documents":[{"_id":"972de890-f66b-11e5-919d-65e43b59d400","filename":"KT88.pdf","description":"KT88"},{"_id":"9e62b230-f66b-11e5-919d-65e43b59d400","filename":"KT88_VG2_300V.png","description":"KT88_VG2_300V"},{"_id":"b7bbfec0-f66c-11e5-919d-65e43b59d400","filename":"kt88_vg2_300v_2.tds","description":"KT88_VG2_300V_2"}],"usages":[{"_id":"f85cbc10-0631-11e6-bb22-1b10a22856d1","name":"Push-pull","unit":0,"mode":"pp","va":375,"iazero":104.53280318091453,"vinpp":39.26557165058573,"load":5000,"traces":"b7bbfec0-f66c-11e5-919d-65e43b59d400","zoom":{"minX":null,"maxX":null},"series":{}},{"name":"McP40","note":"Premier jet","unit":0,"mode":"pp","va":400,"iazero":85,"vinpp":43,"load":5000,"traces":"b7bbfec0-f66c-11e5-919d-65e43b59d400","zoom":{},"series":{"-20":true},"_id":"93d9c3a0-07c6-11e6-b7aa-6b1ca0088ada"}],"units":[{"vamax":800,"pamax":42,"vg2max":600,"pg2max":8,"ikmax":230,"cgk":16,"cak":12,"cga":1.2}],"dh":false}
{"k":"0000000081","o":"0000001055","v":"001"}
{"_id":2320,"_uid":1,"_dt":1461590691542,"_s":"1ff322fb922d970469b42a30a17f9a32"}
{"_id":2320,"_text":"KT88 ttype_2 tbase_8 tpins_18","name":"KT88","vh1":6.3,"ih1":1.6,"base":8,"type":2,"pinout":18,"notes":"","documents":[{"_id":"972de890-f66b-11e5-919d-65e43b59d400","filename":"KT88.pdf","description":"KT88"},{"_id":"9e62b230-f66b-11e5-919d-65e43b59d400","filename":"KT88_VG2_300V.png","description":"KT88_VG2_300V"},{"_id":"b7bbfec0-f66c-11e5-919d-65e43b59d400","filename":"kt88_vg2_300v_2.tds","description":"KT88_VG2_300V_2"}],"usages":[{"_id":"f85cbc10-0631-11e6-bb22-1b10a22856d1","name":"Push-pull","unit":0,"mode":"pp","va":375,"iazero":104.53280318091453,"vinpp":39.26557165058573,"load":5000,"traces":"b7bbfec0-f66c-11e5-919d-65e43b59d400","zoom":{"minX":null,"maxX":null},"series":{}},{"_id":"93d9c3a0-07c6-11e6-b7aa-6b1ca0088ada","name":"McP40","note":"Premier jet","unit":0,"mode":"pp","va":400,"iazero":90,"vinpp":45,"load":6000,"traces":"b7bbfec0-f66c-11e5-919d-65e43b59d400","zoom":{},"series":{"-20":true}}],"units":[{"vamax":800,"pamax":42,"vg2max":600,"pg2max":8,"ikmax":230,"cgk":16,"cak":12,"cga":1.2}],"dh":false}
