{"k":"0000000078","o":"0000000052","v":"001"}
{"_id":2,"_uid":2,"_dt":1454323366798,"_s":"724b67da1ce8a89808259eda426759a2"}
{"id":"4D","name":"4D","_id":{"$wrap":"$oid","v":2}}
{"k":"0000000078","o":"0000000054","v":"001"}
{"_id":3,"_uid":3,"_dt":1454323366799,"_s":"e676a027ed9bbaf6da0675e2b96a9145"}
{"id":"9CV","name":"9CV","_id":{"$wrap":"$oid","v":3}}
{"k":"0000000078","o":"0000000056","v":"001"}
{"_id":4,"_uid":4,"_dt":1454323366800,"_s":"7c1e6c9c8c8373c2436302e226215aaa"}
{"id":"B5-3","name":"B5-3","_id":{"$wrap":"$oid","v":4}}
{"k":"0000000078","o":"0000000054","v":"001"}
{"_id":5,"_uid":5,"_dt":1454323366800,"_s":"74330c38eb675e9afa5b610daa3743b4"}
{"id":"6BT","name":"6BT","_id":{"$wrap":"$oid","v":5}}
{"k":"0000000078","o":"0000000054","v":"001"}
{"_id":6,"_uid":6,"_dt":1454323366800,"_s":"1b4b262ea485ea99fcba5862be8dc68f"}
{"id":"9HE","name":"9HE","_id":{"$wrap":"$oid","v":6}}
{"k":"0000000078","o":"0000000054","v":"001"}
{"_id":7,"_uid":7,"_dt":1454323366800,"_s":"9dfa90d05e5d23bbd52cd4e49f974ce4"}
{"id":"9QD","name":"9QD","_id":{"$wrap":"$oid","v":7}}
{"k":"0000000078","o":"0000000054","v":"001"}
{"_id":8,"_uid":8,"_dt":1454323366801,"_s":"e7d2ae3070edaf6ea8b8b2efaa1d6a8b"}
{"id":"9QZ","name":"9QZ","_id":{"$wrap":"$oid","v":8}}
{"k":"0000000078","o":"0000000054","v":"001"}
{"_id":9,"_uid":9,"_dt":1454323366801,"_s":"692ed5ec494cc9ad4ecec96a94f5160e"}
{"id":"9DX","name":"9DX","_id":{"$wrap":"$oid","v":9}}
{"k":"0000000080","o":"0000000053","v":"001"}
{"_id":10,"_uid":10,"_dt":1454323366801,"_s":"c7d9582a05246a53ac0c7df2a40fc1bb"}
{"id":"6R","name":"6R","_id":{"$wrap":"$oid","v":10}}
{"k":"0000000080","o":"0000000057","v":"001"}
{"_id":11,"_uid":11,"_dt":1454323366802,"_s":"8939980150860aafab4097f7d415086f"}
{"id":"12EZ","name":"12EZ","_id":{"$wrap":"$oid","v":11}}
{"k":"0000000080","o":"0000000055","v":"001"}
{"_id":12,"_uid":12,"_dt":1454323366802,"_s":"c28c8c22fa9f03f53217816ceccd0722"}
{"id":"8AO","name":"8AO","_id":{"$wrap":"$oid","v":12}}
{"k":"0000000080","o":"0000000055","v":"001"}
{"_id":13,"_uid":13,"_dt":1454323366803,"_s":"7b3202eab6bbbd98fe82d3ec96bbae83"}
{"id":"5AA","name":"5AA","_id":{"$wrap":"$oid","v":13}}
{"k":"0000000080","o":"0000000055","v":"001"}
{"_id":14,"_uid":14,"_dt":1454323366803,"_s":"a4a417a9307ae27f48ab3d933645fb72"}
{"id":"9EX","name":"9EX","_id":{"$wrap":"$oid","v":14}}
{"k":"0000000080","o":"0000000057","v":"001"}
{"_id":15,"_uid":15,"_dt":1454323366803,"_s":"3af6eee51d18fcd895d0a072198bfe70"}
{"id":"12DM","name":"12DM","_id":{"$wrap":"$oid","v":15}}
{"k":"0000000080","o":"0000000055","v":"001"}
{"_id":16,"_uid":16,"_dt":1454323366803,"_s":"fadf07c839d50ee8b4c0c414ddbf5681"}
{"id":"6AM","name":"6AM","_id":{"$wrap":"$oid","v":16}}
{"k":"0000000080","o":"0000000055","v":"001"}
{"_id":17,"_uid":17,"_dt":1454323366803,"_s":"ae026e3deebd4233761ebec9ace63b92"}
{"id":"10L","name":"10L","_id":{"$wrap":"$oid","v":17}}
{"k":"0000000080","o":"0000000055","v":"001"}
{"_id":18,"_uid":18,"_dt":1454323366804,"_s":"28b28c53b38808f3898387970fadc905"}
{"id":"7AC","name":"7AC","_id":{"$wrap":"$oid","v":18}}
{"k":"0000000080","o":"0000000055","v":"001"}
{"_id":19,"_uid":19,"_dt":1454323366804,"_s":"aed8756f07da5b802bdf3aea703a02ec"}
{"id":"9EU","name":"9EU","_id":{"$wrap":"$oid","v":19}}
{"k":"0000000080","o":"0000000057","v":"001"}
{"_id":20,"_uid":20,"_dt":1454323366808,"_s":"6db0e0515c2c8512c5ea3c2f548061c2"}
{"id":"12FE","name":"12FE","_id":{"$wrap":"$oid","v":20}}
{"k":"0000000080","o":"0000000055","v":"001"}
{"_id":21,"_uid":21,"_dt":1454323366810,"_s":"3bbca7d455eeccce28ef5f118f59b352"}
{"id":"7BK","name":"7BK","_id":{"$wrap":"$oid","v":21}}
{"k":"0000000080","o":"0000000053","v":"001"}
{"_id":22,"_uid":22,"_dt":1454323366813,"_s":"a8e9ccdb7e752539e7c8587098da8548"}
{"id":"9A","name":"9A","_id":{"$wrap":"$oid","v":22}}
{"k":"0000000080","o":"0000000055","v":"001"}
{"_id":23,"_uid":23,"_dt":1454323366814,"_s":"8714b562d38894a853e36bc3b2cad326"}
{"id":"7BT","name":"7BT","_id":{"$wrap":"$oid","v":23}}
{"k":"0000000080","o":"0000000055","v":"001"}
{"_id":24,"_uid":24,"_dt":1454323366814,"_s":"f44002260074e4af2c32aba4bc5072d6"}
{"id":"8BE","name":"8BE","_id":{"$wrap":"$oid","v":24}}
{"k":"0000000080","o":"0000000055","v":"001"}
{"_id":25,"_uid":25,"_dt":1454323366814,"_s":"9e358d73055caf3f87af32a133129bff"}
{"id":"7BZ","name":"7BZ","_id":{"$wrap":"$oid","v":25}}
{"k":"0000000080","o":"0000000055","v":"001"}
{"_id":26,"_uid":26,"_dt":1454323366815,"_s":"ec3f634686a49a611f6b804c3d6b8030"}
{"id":"7CV","name":"7CV","_id":{"$wrap":"$oid","v":26}}
{"k":"0000000080","o":"0000000055","v":"001"}
{"_id":27,"_uid":27,"_dt":1454323366815,"_s":"ae357b6a49b01567e571dd6e27e36496"}
{"id":"4CG","name":"4CG","_id":{"$wrap":"$oid","v":27}}
{"k":"0000000080","o":"0000000055","v":"001"}
{"_id":28,"_uid":28,"_dt":1454323366815,"_s":"0dba2ac81d5da2e7108ade4cf1c20f39"}
{"id":"9AG","name":"9AG","_id":{"$wrap":"$oid","v":28}}
{"k":"0000000080","o":"0000000055","v":"001"}
{"_id":29,"_uid":29,"_dt":1454323366815,"_s":"77e06f924b6696b05a5de7c3f8fc8288"}
{"id":"8CT","name":"8CT","_id":{"$wrap":"$oid","v":29}}
{"k":"0000000080","o":"0000000055","v":"001"}
{"_id":30,"_uid":30,"_dt":1454323366816,"_s":"839b7253cdd7b5d73e233113b2090575"}
{"id":"7CH","name":"7CH","_id":{"$wrap":"$oid","v":30}}
{"k":"0000000080","o":"0000000055","v":"001"}
{"_id":31,"_uid":31,"_dt":1454323366816,"_s":"c4f947de56108606f7838b0533efd86d"}
{"id":"9BF","name":"9BF","_id":{"$wrap":"$oid","v":31}}
{"k":"0000000080","o":"0000000055","v":"001"}
{"_id":32,"_uid":32,"_dt":1454323366816,"_s":"899120de75bbc128fd0f60880de456e5"}
{"id":"7CM","name":"7CM","_id":{"$wrap":"$oid","v":32}}
{"k":"0000000080","o":"0000000053","v":"001"}
{"_id":33,"_uid":33,"_dt":1454323366818,"_s":"8baf54d8e0f40c85eac20c0e321d95a3"}
{"id":"8E","name":"8E","_id":{"$wrap":"$oid","v":33}}
{"k":"0000000080","o":"0000000055","v":"001"}
{"_id":34,"_uid":34,"_dt":1454323366820,"_s":"02f9a08fb90da7833eaf308cfdd1d08b"}
{"id":"9CK","name":"9CK","_id":{"$wrap":"$oid","v":34}}
{"k":"0000000080","o":"0000000061","v":"001"}
{"_id":35,"_uid":35,"_dt":1454323366821,"_s":"9303a6c2f86cee299a25b21b599bce1c"}
{"id":"B9A-36","name":"B9A-36","_id":{"$wrap":"$oid","v":35}}
{"k":"0000000080","o":"0000000055","v":"001"}
{"_id":36,"_uid":36,"_dt":1454323366822,"_s":"3e49b4fb5d8c5156cd532f3fed5ca298"}
{"id":"9HR","name":"9HR","_id":{"$wrap":"$oid","v":36}}
{"k":"0000000080","o":"0000000055","v":"001"}
{"_id":37,"_uid":37,"_dt":1454323366822,"_s":"5bf675aaf5e7124dc2336918fb642a8d"}
{"id":"9DE","name":"9DE","_id":{"$wrap":"$oid","v":37}}
{"k":"0000000080","o":"0000000053","v":"001"}
{"_id":38,"_uid":38,"_dt":1454323366822,"_s":"b9a262d9fe0359201244fa9ced927568"}
{"id":"6Q","name":"6Q","_id":{"$wrap":"$oid","v":38}}
{"k":"0000000080","o":"0000000055","v":"001"}
{"_id":39,"_uid":39,"_dt":1454323366823,"_s":"6ea79e115ec1d0dc7ccbce83c4e44adc"}
{"id":"9LP","name":"9LP","_id":{"$wrap":"$oid","v":39}}
{"k":"0000000080","o":"0000000053","v":"001"}
{"_id":40,"_uid":40,"_dt":1454323366823,"_s":"bd76cfd932d769112bcfb06e6b0386af"}
{"id":"7R","name":"7R","_id":{"$wrap":"$oid","v":40}}
{"k":"0000000080","o":"0000000055","v":"001"}
{"_id":41,"_uid":41,"_dt":1454323366824,"_s":"fd4d16e6ae84105dabe3059ec19155ce"}
{"id":"9QL","name":"9QL","_id":{"$wrap":"$oid","v":41}}
{"k":"0000000080","o":"0000000055","v":"001"}
{"_id":42,"_uid":42,"_dt":1454323366824,"_s":"65bfe14b4ceb0be411c0e08ace6c5dd5"}
{"id":"7FD","name":"7FD","_id":{"$wrap":"$oid","v":42}}
{"k":"0000000080","o":"0000000053","v":"001"}
{"_id":43,"_uid":43,"_dt":1454323366825,"_s":"6a542a606bbfd6070182e1b45f3dac31"}
{"id":"7V","name":"7V","_id":{"$wrap":"$oid","v":43}}
{"k":"0000000080","o":"0000000053","v":"001"}
{"_id":44,"_uid":44,"_dt":1454323366825,"_s":"94044c8d38517f07da4b8171cfb2c7bd"}
{"id":"8R","name":"8R","_id":{"$wrap":"$oid","v":44}}
{"k":"0000000080","o":"0000000053","v":"001"}
{"_id":45,"_uid":45,"_dt":1454323366825,"_s":"89bfed4a44425e3722259324c515dd55"}
{"id":"8N","name":"8N","_id":{"$wrap":"$oid","v":45}}
{"k":"0000000080","o":"0000000055","v":"001"}
{"_id":46,"_uid":46,"_dt":1454323366825,"_s":"15f816df9f7781fcc7f6b48d43255cdd"}
{"id":"8BD","name":"8BD","_id":{"$wrap":"$oid","v":46}}
{"k":"0000000080","o":"0000000055","v":"001"}
{"_id":47,"_uid":47,"_dt":1454323366826,"_s":"206a92c4f66328a5bab3e0fe0f572f39"}
{"id":"5BS","name":"5BS","_id":{"$wrap":"$oid","v":47}}
{"k":"0000000080","o":"0000000059","v":"001"}
{"_id":48,"_uid":48,"_dt":1454323366826,"_s":"54fabfe83bde9eca0a644681effb3839"}
{"id":"B7A-2","name":"B7A-2","_id":{"$wrap":"$oid","v":48}}
{"k":"0000000080","o":"0000000057","v":"001"}
{"_id":49,"_uid":49,"_dt":1454323366826,"_s":"4bb5e24991bbba1c1e5c8aa79cbb2e45"}
{"id":"12EJ","name":"12EJ","_id":{"$wrap":"$oid","v":49}}
{"k":"0000000080","o":"0000000055","v":"001"}
{"_id":50,"_uid":50,"_dt":1454323366826,"_s":"d9222f4158eeca19fca9f15d105d6395"}
{"id":"9NH","name":"9NH","_id":{"$wrap":"$oid","v":50}}
{"k":"0000000080","o":"0000000057","v":"001"}
{"_id":51,"_uid":51,"_dt":1454323366827,"_s":"eeba9950dc98be768e3ad5ce820a9da5"}
{"id":"12DZ","name":"12DZ","_id":{"$wrap":"$oid","v":51}}
{"k":"0000000080","o":"0000000055","v":"001"}
{"_id":52,"_uid":52,"_dt":1454323366828,"_s":"ec60a131746e685f5f15ee9f9ea238d9"}
{"id":"8AC","name":"8AC","_id":{"$wrap":"$oid","v":52}}
{"k":"0000000080","o":"0000000053","v":"001"}
{"_id":53,"_uid":53,"_dt":1454323366828,"_s":"f304321241634b86fe4e3350ff547336"}
{"id":"8W","name":"8W","_id":{"$wrap":"$oid","v":53}}
{"k":"0000000080","o":"0000000057","v":"001"}
{"_id":54,"_uid":54,"_dt":1454323366828,"_s":"caca0cfbc2bf9e7fd8bb3bd492d0f193"}
{"id":"12GL","name":"12GL","_id":{"$wrap":"$oid","v":54}}
{"k":"0000000080","o":"0000000053","v":"001"}
{"_id":55,"_uid":55,"_dt":1454323366829,"_s":"ce8244f1b3aa7c4f26222e7ffca6400c"}
{"id":"8V","name":"8V","_id":{"$wrap":"$oid","v":55}}
{"k":"0000000080","o":"0000000055","v":"001"}
{"_id":56,"_uid":56,"_dt":1454323366829,"_s":"3e2de0017eaa04b7334f1ecdefafb850"}
{"id":"10N","name":"10N","_id":{"$wrap":"$oid","v":56}}
{"k":"0000000080","o":"0000000053","v":"001"}
{"_id":57,"_uid":57,"_dt":1454323366829,"_s":"cf24d8bb89bd028f242e8c8d56467693"}
{"id":"7T","name":"7T","_id":{"$wrap":"$oid","v":57}}
{"k":"0000000080","o":"0000000055","v":"001"}
{"_id":58,"_uid":58,"_dt":1454323366829,"_s":"58e1dd3ced99a2b33892b5a3d41bb9e5"}
{"id":"5AZ","name":"5AZ","_id":{"$wrap":"$oid","v":58}}
{"k":"0000000080","o":"0000000055","v":"001"}
{"_id":59,"_uid":59,"_dt":1454323366830,"_s":"24b14ee5260669cb1d02cdb116ef7a50"}
{"id":"9HP","name":"9HP","_id":{"$wrap":"$oid","v":59}}
{"k":"0000000080","o":"0000000055","v":"001"}
{"_id":60,"_uid":60,"_dt":1454323366830,"_s":"dfde22f9d23d065b7577dc431e6ef606"}
{"id":"9AJ","name":"9AJ","_id":{"$wrap":"$oid","v":60}}
{"k":"0000000080","o":"0000000055","v":"001"}
{"_id":61,"_uid":61,"_dt":1454323366830,"_s":"001226f433ab7ba25b6c03cc1c8e0248"}
{"id":"9QU","name":"9QU","_id":{"$wrap":"$oid","v":61}}
{"k":"0000000080","o":"0000000055","v":"001"}
{"_id":62,"_uid":62,"_dt":1454323366830,"_s":"0abb76d8ef0f2e69e11ed42500c56ac8"}
{"id":"9CB","name":"9CB","_id":{"$wrap":"$oid","v":62}}
{"k":"0000000080","o":"0000000055","v":"001"}
{"_id":63,"_uid":63,"_dt":1454323366830,"_s":"4bb88c08c76dd45efc271749e53fd02a"}
{"id":"7CC","name":"7CC","_id":{"$wrap":"$oid","v":63}}
{"k":"0000000080","o":"0000000055","v":"001"}
{"_id":64,"_uid":64,"_dt":1454323366831,"_s":"ec09c1d1926577de1aa9479f9a4a6249"}
{"id":"5BT","name":"5BT","_id":{"$wrap":"$oid","v":64}}
{"k":"0000000080","o":"0000000055","v":"001"}
{"_id":65,"_uid":65,"_dt":1454323366831,"_s":"3ea9692da2f9aa0d1af8d16c45c7bc2f"}
{"id":"9DB","name":"9DB","_id":{"$wrap":"$oid","v":65}}
{"k":"0000000080","o":"0000000055","v":"001"}
{"_id":66,"_uid":66,"_dt":1454323366832,"_s":"c79b9716a9aaebaf83a52eca2605a55d"}
{"id":"9FX","name":"9FX","_id":{"$wrap":"$oid","v":66}}
{"k":"0000000080","o":"0000000055","v":"001"}
{"_id":67,"_uid":67,"_dt":1454323366832,"_s":"16bf50a30332eb78c8412744947c85b1"}
{"id":"9AE","name":"9AE","_id":{"$wrap":"$oid","v":67}}
{"k":"0000000080","o":"0000000061","v":"001"}
{"_id":68,"_uid":68,"_dt":1454323366832,"_s":"e854087a8aeb430de0801b7a347622fa"}
{"id":"B9A-18","name":"B9A-18","_id":{"$wrap":"$oid","v":68}}
{"k":"0000000080","o":"0000000055","v":"001"}
{"_id":69,"_uid":69,"_dt":1454323366833,"_s":"f65af45f4380ebbadd3cdcac01122988"}
{"id":"5AP","name":"5AP","_id":{"$wrap":"$oid","v":69}}
{"k":"0000000080","o":"0000000053","v":"001"}
{"_id":70,"_uid":70,"_dt":1454323366833,"_s":"22e130cd8a5e1b34eac75b8aaab0d7e1"}
{"id":"4M","name":"4M","_id":{"$wrap":"$oid","v":70}}
{"k":"0000000080","o":"0000000053","v":"001"}
{"_id":71,"_uid":71,"_dt":1454323366833,"_s":"e451b5332b286efb3e8de8a8d5db6718"}
{"id":"4K","name":"4K","_id":{"$wrap":"$oid","v":71}}
{"k":"0000000080","o":"0000000053","v":"001"}
{"_id":72,"_uid":72,"_dt":1454323366834,"_s":"d45ab22fe7e88fa9c0f7b8febdccb178"}
{"id":"6X","name":"6X","_id":{"$wrap":"$oid","v":72}}
{"k":"0000000080","o":"0000000053","v":"001"}
{"_id":73,"_uid":73,"_dt":1454323366834,"_s":"ab32ba659463229182c79599306f692b"}
{"id":"6L","name":"6L","_id":{"$wrap":"$oid","v":73}}
{"k":"0000000080","o":"0000000053","v":"001"}
{"_id":74,"_uid":74,"_dt":1454323366834,"_s":"83f366277b2e8c5467a93753df02f7f8"}
{"id":"7Z","name":"7Z","_id":{"$wrap":"$oid","v":74}}
{"k":"0000000080","o":"0000000055","v":"001"}
{"_id":75,"_uid":75,"_dt":1454323366834,"_s":"52be8b9a5a860aa38ab21ff54b4155ff"}
{"id":"5BF","name":"5BF","_id":{"$wrap":"$oid","v":75}}
{"k":"0000000080","o":"0000000055","v":"001"}
{"_id":76,"_uid":76,"_dt":1454323366834,"_s":"f46345dcf4079d3b86d0dfdbd1164b69"}
{"id":"8CP","name":"8CP","_id":{"$wrap":"$oid","v":76}}
{"k":"0000000080","o":"0000000057","v":"001"}
{"_id":77,"_uid":77,"_dt":1454323366834,"_s":"cf7b85e0cb5b45a7f4e916e0c301934e"}
{"id":"12GV","name":"12GV","_id":{"$wrap":"$oid","v":77}}
{"k":"0000000080","o":"0000000055","v":"001"}
{"_id":78,"_uid":78,"_dt":1454323366835,"_s":"93b1497c805aa84ea2f15cc0c0201007"}
{"id":"6AR","name":"6AR","_id":{"$wrap":"$oid","v":78}}
{"k":"0000000080","o":"0000000055","v":"001"}
{"_id":79,"_uid":79,"_dt":1454323366835,"_s":"6c419171be8d5d46b3ab4a816b76d47e"}
{"id":"6AU","name":"6AU","_id":{"$wrap":"$oid","v":79}}
{"k":"0000000080","o":"0000000057","v":"001"}
{"_id":80,"_uid":80,"_dt":1454323366835,"_s":"5206c83d515443628b4faecdc429f30e"}
{"id":"12EL","name":"12EL","_id":{"$wrap":"$oid","v":80}}
{"k":"0000000080","o":"0000000055","v":"001"}
{"_id":81,"_uid":81,"_dt":1454323366837,"_s":"d994f2102a27c8cd28f38c4dbf08843d"}
{"id":"7AT","name":"7AT","_id":{"$wrap":"$oid","v":81}}
{"k":"0000000080","o":"0000000055","v":"001"}
{"_id":82,"_uid":82,"_dt":1454323366838,"_s":"ca36653f4e5338d2c03a06fa9a8522e8"}
{"id":"6BW","name":"6BW","_id":{"$wrap":"$oid","v":82}}
{"k":"0000000080","o":"0000000053","v":"001"}
{"_id":83,"_uid":83,"_dt":1454323366838,"_s":"20a5a0b19c465190bcf95d6d71289d69"}
{"id":"9U","name":"9U","_id":{"$wrap":"$oid","v":83}}
{"k":"0000000080","o":"0000000053","v":"001"}
{"_id":84,"_uid":84,"_dt":1454323366838,"_s":"1d370a61cacd07f20125b56585a94447"}
{"id":"3C","name":"3C","_id":{"$wrap":"$oid","v":84}}
{"k":"0000000080","o":"0000000053","v":"001"}
{"_id":85,"_uid":85,"_dt":1454323366838,"_s":"956004c88a688a11b5e56305c81094b8"}
{"id":"9Y","name":"9Y","_id":{"$wrap":"$oid","v":85}}
{"k":"0000000080","o":"0000000053","v":"001"}
{"_id":86,"_uid":86,"_dt":1454323366838,"_s":"a56fc7facc4d4bc6faa83ca0d429db71"}
{"id":"6M","name":"6M","_id":{"$wrap":"$oid","v":86}}
{"k":"0000000080","o":"0000000055","v":"001"}
{"_id":87,"_uid":87,"_dt":1454323366839,"_s":"c033bed0845190a8a0ca38e27ece0f0b"}
{"id":"8AW","name":"8AW","_id":{"$wrap":"$oid","v":87}}
{"k":"0000000080","o":"0000000055","v":"001"}
{"_id":88,"_uid":88,"_dt":1454323366839,"_s":"ebf49ddb11422da5d3d03f8b9f44e6d7"}
{"id":"9RG","name":"9RG","_id":{"$wrap":"$oid","v":88}}
{"k":"0000000080","o":"0000000057","v":"001"}
{"_id":89,"_uid":89,"_dt":1454323366839,"_s":"10dfab5a9971cd49a84be1b32c1fceed"}
{"id":"12HZ","name":"12HZ","_id":{"$wrap":"$oid","v":89}}
{"k":"0000000080","o":"0000000055","v":"001"}
{"_id":90,"_uid":90,"_dt":1454323366839,"_s":"2114de598f7fc569df9a292a8f4772c3"}
{"id":"5CF","name":"5CF","_id":{"$wrap":"$oid","v":90}}
{"k":"0000000080","o":"0000000055","v":"001"}
{"_id":91,"_uid":91,"_dt":1454323366840,"_s":"97c2e7e60897921d6fbfaf7726030f59"}
{"id":"8CN","name":"8CN","_id":{"$wrap":"$oid","v":91}}
{"k":"0000000080","o":"0000000055","v":"001"}
{"_id":92,"_uid":92,"_dt":1454323366840,"_s":"958185f5f18357f228bcfc0241b47d6f"}
{"id":"8DN","name":"8DN","_id":{"$wrap":"$oid","v":92}}
{"k":"0000000080","o":"0000000057","v":"001"}
{"_id":93,"_uid":93,"_dt":1454323366840,"_s":"049a65e564be02c899c455b895a3796e"}
{"id":"B5-8","name":"B5-8","_id":{"$wrap":"$oid","v":93}}
{"k":"0000000080","o":"0000000053","v":"001"}
{"_id":94,"_uid":94,"_dt":1454323366840,"_s":"fe40121c49bc248e1dff1fc91575500a"}
{"id":"5Y","name":"5Y","_id":{"$wrap":"$oid","v":94}}
{"k":"0000000080","o":"0000000053","v":"001"}
{"_id":95,"_uid":95,"_dt":1454323366841,"_s":"749d221208dbbdb5eeeabc5297e9fcb8"}
{"id":"5R","name":"5R","_id":{"$wrap":"$oid","v":95}}
{"k":"0000000080","o":"0000000055","v":"001"}
{"_id":96,"_uid":96,"_dt":1454323366842,"_s":"b5b4c0b604df4325fab63e4e45735630"}
{"id":"8AJ","name":"8AJ","_id":{"$wrap":"$oid","v":96}}
{"k":"0000000080","o":"0000000055","v":"001"}
{"_id":97,"_uid":97,"_dt":1454323366842,"_s":"b37ea54f0bbddce279b60de0f3734870"}
{"id":"8ND","name":"8ND","_id":{"$wrap":"$oid","v":97}}
{"k":"0000000080","o":"0000000055","v":"001"}
{"_id":98,"_uid":98,"_dt":1454323366842,"_s":"ff02be98fcc9d2280b0de5013101eb5c"}
{"id":"7DK","name":"7DK","_id":{"$wrap":"$oid","v":98}}
{"k":"0000000080","o":"0000000053","v":"001"}
{"_id":99,"_uid":99,"_dt":1454323366842,"_s":"2f25a37411cdbb8e096da812b97483c7"}
{"id":"5S","name":"5S","_id":{"$wrap":"$oid","v":99}}
{"k":"0000000082","o":"0000000054","v":"001"}
{"_id":100,"_uid":100,"_dt":1454323366843,"_s":"53041e9b9fde0336633e1115909769b3"}
{"id":"8C","name":"8C","_id":{"$wrap":"$oid","v":100}}
{"k":"0000000082","o":"0000000054","v":"001"}
{"_id":101,"_uid":101,"_dt":1454323366844,"_s":"1b2d817ab1e7f3586351c54dee22db7e"}
{"id":"5K","name":"5K","_id":{"$wrap":"$oid","v":101}}
{"k":"0000000082","o":"0000000054","v":"001"}
{"_id":102,"_uid":102,"_dt":1454323366845,"_s":"8c71084e5196a3b18c1334c7836e75af"}
{"id":"6W","name":"6W","_id":{"$wrap":"$oid","v":102}}
{"k":"0000000082","o":"0000000056","v":"001"}
{"_id":103,"_uid":103,"_dt":1454323366846,"_s":"5b04369463966f16f642718ab4810dcc"}
{"id":"7AF","name":"7AF","_id":{"$wrap":"$oid","v":103}}
{"k":"0000000082","o":"0000000056","v":"001"}
{"_id":104,"_uid":104,"_dt":1454323366847,"_s":"eba267e81c2dddbe7989803c4b026f35"}
{"id":"7AB","name":"7AB","_id":{"$wrap":"$oid","v":104}}
{"k":"0000000082","o":"0000000054","v":"001"}
{"_id":105,"_uid":105,"_dt":1454323366847,"_s":"dec0ccc3c4dbfac6b8a3fcf87e8d9c92"}
{"id":"5Z","name":"5Z","_id":{"$wrap":"$oid","v":105}}
{"k":"0000000082","o":"0000000056","v":"001"}
{"_id":106,"_uid":106,"_dt":1454323366848,"_s":"1c4f76514c7c03e6f5130e6897f1e6da"}
{"id":"7AA","name":"7AA","_id":{"$wrap":"$oid","v":106}}
{"k":"0000000082","o":"0000000056","v":"001"}
{"_id":107,"_uid":107,"_dt":1454323366848,"_s":"e003aeb3c1d88d3c3b439246d4ddf8b1"}
{"id":"7DC","name":"7DC","_id":{"$wrap":"$oid","v":107}}
{"k":"0000000082","o":"0000000056","v":"001"}
{"_id":108,"_uid":108,"_dt":1454323366848,"_s":"f269e83d8ffe8f604bbf0bafbd6f4275"}
{"id":"5AD","name":"5AD","_id":{"$wrap":"$oid","v":108}}
{"k":"0000000082","o":"0000000056","v":"001"}
{"_id":109,"_uid":109,"_dt":1454323366848,"_s":"5d22b17d47767baca8d651483f5eea73"}
{"id":"7AK","name":"7AK","_id":{"$wrap":"$oid","v":109}}
{"k":"0000000082","o":"0000000056","v":"001"}
{"_id":110,"_uid":110,"_dt":1454323366849,"_s":"05b0ad9515d3787e7aa8f96025b6b0b4"}
{"id":"8AX","name":"8AX","_id":{"$wrap":"$oid","v":110}}
{"k":"0000000082","o":"0000000056","v":"001"}
{"_id":111,"_uid":111,"_dt":1454323366849,"_s":"deeaf5972ca4a86e3c8f163a6b75dcd7"}
{"id":"7AO","name":"7AO","_id":{"$wrap":"$oid","v":111}}
{"k":"0000000082","o":"0000000056","v":"001"}
{"_id":112,"_uid":112,"_dt":1454323366849,"_s":"6feb9492af072f855600846ada82ed63"}
{"id":"6AX","name":"6AX","_id":{"$wrap":"$oid","v":112}}
{"k":"0000000082","o":"0000000056","v":"001"}
{"_id":113,"_uid":113,"_dt":1454323366849,"_s":"3cbc5b71eacc57dd3f67f26cce5d7ee8"}
{"id":"4AA","name":"4AA","_id":{"$wrap":"$oid","v":113}}
{"k":"0000000082","o":"0000000056","v":"001"}
{"_id":114,"_uid":114,"_dt":1454323366849,"_s":"46bc1126c7d2a5f1835aecff4834bcbc"}
{"id":"5AG","name":"5AG","_id":{"$wrap":"$oid","v":114}}
{"k":"0000000082","o":"0000000056","v":"001"}
{"_id":115,"_uid":115,"_dt":1454323366850,"_s":"79a759d9314f57564f33e6693df283d4"}
{"id":"7AM","name":"7AM","_id":{"$wrap":"$oid","v":115}}
{"k":"0000000082","o":"0000000056","v":"001"}
{"_id":116,"_uid":116,"_dt":1454323366850,"_s":"d0e806389072f78e8ba05bc908661034"}
{"id":"6BX","name":"6BX","_id":{"$wrap":"$oid","v":116}}
{"k":"0000000082","o":"0000000056","v":"001"}
{"_id":117,"_uid":117,"_dt":1454323366851,"_s":"7e22647e080f036cebde5647e4bdde28"}
{"id":"6AF","name":"6AF","_id":{"$wrap":"$oid","v":117}}
{"k":"0000000082","o":"0000000056","v":"001"}
{"_id":118,"_uid":118,"_dt":1454323366851,"_s":"7360f062dd1ed6eac5b56d9641246d69"}
{"id":"8CO","name":"8CO","_id":{"$wrap":"$oid","v":118}}
{"k":"0000000082","o":"0000000056","v":"001"}
{"_id":119,"_uid":119,"_dt":1454323366851,"_s":"c51e63985cf0980e90b43930b426e0a8"}
{"id":"4AH","name":"4AH","_id":{"$wrap":"$oid","v":119}}
{"k":"0000000082","o":"0000000056","v":"001"}
{"_id":120,"_uid":120,"_dt":1454323366851,"_s":"73f6a73758c26b3399c8f78bb38bf5f9"}
{"id":"9DT","name":"9DT","_id":{"$wrap":"$oid","v":120}}
{"k":"0000000082","o":"0000000056","v":"001"}
{"_id":121,"_uid":121,"_dt":1454323366852,"_s":"682a9df0eb4bdf9e8b1a718b7441bd10"}
{"id":"7AV","name":"7AV","_id":{"$wrap":"$oid","v":121}}
{"k":"0000000082","o":"0000000056","v":"001"}
{"_id":122,"_uid":122,"_dt":1454323366853,"_s":"a05e7adba9e31a3916774b23f36ab018"}
{"id":"8DA","name":"8DA","_id":{"$wrap":"$oid","v":122}}
{"k":"0000000082","o":"0000000056","v":"001"}
{"_id":123,"_uid":123,"_dt":1454323366854,"_s":"3e17f7bacb1fc8eed9b18795f0ce9e92"}
{"id":"6BD","name":"6BD","_id":{"$wrap":"$oid","v":123}}
{"k":"0000000082","o":"0000000056","v":"001"}
{"_id":124,"_uid":124,"_dt":1454323366854,"_s":"12acecd6278d52bf71a48e65a4c2df92"}
{"id":"6BE","name":"6BE","_id":{"$wrap":"$oid","v":124}}
{"k":"0000000082","o":"0000000054","v":"001"}
{"_id":125,"_uid":125,"_dt":1454323366854,"_s":"ef8b64a578977a0e572be82e4125d55d"}
{"id":"4G","name":"4G","_id":{"$wrap":"$oid","v":125}}
{"k":"0000000082","o":"0000000056","v":"001"}
{"_id":126,"_uid":126,"_dt":1454323366855,"_s":"74f7b54ed53c7760f38f0c77326456da"}
{"id":"5BZ","name":"5BZ","_id":{"$wrap":"$oid","v":126}}
{"k":"0000000082","o":"0000000054","v":"001"}
{"_id":127,"_uid":127,"_dt":1454323366855,"_s":"9a2467a2c60edbd4b66079dc33d754ba"}
{"id":"4P","name":"4P","_id":{"$wrap":"$oid","v":127}}
{"k":"0000000082","o":"0000000056","v":"001"}
{"_id":128,"_uid":128,"_dt":1454323366855,"_s":"f3658e92f00436f3cc705684cf9f6449"}
{"id":"7CB","name":"7CB","_id":{"$wrap":"$oid","v":128}}
{"k":"0000000082","o":"0000000056","v":"001"}
{"_id":129,"_uid":129,"_dt":1454323366856,"_s":"eea3d88f96c242ceeed25d2d8ef8ca05"}
{"id":"4AZ","name":"4AZ","_id":{"$wrap":"$oid","v":129}}
{"k":"0000000082","o":"0000000056","v":"001"}
{"_id":130,"_uid":130,"_dt":1454323366856,"_s":"f29154c0e52bdb0261e5f67a01740a1f"}
{"id":"9AS","name":"9AS","_id":{"$wrap":"$oid","v":130}}
{"k":"0000000082","o":"0000000056","v":"001"}
{"_id":131,"_uid":131,"_dt":1454323366857,"_s":"397a727e0404f4e414125e754e16f03d"}
{"id":"8GT","name":"8GT","_id":{"$wrap":"$oid","v":131}}
{"k":"0000000082","o":"0000000054","v":"001"}
{"_id":132,"_uid":132,"_dt":1454323366862,"_s":"c56ea43abd5150082ec10ae76ec1c185"}
{"id":"6E","name":"6E","_id":{"$wrap":"$oid","v":132}}
{"k":"0000000082","o":"0000000054","v":"001"}
{"_id":133,"_uid":133,"_dt":1454323366865,"_s":"0599a9c991ee1471cc7dc623191ff674"}
{"id":"7Q","name":"7Q","_id":{"$wrap":"$oid","v":133}}
{"k":"0000000082","o":"0000000056","v":"001"}
{"_id":134,"_uid":134,"_dt":1454323366865,"_s":"113618b8f2c0d2767271cd893c495de8"}
{"id":"8NC","name":"8NC","_id":{"$wrap":"$oid","v":134}}
{"k":"0000000082","o":"0000000054","v":"001"}
{"_id":135,"_uid":135,"_dt":1454323366866,"_s":"322952eef30e4496ff2ee9ec6ef7e728"}
{"id":"5A","name":"5A","_id":{"$wrap":"$oid","v":135}}
{"k":"0000000082","o":"0000000054","v":"001"}
{"_id":136,"_uid":136,"_dt":1454323366866,"_s":"fa6e1b9840d3a9458e26c4d70f5648fa"}
{"id":"5L","name":"5L","_id":{"$wrap":"$oid","v":136}}
{"k":"0000000082","o":"0000000054","v":"001"}
{"_id":137,"_uid":137,"_dt":1454323366867,"_s":"ec2594617d284cf1e6ed0f887876497e"}
{"id":"6B","name":"6B","_id":{"$wrap":"$oid","v":137}}
{"k":"0000000082","o":"0000000054","v":"001"}
{"_id":138,"_uid":138,"_dt":1454323366867,"_s":"1626748ff0b519cbd832c4565f8681c4"}
{"id":"6G","name":"6G","_id":{"$wrap":"$oid","v":138}}
{"k":"0000000082","o":"0000000054","v":"001"}
{"_id":139,"_uid":139,"_dt":1454323366868,"_s":"9c8242d9f9d2294daf02be7ba6fd68b8"}
{"id":"7C","name":"7C","_id":{"$wrap":"$oid","v":139}}
{"k":"0000000082","o":"0000000058","v":"001"}
{"_id":140,"_uid":140,"_dt":1454323366868,"_s":"b6d2f625063eb3a3187d79050cb04cdd"}
{"id":"12DG","name":"12DG","_id":{"$wrap":"$oid","v":140}}
{"k":"0000000082","o":"0000000058","v":"001"}
{"_id":141,"_uid":141,"_dt":1454323366869,"_s":"a37715842be101726be57d715be8a8d4"}
{"id":"12EW","name":"12EW","_id":{"$wrap":"$oid","v":141}}
{"k":"0000000082","o":"0000000060","v":"001"}
{"_id":142,"_uid":142,"_dt":1454323366869,"_s":"6e1b7c66032fc0f0856280bb9db7f1fa"}
{"id":"B3G-1","name":"B3G-1","_id":{"$wrap":"$oid","v":142}}
{"k":"0000000082","o":"0000000056","v":"001"}
{"_id":143,"_uid":143,"_dt":1454323366871,"_s":"37e7aa8c8800a773e24c17831b5a77dc"}
{"id":"9RT","name":"9RT","_id":{"$wrap":"$oid","v":143}}
{"k":"0000000082","o":"0000000058","v":"001"}
{"_id":144,"_uid":144,"_dt":1454323366871,"_s":"a8246fa2ddb9f238d028123e4cff50d4"}
{"id":"2C40","name":"2C40","_id":{"$wrap":"$oid","v":144}}
{"k":"0000000082","o":"0000000056","v":"001"}
{"_id":145,"_uid":145,"_dt":1454323366872,"_s":"66267d46663cd849d93b6bd35ca0d408"}
{"id":"6AA","name":"6AA","_id":{"$wrap":"$oid","v":145}}
{"k":"0000000082","o":"0000000056","v":"001"}
{"_id":146,"_uid":146,"_dt":1454323366872,"_s":"80268896901c0234c5ff7a561d32009a"}
{"id":"8CJ","name":"8CJ","_id":{"$wrap":"$oid","v":146}}
{"k":"0000000082","o":"0000000056","v":"001"}
{"_id":147,"_uid":147,"_dt":1454323366874,"_s":"4e147c525738264f59c6e3d1df442dcd"}
{"id":"9JL","name":"9JL","_id":{"$wrap":"$oid","v":147}}
{"k":"0000000082","o":"0000000056","v":"001"}
{"_id":148,"_uid":148,"_dt":1454323366874,"_s":"77011af0f115f646ee42534cdc3d7bcb"}
{"id":"7CL","name":"7CL","_id":{"$wrap":"$oid","v":148}}
{"k":"0000000082","o":"0000000056","v":"001"}
{"_id":149,"_uid":149,"_dt":1454323366874,"_s":"d7365cd0a61c8862a43b3237bac26512"}
{"id":"7CK","name":"7CK","_id":{"$wrap":"$oid","v":149}}
{"k":"0000000082","o":"0000000056","v":"001"}
{"_id":150,"_uid":150,"_dt":1454323366875,"_s":"b5dd10b74a74f9f08bf6cc840d7b7ca4"}
{"id":"7FP","name":"7FP","_id":{"$wrap":"$oid","v":150}}
{"k":"0000000082","o":"0000000056","v":"001"}
{"_id":151,"_uid":151,"_dt":1454323366875,"_s":"8f0d3ab25ab2272f0d0ba18ba63c668e"}
{"id":"4AB","name":"4AB","_id":{"$wrap":"$oid","v":151}}
{"k":"0000000082","o":"0000000056","v":"001"}
{"_id":152,"_uid":152,"_dt":1454323366875,"_s":"df3fa7f9bf38ba04b310fc1a52c66616"}
{"id":"9AQ","name":"9AQ","_id":{"$wrap":"$oid","v":152}}
{"k":"0000000082","o":"0000000056","v":"001"}
{"_id":153,"_uid":153,"_dt":1454323366875,"_s":"d0b11263748fcfb311de4d4ebeaec873"}
{"id":"9FC","name":"9FC","_id":{"$wrap":"$oid","v":153}}
{"k":"0000000082","o":"0000000062","v":"001"}
{"_id":154,"_uid":154,"_dt":1454323366876,"_s":"d832de34d2816b2b9061e9b6405ff9b7"}
{"id":"B9A-27","name":"B9A-27","_id":{"$wrap":"$oid","v":154}}
{"k":"0000000082","o":"0000000056","v":"001"}
{"_id":155,"_uid":155,"_dt":1454323366876,"_s":"459c8fcd735a870e0f807a80e11bd28c"}
{"id":"9LY","name":"9LY","_id":{"$wrap":"$oid","v":155}}
{"k":"0000000082","o":"0000000056","v":"001"}
{"_id":156,"_uid":156,"_dt":1454323366876,"_s":"f29fe369c40b150bbdcd343a7fa8679b"}
{"id":"5BQ","name":"5BQ","_id":{"$wrap":"$oid","v":156}}
{"k":"0000000082","o":"0000000056","v":"001"}
{"_id":157,"_uid":157,"_dt":1454323366876,"_s":"d1246fbe450f3a23076835771c8185b7"}
{"id":"5AL","name":"5AL","_id":{"$wrap":"$oid","v":157}}
{"k":"0000000082","o":"0000000054","v":"001"}
{"_id":158,"_uid":158,"_dt":1454323366876,"_s":"3c391ffa30cf373686c7e65d2e4d53ca"}
{"id":"4Z","name":"4Z","_id":{"$wrap":"$oid","v":158}}
{"k":"0000000082","o":"0000000056","v":"001"}
{"_id":159,"_uid":159,"_dt":1454323366876,"_s":"7ad38baa459dc75e1aa43c6336718ad9"}
{"id":"6AD","name":"6AD","_id":{"$wrap":"$oid","v":159}}
{"k":"0000000082","o":"0000000056","v":"001"}
{"_id":160,"_uid":160,"_dt":1454323366876,"_s":"3695c43b7e50b0d09a4503b46a66d4a5"}
{"id":"8EZ","name":"8EZ","_id":{"$wrap":"$oid","v":160}}
{"k":"0000000082","o":"0000000054","v":"001"}
{"_id":161,"_uid":161,"_dt":1454323366877,"_s":"75988f4fb16cf53057c0eb96b5915f80"}
{"id":"3G","name":"3G","_id":{"$wrap":"$oid","v":161}}
{"k":"0000000082","o":"0000000056","v":"001"}
{"_id":162,"_uid":162,"_dt":1454323366877,"_s":"98b2e20dc8d4ca896051b7bab5bf1141"}
{"id":"5DE","name":"5DE","_id":{"$wrap":"$oid","v":162}}
{"k":"0000000082","o":"0000000060","v":"001"}
{"_id":163,"_uid":163,"_dt":1454323366877,"_s":"c1f1f67b7e5446f58f6bce3ba724062c"}
{"id":"B7A-1","name":"B7A-1","_id":{"$wrap":"$oid","v":163}}
{"k":"0000000082","o":"0000000056","v":"001"}
{"_id":164,"_uid":164,"_dt":1454323366877,"_s":"3313ad32f0d9c94189dccc1e6415a1d9"}
{"id":"9PM","name":"9PM","_id":{"$wrap":"$oid","v":164}}
{"k":"0000000082","o":"0000000056","v":"001"}
{"_id":165,"_uid":165,"_dt":1454323366878,"_s":"3d180d74df544f6b77976576184646e0"}
{"id":"7BA","name":"7BA","_id":{"$wrap":"$oid","v":165}}
{"k":"0000000082","o":"0000000056","v":"001"}
{"_id":166,"_uid":166,"_dt":1454323366878,"_s":"0706d70e9b5d0bae6852d7cb8707f975"}
{"id":"7AP","name":"7AP","_id":{"$wrap":"$oid","v":166}}
{"k":"0000000082","o":"0000000056","v":"001"}
{"_id":167,"_uid":167,"_dt":1454323366878,"_s":"dce8868b7fe5430b250c9600d80697a6"}
{"id":"9RJ","name":"9RJ","_id":{"$wrap":"$oid","v":167}}
{"k":"0000000082","o":"0000000054","v":"001"}
{"_id":168,"_uid":168,"_dt":1454323366878,"_s":"9a5a2cac379ecb09153ecc97c99f8e82"}
{"id":"5B","name":"5B","_id":{"$wrap":"$oid","v":168}}
{"k":"0000000082","o":"0000000056","v":"001"}
{"_id":169,"_uid":169,"_dt":1454323366879,"_s":"35c61c12ad022695ccae27c78d313114"}
{"id":"9BJ","name":"9BJ","_id":{"$wrap":"$oid","v":169}}
{"k":"0000000082","o":"0000000060","v":"001"}
{"_id":170,"_uid":170,"_dt":1454323366879,"_s":"fab17d9fd3f9aa1f785733cbe5eb7cb4"}
{"id":"B7-23","name":"B7-23","_id":{"$wrap":"$oid","v":170}}
{"k":"0000000082","o":"0000000056","v":"001"}
{"_id":171,"_uid":171,"_dt":1454323366880,"_s":"978be0834779c5970fa9b03a5e0e6675"}
{"id":"9GA","name":"9GA","_id":{"$wrap":"$oid","v":171}}
{"k":"0000000082","o":"0000000062","v":"001"}
{"_id":172,"_uid":172,"_dt":1454323366880,"_s":"4d27f7beacb22bacd9f3a82dafa4d288"}
{"id":"B7G-79","name":"B7G-79","_id":{"$wrap":"$oid","v":172}}
{"k":"0000000082","o":"0000000056","v":"001"}
{"_id":173,"_uid":173,"_dt":1454323366889,"_s":"57dcde1a85d07a436d83d539c48f3359"}
{"id":"7GM","name":"7GM","_id":{"$wrap":"$oid","v":173}}
{"k":"0000000082","o":"0000000056","v":"001"}
{"_id":174,"_uid":174,"_dt":1454323366889,"_s":"7f3f10c22c53df54af546fc67f54fbda"}
{"id":"9GF","name":"9GF","_id":{"$wrap":"$oid","v":174}}
{"k":"0000000082","o":"0000000056","v":"001"}
{"_id":175,"_uid":175,"_dt":1454323366889,"_s":"a4575571313c4589f15b682c37837b26"}
{"id":"8KB","name":"8KB","_id":{"$wrap":"$oid","v":175}}
{"k":"0000000082","o":"0000000056","v":"001"}
{"_id":176,"_uid":176,"_dt":1454323366890,"_s":"1832c570b1f4cc8c8e153fa09bc856a0"}
{"id":"7BD","name":"7BD","_id":{"$wrap":"$oid","v":176}}
{"k":"0000000082","o":"0000000054","v":"001"}
{"_id":177,"_uid":177,"_dt":1454323366890,"_s":"a5c70f580ba89d72ad93bd2fe86300a5"}
{"id":"9H","name":"9H","_id":{"$wrap":"$oid","v":177}}
{"k":"0000000082","o":"0000000054","v":"001"}
{"_id":178,"_uid":178,"_dt":1454323366891,"_s":"8035e1fd8cf6949f0beba5199203ac55"}
{"id":"6F","name":"6F","_id":{"$wrap":"$oid","v":178}}
{"k":"0000000082","o":"0000000056","v":"001"}
{"_id":179,"_uid":179,"_dt":1454323366891,"_s":"1b2be048ab00ad8f6f9ee065cc19f44c"}
{"id":"7BN","name":"7BN","_id":{"$wrap":"$oid","v":179}}
{"k":"0000000082","o":"0000000054","v":"001"}
{"_id":180,"_uid":180,"_dt":1454323366891,"_s":"25aa1e7d946b005ab79e98273b8a3086"}
{"id":"9K","name":"9K","_id":{"$wrap":"$oid","v":180}}
{"k":"0000000082","o":"0000000054","v":"001"}
{"_id":181,"_uid":181,"_dt":1454323366891,"_s":"6be2ed5eaa243794a46dd34cc2347f74"}
{"id":"9V","name":"9V","_id":{"$wrap":"$oid","v":181}}
{"k":"0000000082","o":"0000000056","v":"001"}
{"_id":182,"_uid":182,"_dt":1454323366891,"_s":"08f2be007a004756a1c5e9fe314803b0"}
{"id":"9AD","name":"9AD","_id":{"$wrap":"$oid","v":182}}
{"k":"0000000082","o":"0000000056","v":"001"}
{"_id":183,"_uid":183,"_dt":1454323366891,"_s":"c85a2a272355cc7740e8cfc091d020ef"}
{"id":"5AW","name":"5AW","_id":{"$wrap":"$oid","v":183}}
{"k":"0000000082","o":"0000000056","v":"001"}
{"_id":184,"_uid":184,"_dt":1454323366892,"_s":"a1269c9f1986f5a49390b2afe534d144"}
{"id":"9DA","name":"9DA","_id":{"$wrap":"$oid","v":184}}
{"k":"0000000082","o":"0000000054","v":"001"}
{"_id":185,"_uid":185,"_dt":1454323366892,"_s":"a7aed383a4c004033ec9acedb2efc2b5"}
{"id":"5T","name":"5T","_id":{"$wrap":"$oid","v":185}}
{"k":"0000000082","o":"0000000054","v":"001"}
{"_id":186,"_uid":186,"_dt":1454323366892,"_s":"ed0d542405836cdb6fedaa607907b96c"}
{"id":"5Q","name":"5Q","_id":{"$wrap":"$oid","v":186}}
{"k":"0000000082","o":"0000000056","v":"001"}
{"_id":187,"_uid":187,"_dt":1454323366892,"_s":"4a34f94970e14b5b4226dc621331ba38"}
{"id":"9AK","name":"9AK","_id":{"$wrap":"$oid","v":187}}
{"k":"0000000082","o":"0000000056","v":"001"}
{"_id":188,"_uid":188,"_dt":1454323366892,"_s":"7fe20afc2a1ede9203b4579cc59df29d"}
{"id":"10K","name":"10K","_id":{"$wrap":"$oid","v":188}}
{"k":"0000000082","o":"0000000054","v":"001"}
{"_id":189,"_uid":189,"_dt":1454323366893,"_s":"35aeeb9fd3ef66ef850311a0af55b4d4"}
{"id":"4C","name":"4C","_id":{"$wrap":"$oid","v":189}}
{"k":"0000000082","o":"0000000056","v":"001"}
{"_id":190,"_uid":190,"_dt":1454323366895,"_s":"0ab332ba3207af094da1e233255f0a53"}
{"id":"4AX","name":"4AX","_id":{"$wrap":"$oid","v":190}}
{"k":"0000000082","o":"0000000056","v":"001"}
{"_id":191,"_uid":191,"_dt":1454323366896,"_s":"46cefb0da7d09a0d4d28daac51783f0a"}
{"id":"7BF","name":"7BF","_id":{"$wrap":"$oid","v":191}}
{"k":"0000000082","o":"0000000056","v":"001"}
{"_id":192,"_uid":192,"_dt":1454323366896,"_s":"750c5e512291145a1b9d724395761442"}
{"id":"9BC","name":"9BC","_id":{"$wrap":"$oid","v":192}}
{"k":"0000000082","o":"0000000056","v":"001"}
{"_id":193,"_uid":193,"_dt":1454323366896,"_s":"e0ea8166287c300fb159c9653ab47f87"}
{"id":"9AM","name":"9AM","_id":{"$wrap":"$oid","v":193}}
{"k":"0000000082","o":"0000000056","v":"001"}
{"_id":194,"_uid":194,"_dt":1454323366897,"_s":"3cc5310292074ea5c6728fc5172880b8"}
{"id":"6BQ","name":"6BQ","_id":{"$wrap":"$oid","v":194}}
{"k":"0000000082","o":"0000000056","v":"001"}
{"_id":195,"_uid":195,"_dt":1454323366897,"_s":"9ac35dd2859a6dbafa3a0d839e2a3a3b"}
{"id":"6BG","name":"6BG","_id":{"$wrap":"$oid","v":195}}
{"k":"0000000082","o":"0000000056","v":"001"}
{"_id":196,"_uid":196,"_dt":1454323366897,"_s":"3dd802cacf1f79d3a25974166c5756fb"}
{"id":"8DG","name":"8DG","_id":{"$wrap":"$oid","v":196}}
{"k":"0000000082","o":"0000000056","v":"001"}
{"_id":197,"_uid":197,"_dt":1454323366898,"_s":"e21a66798489512e079e793ab3e9e4a2"}
{"id":"9BV","name":"9BV","_id":{"$wrap":"$oid","v":197}}
{"k":"0000000082","o":"0000000056","v":"001"}
{"_id":198,"_uid":198,"_dt":1454323366900,"_s":"fb328a13df6e21c01b44d03aea6dfd1a"}
{"id":"8FO","name":"8FO","_id":{"$wrap":"$oid","v":198}}
{"k":"0000000082","o":"0000000056","v":"001"}
{"_id":199,"_uid":199,"_dt":1454323366900,"_s":"da24d49e8cedf04bc6223ba37ab3935e"}
{"id":"9CQ","name":"9CQ","_id":{"$wrap":"$oid","v":199}}
{"k":"0000000082","o":"0000000056","v":"001"}
{"_id":200,"_uid":200,"_dt":1454323366900,"_s":"5c152c3e67d4e02758372fefd7c108ed"}
{"id":"9CZ","name":"9CZ","_id":{"$wrap":"$oid","v":200}}
{"k":"0000000082","o":"0000000062","v":"001"}
{"_id":201,"_uid":201,"_dt":1454323366901,"_s":"63ce2d68fcf0799e4f037d15de25a8d7"}
{"id":"B9A-30","name":"B9A-30","_id":{"$wrap":"$oid","v":201}}
{"k":"0000000082","o":"0000000060","v":"001"}
{"_id":202,"_uid":202,"_dt":1454323366901,"_s":"68fd14d093ba036cce5b3ba7c56cbf5f"}
{"id":"B5B-1","name":"B5B-1","_id":{"$wrap":"$oid","v":202}}
{"k":"0000000082","o":"0000000056","v":"001"}
{"_id":203,"_uid":203,"_dt":1454323366901,"_s":"fe28692e1899559c2d2dd1726cb0340a"}
{"id":"8FY","name":"8FY","_id":{"$wrap":"$oid","v":203}}
{"k":"0000000082","o":"0000000056","v":"001"}
{"_id":204,"_uid":204,"_dt":1454323366901,"_s":"e1466b5de569e921326a1a00349dc7c7"}
{"id":"9EQ","name":"9EQ","_id":{"$wrap":"$oid","v":204}}
{"k":"0000000082","o":"0000000056","v":"001"}
{"_id":205,"_uid":205,"_dt":1454323366903,"_s":"a43cb9115d2b2fc3e4c242e0b7de3b66"}
{"id":"7EQ","name":"7EQ","_id":{"$wrap":"$oid","v":205}}
{"k":"0000000082","o":"0000000056","v":"001"}
{"_id":206,"_uid":206,"_dt":1454323366908,"_s":"724377c30cc738453de496033d56d8d3"}
{"id":"9GB","name":"9GB","_id":{"$wrap":"$oid","v":206}}
{"k":"0000000082","o":"0000000054","v":"001"}
{"_id":207,"_uid":207,"_dt":1454323366908,"_s":"a590c46921003532eb505435a93c90de"}
{"id":"7B","name":"7B","_id":{"$wrap":"$oid","v":207}}
{"k":"0000000082","o":"0000000054","v":"001"}
{"_id":208,"_uid":208,"_dt":1454323366908,"_s":"cbaa70d75067d2358da10747246b7616"}
{"id":"8A","name":"8A","_id":{"$wrap":"$oid","v":208}}
{"k":"0000000082","o":"0000000056","v":"001"}
{"_id":209,"_uid":209,"_dt":1454323366909,"_s":"f6552afa0a707dc55afad50230f9b94b"}
{"id":"5CE","name":"5CE","_id":{"$wrap":"$oid","v":209}}
{"k":"0000000082","o":"0000000062","v":"001"}
{"_id":210,"_uid":210,"_dt":1454323366909,"_s":"0dd926737d4f9cbb546d6758a8a370f8"}
{"id":"B9A-13","name":"B9A-13","_id":{"$wrap":"$oid","v":210}}
{"k":"0000000082","o":"0000000054","v":"001"}
{"_id":211,"_uid":211,"_dt":1454323366909,"_s":"0410fadd41b24960b2dad5dcc1f5f93a"}
{"id":"7W","name":"7W","_id":{"$wrap":"$oid","v":211}}
{"k":"0000000082","o":"0000000058","v":"001"}
{"_id":212,"_uid":212,"_dt":1454323366909,"_s":"86e1801ad4ba3a75b30ab2d6a4a3b156"}
{"id":"12GN","name":"12GN","_id":{"$wrap":"$oid","v":212}}
{"k":"0000000082","o":"0000000056","v":"001"}
{"_id":213,"_uid":213,"_dt":1454323366909,"_s":"3402b73263eb8fb81b28eedcb91ec701"}
{"id":"8DK","name":"8DK","_id":{"$wrap":"$oid","v":213}}
{"k":"0000000082","o":"0000000056","v":"001"}
{"_id":214,"_uid":214,"_dt":1454323366910,"_s":"afe66a3957b15b890f9d4d6ce210d6ac"}
{"id":"7AG","name":"7AG","_id":{"$wrap":"$oid","v":214}}
{"k":"0000000082","o":"0000000056","v":"001"}
{"_id":215,"_uid":215,"_dt":1454323366910,"_s":"749d0603c51196eea2a804ea1edd7669"}
{"id":"8AY","name":"8AY","_id":{"$wrap":"$oid","v":215}}
{"k":"0000000082","o":"0000000056","v":"001"}
{"_id":216,"_uid":216,"_dt":1454323366910,"_s":"16f2a34e1943f26f6330e830c2255d5a"}
{"id":"7AH","name":"7AH","_id":{"$wrap":"$oid","v":216}}
{"k":"0000000082","o":"0000000058","v":"001"}
{"_id":217,"_uid":217,"_dt":1454323366910,"_s":"97ab5c246c4fb235118ea368ee1b1268"}
{"id":"12DA","name":"12DA","_id":{"$wrap":"$oid","v":217}}
{"k":"0000000082","o":"0000000056","v":"001"}
{"_id":218,"_uid":218,"_dt":1454323366910,"_s":"ab4ec9d203494efc881959a6ec304b68"}
{"id":"9CA","name":"9CA","_id":{"$wrap":"$oid","v":218}}
{"k":"0000000082","o":"0000000054","v":"001"}
{"_id":219,"_uid":219,"_dt":1454323366910,"_s":"021832d724479caf9b98ed844cafc8f1"}
{"id":"9E","name":"9E","_id":{"$wrap":"$oid","v":219}}
{"k":"0000000082","o":"0000000062","v":"001"}
{"_id":220,"_uid":220,"_dt":1454323366910,"_s":"1b0e46d546d4feefe74a44e8c091704a"}
{"id":"B7G-25","name":"B7G-25","_id":{"$wrap":"$oid","v":220}}
{"k":"0000000082","o":"0000000056","v":"001"}
{"_id":221,"_uid":221,"_dt":1454323366910,"_s":"de50e28122174e95d4d607028b5337d0"}
{"id":"6CK","name":"6CK","_id":{"$wrap":"$oid","v":221}}
{"k":"0000000082","o":"0000000058","v":"001"}
{"_id":222,"_uid":222,"_dt":1454323366911,"_s":"935c471155d8e095d11ba7b6f61a4378"}
{"id":"12BY","name":"12BY","_id":{"$wrap":"$oid","v":222}}
{"k":"0000000082","o":"0000000058","v":"001"}
{"_id":223,"_uid":223,"_dt":1454323366911,"_s":"aaabb646bd64d389d38eef9692cd9d3e"}
{"id":"12BL","name":"12BL","_id":{"$wrap":"$oid","v":223}}
{"k":"0000000082","o":"0000000054","v":"001"}
{"_id":224,"_uid":224,"_dt":1454323366911,"_s":"de051f9ddf1dca642ad59f5ec3485459"}
{"id":"6S","name":"6S","_id":{"$wrap":"$oid","v":224}}
{"k":"0000000082","o":"0000000056","v":"001"}
{"_id":225,"_uid":225,"_dt":1454323366912,"_s":"0502f1ad889f262819df059b264cb776"}
{"id":"9ED","name":"9ED","_id":{"$wrap":"$oid","v":225}}
{"k":"0000000082","o":"0000000058","v":"001"}
{"_id":226,"_uid":226,"_dt":1454323366912,"_s":"1f56c08b53fbf3ad22277c31af06b6ed"}
{"id":"12BF","name":"12BF","_id":{"$wrap":"$oid","v":226}}
{"k":"0000000082","o":"0000000056","v":"001"}
{"_id":227,"_uid":227,"_dt":1454323366912,"_s":"8da8cb4f103e364b3e398a3098bb7491"}
{"id":"9AX","name":"9AX","_id":{"$wrap":"$oid","v":227}}
{"k":"0000000082","o":"0000000056","v":"001"}
{"_id":228,"_uid":228,"_dt":1454323366912,"_s":"ab57a510186eaf75c8beaa2a1788ede4"}
{"id":"9BQ","name":"9BQ","_id":{"$wrap":"$oid","v":228}}
{"k":"0000000082","o":"0000000056","v":"001"}
{"_id":229,"_uid":229,"_dt":1454323366912,"_s":"7ab51c88c5870b58f602e5e565467977"}
{"id":"9ER","name":"9ER","_id":{"$wrap":"$oid","v":229}}
{"k":"0000000082","o":"0000000056","v":"001"}
{"_id":230,"_uid":230,"_dt":1454323366912,"_s":"80729fbfde3cc0b57735a8c5538e715a"}
{"id":"9FA","name":"9FA","_id":{"$wrap":"$oid","v":230}}
{"k":"0000000082","o":"0000000056","v":"001"}
{"_id":231,"_uid":231,"_dt":1454323366913,"_s":"4de34a8d0897cb471cffb0deb57078d9"}
{"id":"9FG","name":"9FG","_id":{"$wrap":"$oid","v":231}}
{"k":"0000000082","o":"0000000056","v":"001"}
{"_id":232,"_uid":232,"_dt":1454323366913,"_s":"6c43de0b3c8292da0085eb05681cdd07"}
{"id":"9FJ","name":"9FJ","_id":{"$wrap":"$oid","v":232}}
{"k":"0000000082","o":"0000000056","v":"001"}
{"_id":233,"_uid":233,"_dt":1454323366913,"_s":"68fd74bbef0b2b209add3920e1ed014d"}
{"id":"9DJ","name":"9DJ","_id":{"$wrap":"$oid","v":233}}
{"k":"0000000082","o":"0000000056","v":"001"}
{"_id":234,"_uid":234,"_dt":1454323366913,"_s":"ea7f2451fb651ef57bd3b952f1045520"}
{"id":"6CN","name":"6CN","_id":{"$wrap":"$oid","v":234}}
{"k":"0000000082","o":"0000000058","v":"001"}
{"_id":235,"_uid":235,"_dt":1454323366913,"_s":"645f00aa9049d558fd65957aba4b905a"}
{"id":"12FX","name":"12FX","_id":{"$wrap":"$oid","v":235}}
{"k":"0000000082","o":"0000000054","v":"001"}
{"_id":236,"_uid":236,"_dt":1454323366914,"_s":"93dca1e8cbf95c9d1b89f58d7311edce"}
{"id":"9M","name":"9M","_id":{"$wrap":"$oid","v":236}}
{"k":"0000000082","o":"0000000056","v":"001"}
{"_id":237,"_uid":237,"_dt":1454323366914,"_s":"31416302801c1d410b0b995469a00088"}
{"id":"8EP","name":"8EP","_id":{"$wrap":"$oid","v":237}}
{"k":"0000000082","o":"0000000056","v":"001"}
{"_id":238,"_uid":238,"_dt":1454323366914,"_s":"319ea9e0aad718481fbf6e4ac217c432"}
{"id":"8GD","name":"8GD","_id":{"$wrap":"$oid","v":238}}
{"k":"0000000082","o":"0000000056","v":"001"}
{"_id":239,"_uid":239,"_dt":1454323366914,"_s":"5d2c401d4452a44990bce863a6428817"}
{"id":"9FT","name":"9FT","_id":{"$wrap":"$oid","v":239}}
{"k":"0000000082","o":"0000000056","v":"001"}
{"_id":240,"_uid":240,"_dt":1454323366914,"_s":"fe3a42030d983e5e2c788986a79651f7"}
{"id":"9SD","name":"9SD","_id":{"$wrap":"$oid","v":240}}
{"k":"0000000082","o":"0000000056","v":"001"}
{"_id":241,"_uid":241,"_dt":1454323366914,"_s":"fbf9c84f5f7f9e89d1b733f628f33ea3"}
{"id":"8JB","name":"8JB","_id":{"$wrap":"$oid","v":241}}
{"k":"0000000082","o":"0000000062","v":"001"}
{"_id":242,"_uid":242,"_dt":1454323366914,"_s":"84e0af3e63246a64ccdc6765b1233203"}
{"id":"B9A-14","name":"B9A-14","_id":{"$wrap":"$oid","v":242}}
{"k":"0000000082","o":"0000000056","v":"001"}
{"_id":243,"_uid":243,"_dt":1454323366914,"_s":"407b306045e3631d948ec5bc3de33e4b"}
{"id":"9ES","name":"9ES","_id":{"$wrap":"$oid","v":243}}
{"k":"0000000082","o":"0000000056","v":"001"}
{"_id":244,"_uid":244,"_dt":1454323366915,"_s":"3272a571317b19e0d6e8178ee16c49c5"}
{"id":"9FZ","name":"9FZ","_id":{"$wrap":"$oid","v":244}}
{"k":"0000000082","o":"0000000056","v":"001"}
{"_id":245,"_uid":245,"_dt":1454323366915,"_s":"402bf8a1023892da162dfadd78aaa404"}
{"id":"9EN","name":"9EN","_id":{"$wrap":"$oid","v":245}}
{"k":"0000000082","o":"0000000056","v":"001"}
{"_id":246,"_uid":246,"_dt":1454323366915,"_s":"bd16455e2c11f5cb4f3c7968e32a2278"}
{"id":"9GJ","name":"9GJ","_id":{"$wrap":"$oid","v":246}}
{"k":"0000000082","o":"0000000056","v":"001"}
{"_id":247,"_uid":247,"_dt":1454323366915,"_s":"c11e6498d94599e92dccb6032dc85cd1"}
{"id":"9EF","name":"9EF","_id":{"$wrap":"$oid","v":247}}
{"k":"0000000082","o":"0000000056","v":"001"}
{"_id":248,"_uid":248,"_dt":1454323366915,"_s":"396479d0e2f41e37268d7d5972485010"}
{"id":"7EW","name":"7EW","_id":{"$wrap":"$oid","v":248}}
{"k":"0000000082","o":"0000000056","v":"001"}
{"_id":249,"_uid":249,"_dt":1454323366915,"_s":"c01565ece3f8200924742086819977cf"}
{"id":"9LG","name":"9LG","_id":{"$wrap":"$oid","v":249}}
{"k":"0000000082","o":"0000000056","v":"001"}
{"_id":250,"_uid":250,"_dt":1454323366916,"_s":"f471cfddf860f2a01f83eafab97dce5f"}
{"id":"9HN","name":"9HN","_id":{"$wrap":"$oid","v":250}}
{"k":"0000000082","o":"0000000056","v":"001"}
{"_id":251,"_uid":251,"_dt":1454323366916,"_s":"48a9f3259736e508a09e8dae7a06fbb4"}
{"id":"9GR","name":"9GR","_id":{"$wrap":"$oid","v":251}}
{"k":"0000000082","o":"0000000056","v":"001"}
{"_id":252,"_uid":252,"_dt":1454323366916,"_s":"c74ad44d94d4c0767eb204851a40f3a8"}
{"id":"9NY","name":"9NY","_id":{"$wrap":"$oid","v":252}}
{"k":"0000000082","o":"0000000056","v":"001"}
{"_id":253,"_uid":253,"_dt":1454323366916,"_s":"41a70542e3779694b33e1f710129c129"}
{"id":"7DQ","name":"7DQ","_id":{"$wrap":"$oid","v":253}}
{"k":"0000000082","o":"0000000056","v":"001"}
{"_id":254,"_uid":254,"_dt":1454323366916,"_s":"5ae8ea9460724c19b15831145f397bc9"}
{"id":"8JC","name":"8JC","_id":{"$wrap":"$oid","v":254}}
{"k":"0000000082","o":"0000000056","v":"001"}
{"_id":255,"_uid":255,"_dt":1454323366916,"_s":"e52edc03dc2e7b437e41e0c9bc0a30c8"}
{"id":"9HX","name":"9HX","_id":{"$wrap":"$oid","v":255}}
{"k":"0000000082","o":"0000000056","v":"001"}
{"_id":256,"_uid":256,"_dt":1454323366917,"_s":"ff9dbb5f9535d809fe1bfbc493967861"}
{"id":"8JP","name":"8JP","_id":{"$wrap":"$oid","v":256}}
{"k":"0000000082","o":"0000000056","v":"001"}
{"_id":257,"_uid":257,"_dt":1454323366917,"_s":"b50f89305440da1069d0c62e97a365e5"}
{"id":"9JG","name":"9JG","_id":{"$wrap":"$oid","v":257}}
{"k":"0000000082","o":"0000000056","v":"001"}
{"_id":258,"_uid":258,"_dt":1454323366917,"_s":"6959d3cc75b73bd952aa9314a1a5a7f9"}
{"id":"9LS","name":"9LS","_id":{"$wrap":"$oid","v":258}}
{"k":"0000000082","o":"0000000054","v":"001"}
{"_id":259,"_uid":259,"_dt":1454323366917,"_s":"e3cec5dcabea4b3a24103a2487030df9"}
{"id":"8G","name":"8G","_id":{"$wrap":"$oid","v":259}}
{"k":"0000000082","o":"0000000056","v":"001"}
{"_id":260,"_uid":260,"_dt":1454323366917,"_s":"8d63f2307cca1e83bfdfb3658f07159d"}
{"id":"9HF","name":"9HF","_id":{"$wrap":"$oid","v":260}}
{"k":"0000000082","o":"0000000058","v":"001"}
{"_id":261,"_uid":261,"_dt":1454323366918,"_s":"4eece2833996992a4a1d94286e0a7fe8"}
{"id":"12EB","name":"12EB","_id":{"$wrap":"$oid","v":261}}
{"k":"0000000082","o":"0000000056","v":"001"}
{"_id":262,"_uid":262,"_dt":1454323366918,"_s":"f763a98c3dc19e79b46a06ff74e0f0ba"}
{"id":"8JX","name":"8JX","_id":{"$wrap":"$oid","v":262}}
{"k":"0000000082","o":"0000000056","v":"001"}
{"_id":263,"_uid":263,"_dt":1454323366918,"_s":"e736d8f6b8aee9e0ba0d88af3b94dbc5"}
{"id":"9LC","name":"9LC","_id":{"$wrap":"$oid","v":263}}
{"k":"0000000082","o":"0000000056","v":"001"}
{"_id":264,"_uid":264,"_dt":1454323366918,"_s":"ef177af1afb771c546119079b0a74a99"}
{"id":"9NM","name":"9NM","_id":{"$wrap":"$oid","v":264}}
{"k":"0000000082","o":"0000000056","v":"001"}
{"_id":265,"_uid":265,"_dt":1454323366918,"_s":"ff6cacbac722de2ed91d95a38c120cdb"}
{"id":"9GK","name":"9GK","_id":{"$wrap":"$oid","v":265}}
{"k":"0000000082","o":"0000000056","v":"001"}
{"_id":266,"_uid":266,"_dt":1454323366920,"_s":"68a498f36d7391284ed93ef8d6aded7b"}
{"id":"9NZ","name":"9NZ","_id":{"$wrap":"$oid","v":266}}
{"k":"0000000082","o":"0000000056","v":"001"}
{"_id":267,"_uid":267,"_dt":1454323366921,"_s":"bd9b20bdb782e20e3dc9ca095543e1ea"}
{"id":"9LZ","name":"9LZ","_id":{"$wrap":"$oid","v":267}}
{"k":"0000000082","o":"0000000058","v":"001"}
{"_id":268,"_uid":268,"_dt":1454323366921,"_s":"f67344ee156158040e16ccd1aca992dc"}
{"id":"12DR","name":"12DR","_id":{"$wrap":"$oid","v":268}}
{"k":"0000000082","o":"0000000056","v":"001"}
{"_id":269,"_uid":269,"_dt":1454323366922,"_s":"62c7a84e47d93c6cb2d754a73228db17"}
{"id":"9NW","name":"9NW","_id":{"$wrap":"$oid","v":269}}
{"k":"0000000082","o":"0000000058","v":"001"}
{"_id":270,"_uid":270,"_dt":1454323366922,"_s":"0a1b7172a0559b0e13dc1d4e565ede1d"}
{"id":"12FB","name":"12FB","_id":{"$wrap":"$oid","v":270}}
{"k":"0000000082","o":"0000000058","v":"001"}
{"_id":271,"_uid":271,"_dt":1454323366922,"_s":"ec2fec8d49c76ec40b9920d753d2ac53"}
{"id":"12FL","name":"12FL","_id":{"$wrap":"$oid","v":271}}
{"k":"0000000082","o":"0000000058","v":"001"}
{"_id":272,"_uid":272,"_dt":1454323366923,"_s":"0c000dc1a181d0278929c17a1487e118"}
{"id":"12GY","name":"12GY","_id":{"$wrap":"$oid","v":272}}
{"k":"0000000082","o":"0000000056","v":"001"}
{"_id":273,"_uid":273,"_dt":1454323366923,"_s":"780217b6f7af69c372add4b8b4dd6fe2"}
{"id":"9NJ","name":"9NJ","_id":{"$wrap":"$oid","v":273}}
{"k":"0000000082","o":"0000000058","v":"001"}
{"_id":274,"_uid":274,"_dt":1454323366923,"_s":"389c73e2871bf02fb5895b124930781e"}
{"id":"12BT","name":"12BT","_id":{"$wrap":"$oid","v":274}}
{"k":"0000000082","o":"0000000058","v":"001"}
{"_id":275,"_uid":275,"_dt":1454323366923,"_s":"599422f8e30a1d8aae9b4bd2a071f62c"}
{"id":"12FJ","name":"12FJ","_id":{"$wrap":"$oid","v":275}}
{"k":"0000000082","o":"0000000058","v":"001"}
{"_id":276,"_uid":276,"_dt":1454323366924,"_s":"b329b16a6c4c955cda9db619a5b6353c"}
{"id":"12FK","name":"12FK","_id":{"$wrap":"$oid","v":276}}
{"k":"0000000082","o":"0000000058","v":"001"}
{"_id":277,"_uid":277,"_dt":1454323366924,"_s":"a0600c39be901a973f1788408172e036"}
{"id":"12FY","name":"12FY","_id":{"$wrap":"$oid","v":277}}
{"k":"0000000082","o":"0000000054","v":"001"}
{"_id":278,"_uid":278,"_dt":1454323366924,"_s":"e18a9ea20e9159de06ac331ecb926082"}
{"id":"5U","name":"5U","_id":{"$wrap":"$oid","v":278}}
{"k":"0000000082","o":"0000000058","v":"001"}
{"_id":279,"_uid":279,"_dt":1454323366925,"_s":"da8ae2c38db01d56efe7e2bc9ff8b77f"}
{"id":"12GW","name":"12GW","_id":{"$wrap":"$oid","v":279}}
{"k":"0000000082","o":"0000000058","v":"001"}
{"_id":280,"_uid":280,"_dt":1454323366925,"_s":"b0154084b66a99fddc9990ad0f1f6925"}
{"id":"12GJ","name":"12GJ","_id":{"$wrap":"$oid","v":280}}
{"k":"0000000082","o":"0000000058","v":"001"}
{"_id":281,"_uid":281,"_dt":1454323366925,"_s":"2b323fe5ed15fe92517ded2d8d6a302f"}
{"id":"12HL","name":"12HL","_id":{"$wrap":"$oid","v":281}}
{"k":"0000000082","o":"0000000056","v":"001"}
{"_id":282,"_uid":282,"_dt":1454323366925,"_s":"503a10c5b5ea7ba9ae11ac05cd8a782b"}
{"id":"7CA","name":"7CA","_id":{"$wrap":"$oid","v":282}}
{"k":"0000000082","o":"0000000054","v":"001"}
{"_id":283,"_uid":283,"_dt":1454323366926,"_s":"7bce578e1cf3192f3eba9b22ef39cec9"}
{"id":"8B","name":"8B","_id":{"$wrap":"$oid","v":283}}
{"k":"0000000082","o":"0000000054","v":"001"}
{"_id":284,"_uid":284,"_dt":1454323366926,"_s":"c7de58f215e073d5322d94dda4238bca"}
{"id":"7U","name":"7U","_id":{"$wrap":"$oid","v":284}}
{"k":"0000000082","o":"0000000056","v":"001"}
{"_id":285,"_uid":285,"_dt":1454323366926,"_s":"7c0bbdfbbbda10fffd7182872e2ec9b3"}
{"id":"9AC","name":"9AC","_id":{"$wrap":"$oid","v":285}}
{"k":"0000000082","o":"0000000054","v":"001"}
{"_id":286,"_uid":286,"_dt":1454323366926,"_s":"ed56282cc3d5d6bcdc2d5636cd62ab8b"}
{"id":"8S","name":"8S","_id":{"$wrap":"$oid","v":286}}
{"k":"0000000082","o":"0000000054","v":"001"}
{"_id":287,"_uid":287,"_dt":1454323366927,"_s":"45e7b42fbf166c8a0958ce7c78316699"}
{"id":"8Q","name":"8Q","_id":{"$wrap":"$oid","v":287}}
{"k":"0000000082","o":"0000000058","v":"001"}
{"_id":288,"_uid":288,"_dt":1454323366927,"_s":"9faab067c4939a97098d69ac6affadc5"}
{"id":"12FM","name":"12FM","_id":{"$wrap":"$oid","v":288}}
{"k":"0000000082","o":"0000000056","v":"001"}
{"_id":289,"_uid":289,"_dt":1454323366927,"_s":"57fd2872ed5e2decea971dfcb5e934e6"}
{"id":"8HY","name":"8HY","_id":{"$wrap":"$oid","v":289}}
{"k":"0000000082","o":"0000000056","v":"001"}
{"_id":290,"_uid":290,"_dt":1454323366928,"_s":"17e3e83e22f2e2ee60b6e4a64f54a8b8"}
{"id":"9LE","name":"9LE","_id":{"$wrap":"$oid","v":290}}
{"k":"0000000082","o":"0000000056","v":"001"}
{"_id":291,"_uid":291,"_dt":1454323366928,"_s":"9e98916fe9a3254581734892faa9fca2"}
{"id":"9JT","name":"9JT","_id":{"$wrap":"$oid","v":291}}
{"k":"0000000082","o":"0000000056","v":"001"}
{"_id":292,"_uid":292,"_dt":1454323366928,"_s":"84036a05cac9ab0404d711f37e6c2d8b"}
{"id":"9FR","name":"9FR","_id":{"$wrap":"$oid","v":292}}
{"k":"0000000082","o":"0000000056","v":"001"}
{"_id":293,"_uid":293,"_dt":1454323366928,"_s":"25c143db3c7775629b353b5cf0bb8141"}
{"id":"9KE","name":"9KE","_id":{"$wrap":"$oid","v":293}}
{"k":"0000000082","o":"0000000056","v":"001"}
{"_id":294,"_uid":294,"_dt":1454323366929,"_s":"ac17c0a17f4a4c2e2d1df73e84aebd23"}
{"id":"9KS","name":"9KS","_id":{"$wrap":"$oid","v":294}}
{"k":"0000000082","o":"0000000056","v":"001"}
{"_id":295,"_uid":295,"_dt":1454323366930,"_s":"d7fe45c2a89874e6b725d35ebce50cdd"}
{"id":"8KQ","name":"8KQ","_id":{"$wrap":"$oid","v":295}}
{"k":"0000000082","o":"0000000056","v":"001"}
{"_id":296,"_uid":296,"_dt":1454323366930,"_s":"c38e37cda14d8507e5904ede76e2035a"}
{"id":"9PX","name":"9PX","_id":{"$wrap":"$oid","v":296}}
{"k":"0000000082","o":"0000000056","v":"001"}
{"_id":297,"_uid":297,"_dt":1454323366931,"_s":"d6b8a336843f42f576a0a10415c7cb0c"}
{"id":"9RW","name":"9RW","_id":{"$wrap":"$oid","v":297}}
{"k":"0000000082","o":"0000000056","v":"001"}
{"_id":298,"_uid":298,"_dt":1454323366931,"_s":"0aadd38cd940a46626623b7081d498f1"}
{"id":"8BL","name":"8BL","_id":{"$wrap":"$oid","v":298}}
{"k":"0000000082","o":"0000000056","v":"001"}
{"_id":299,"_uid":299,"_dt":1454323366933,"_s":"4f95385bd75bf9095d30897439d4834d"}
{"id":"5AB","name":"5AB","_id":{"$wrap":"$oid","v":299}}
{"k":"0000000082","o":"0000000054","v":"001"}
{"_id":300,"_uid":300,"_dt":1454323366933,"_s":"ddfaef6c4e5eb8cdc61cc238e101e469"}
{"id":"2P","name":"2P","_id":{"$wrap":"$oid","v":300}}
{"k":"0000000082","o":"0000000056","v":"001"}
{"_id":301,"_uid":301,"_dt":1454323366934,"_s":"c63c1b6134daadba94a8d658eb860b83"}
{"id":"9PZ","name":"9PZ","_id":{"$wrap":"$oid","v":301}}
{"k":"0000000082","o":"0000000056","v":"001"}
{"_id":302,"_uid":302,"_dt":1454323366934,"_s":"b41392d541f76a55c0c04d26975abb58"}
{"id":"9QB","name":"9QB","_id":{"$wrap":"$oid","v":302}}
{"k":"0000000082","o":"0000000056","v":"001"}
{"_id":303,"_uid":303,"_dt":1454323366935,"_s":"1f4ef06dc61811aae6768a6310287371"}
{"id":"4AD","name":"4AD","_id":{"$wrap":"$oid","v":303}}
{"k":"0000000082","o":"0000000056","v":"001"}
{"_id":304,"_uid":304,"_dt":1454323366936,"_s":"5afe778cd80d31c9900a9f4a6c0b0a59"}
{"id":"7BQ","name":"7BQ","_id":{"$wrap":"$oid","v":304}}
{"k":"0000000082","o":"0000000058","v":"001"}
{"_id":305,"_uid":305,"_dt":1454323366936,"_s":"da725a32824abbf2611496bbabc958c4"}
{"id":"B7-5","name":"B7-5","_id":{"$wrap":"$oid","v":305}}
{"k":"0000000082","o":"0000000058","v":"001"}
{"_id":306,"_uid":306,"_dt":1454323366936,"_s":"81609266d8457d63755023ebe5da7b70"}
{"id":"B7-6","name":"B7-6","_id":{"$wrap":"$oid","v":306}}
{"k":"0000000082","o":"0000000056","v":"001"}
{"_id":307,"_uid":307,"_dt":1454323366936,"_s":"ef03b782c1458bfe16131c00ebcbd8e6"}
{"id":"9QA","name":"9QA","_id":{"$wrap":"$oid","v":307}}
{"k":"0000000082","o":"0000000056","v":"001"}
{"_id":308,"_uid":308,"_dt":1454323366937,"_s":"1f7598371719627f9f5767427c237218"}
{"id":"7BS","name":"7BS","_id":{"$wrap":"$oid","v":308}}
{"k":"0000000082","o":"0000000056","v":"001"}
{"_id":309,"_uid":309,"_dt":1454323366937,"_s":"6d50f0de94dff22b4090ca542d91d902"}
{"id":"9DC","name":"9DC","_id":{"$wrap":"$oid","v":309}}
{"k":"0000000082","o":"0000000056","v":"001"}
{"_id":310,"_uid":310,"_dt":1454323366938,"_s":"a5843f72835a56e87caa87c48756692c"}
{"id":"7DB","name":"7DB","_id":{"$wrap":"$oid","v":310}}
{"k":"0000000082","o":"0000000062","v":"001"}
{"_id":311,"_uid":311,"_dt":1454323366938,"_s":"a45e6f7d7ad92dc027423e091b74dcc1"}
{"id":"B7G-24","name":"B7G-24","_id":{"$wrap":"$oid","v":311}}
{"k":"0000000082","o":"0000000060","v":"001"}
{"_id":312,"_uid":312,"_dt":1454323366938,"_s":"2eae1c583b1d460c2968867b2412b8ad"}
{"id":"MO-11","name":"MO-11","_id":{"$wrap":"$oid","v":312}}
{"k":"0000000082","o":"0000000058","v":"001"}
{"_id":313,"_uid":313,"_dt":1454323366938,"_s":"f49af194844c22e3b4ba23425681f32d"}
{"id":"B4-1","name":"B4-1","_id":{"$wrap":"$oid","v":313}}
{"k":"0000000082","o":"0000000058","v":"001"}
{"_id":314,"_uid":314,"_dt":1454323366938,"_s":"4f3920c8a9b7df4b330bc8b644d7c9ee"}
{"id":"B4-8","name":"B4-8","_id":{"$wrap":"$oid","v":314}}
{"k":"0000000082","o":"0000000058","v":"001"}
{"_id":315,"_uid":315,"_dt":1454323366938,"_s":"2e3160929bc4220485a2456ef5577040"}
{"id":"B5-6","name":"B5-6","_id":{"$wrap":"$oid","v":315}}
{"k":"0000000082","o":"0000000060","v":"001"}
{"_id":316,"_uid":316,"_dt":1454323366938,"_s":"6019744c5ed7b43cc05d328d6610734a"}
{"id":"B7-24","name":"B7-24","_id":{"$wrap":"$oid","v":316}}
{"k":"0000000082","o":"0000000060","v":"001"}
{"_id":317,"_uid":317,"_dt":1454323366939,"_s":"dae24f16e24611ad983c067a3db9e40c"}
{"id":"B7-37","name":"B7-37","_id":{"$wrap":"$oid","v":317}}
{"k":"0000000082","o":"0000000058","v":"001"}
{"_id":318,"_uid":318,"_dt":1454323366939,"_s":"a3d61119d7b41938eb8c59d57681510a"}
{"id":"B5-2","name":"B5-2","_id":{"$wrap":"$oid","v":318}}
{"k":"0000000082","o":"0000000058","v":"001"}
{"_id":319,"_uid":319,"_dt":1454323366939,"_s":"c406606eae67a05bf04112d9bdcdbbd2"}
{"id":"B4-2","name":"B4-2","_id":{"$wrap":"$oid","v":319}}
{"k":"0000000082","o":"0000000058","v":"001"}
{"_id":320,"_uid":320,"_dt":1454323366939,"_s":"125215191cd45ca38d944a08594668b1"}
{"id":"B4-5","name":"B4-5","_id":{"$wrap":"$oid","v":320}}
{"k":"0000000082","o":"0000000058","v":"001"}
{"_id":321,"_uid":321,"_dt":1454323366939,"_s":"8fd3ebfb705813fe659f2db9043d521a"}
{"id":"B4-6","name":"B4-6","_id":{"$wrap":"$oid","v":321}}
{"k":"0000000082","o":"0000000062","v":"001"}
{"_id":322,"_uid":322,"_dt":1454323366940,"_s":"293f3df6783dd9caaf1c812f6277272f"}
{"id":"UX4-20","name":"UX4-20","_id":{"$wrap":"$oid","v":322}}
{"k":"0000000082","o":"0000000060","v":"001"}
{"_id":323,"_uid":323,"_dt":1454323366940,"_s":"148ff2248e948446627bbf55e9a8646b"}
{"id":"B7-15","name":"B7-15","_id":{"$wrap":"$oid","v":323}}
{"k":"0000000082","o":"0000000058","v":"001"}
{"_id":324,"_uid":324,"_dt":1454323366940,"_s":"84bf2887ec0de5dae4dd83230736af13"}
{"id":"B4-4","name":"B4-4","_id":{"$wrap":"$oid","v":324}}
{"k":"0000000082","o":"0000000060","v":"001"}
{"_id":325,"_uid":325,"_dt":1454323366940,"_s":"3209270055f0b5ad507423234624c538"}
{"id":"B4-14","name":"B4-14","_id":{"$wrap":"$oid","v":325}}
{"k":"0000000082","o":"0000000062","v":"001"}
{"_id":326,"_uid":326,"_dt":1454323366940,"_s":"a099c30fe7a73926212e4a0087645e6d"}
{"id":"B8A-14","name":"B8A-14","_id":{"$wrap":"$oid","v":326}}
{"k":"0000000082","o":"0000000060","v":"001"}
{"_id":327,"_uid":327,"_dt":1454323366940,"_s":"aa06f2cee6c17a6704e4d174c8c2c8d3"}
{"id":"B8A-7","name":"B8A-7","_id":{"$wrap":"$oid","v":327}}
{"k":"0000000082","o":"0000000060","v":"001"}
{"_id":328,"_uid":328,"_dt":1454323366941,"_s":"3b6e4cb508e546de6bb66f07a597c5bc"}
{"id":"B8A-9","name":"B8A-9","_id":{"$wrap":"$oid","v":328}}
{"k":"0000000082","o":"0000000062","v":"001"}
{"_id":329,"_uid":329,"_dt":1454323366941,"_s":"33b7f7f4c34a1e20018f911662ea751d"}
{"id":"B8A-23","name":"B8A-23","_id":{"$wrap":"$oid","v":329}}
{"k":"0000000082","o":"0000000062","v":"001"}
{"_id":330,"_uid":330,"_dt":1454323366941,"_s":"cf24776c0cc41d01bb25826728ea4d18"}
{"id":"IO-138","name":"IO-138","_id":{"$wrap":"$oid","v":330}}
{"k":"0000000082","o":"0000000060","v":"001"}
{"_id":331,"_uid":331,"_dt":1454323366941,"_s":"754164dfa04d6fd9c7d65366d7268b0b"}
{"id":"IO-48","name":"IO-48","_id":{"$wrap":"$oid","v":331}}
{"k":"0000000082","o":"0000000060","v":"001"}
{"_id":332,"_uid":332,"_dt":1454323366941,"_s":"d27c44270c4614fd9957374c2f4aa212"}
{"id":"DA100","name":"DA100","_id":{"$wrap":"$oid","v":332}}
{"k":"0000000082","o":"0000000060","v":"001"}
{"_id":333,"_uid":333,"_dt":1454323366942,"_s":"42b60f50098d4b68e8da31cd9872d852"}
{"id":"DA250","name":"DA250","_id":{"$wrap":"$oid","v":333}}
{"k":"0000000082","o":"0000000058","v":"001"}
{"_id":334,"_uid":334,"_dt":1454323366942,"_s":"a393e1ab2ece14dfa7048fb134a18737"}
{"id":"B7-9","name":"B7-9","_id":{"$wrap":"$oid","v":334}}
{"k":"0000000082","o":"0000000062","v":"001"}
{"_id":335,"_uid":335,"_dt":1454323366942,"_s":"d1d02ce67fbfcd1ff453087943f0298e"}
{"id":"B8B-62","name":"B8B-62","_id":{"$wrap":"$oid","v":335}}
{"k":"0000000082","o":"0000000062","v":"001"}
{"_id":336,"_uid":336,"_dt":1454323366942,"_s":"360bb69fb7afecb4bcd023be36d52293"}
{"id":"B9A-86","name":"B9A-86","_id":{"$wrap":"$oid","v":336}}
{"k":"0000000082","o":"0000000064","v":"001"}
{"_id":337,"_uid":337,"_dt":1454323366942,"_s":"960adb4e648471cdc4fac3cee64b4892"}
{"id":"IO-129A","name":"IO-129A","_id":{"$wrap":"$oid","v":337}}
{"k":"0000000082","o":"0000000060","v":"001"}
{"_id":338,"_uid":338,"_dt":1454323366942,"_s":"a6e16f4736945ff8aa16f57642f4208d"}
{"id":"B9D-2","name":"B9D-2","_id":{"$wrap":"$oid","v":338}}
{"k":"0000000082","o":"0000000058","v":"001"}
{"_id":339,"_uid":339,"_dt":1454323366942,"_s":"5c9c2dc0032efeddb40ea56bc8ae1ad1"}
{"id":"B5-5","name":"B5-5","_id":{"$wrap":"$oid","v":339}}
{"k":"0000000082","o":"0000000060","v":"001"}
{"_id":340,"_uid":340,"_dt":1454323366943,"_s":"22846cb4581a9503c12c72cb598be905"}
{"id":"TT100","name":"TT100","_id":{"$wrap":"$oid","v":340}}
{"k":"0000000082","o":"0000000060","v":"001"}
{"_id":341,"_uid":341,"_dt":1454323366943,"_s":"f29356f346aaaf3eeada4a79db8a2c28"}
{"id":"B8A-1","name":"B8A-1","_id":{"$wrap":"$oid","v":341}}
{"k":"0000000082","o":"0000000062","v":"001"}
{"_id":342,"_uid":342,"_dt":1454323366943,"_s":"429591c8afb32732ae7b7998c75d39d5"}
{"id":"B8B-42","name":"B8B-42","_id":{"$wrap":"$oid","v":342}}
{"k":"0000000082","o":"0000000060","v":"001"}
{"_id":343,"_uid":343,"_dt":1454323366943,"_s":"ccb909dee59ada9bed8b3babf627f576"}
{"id":"B8A-8","name":"B8A-8","_id":{"$wrap":"$oid","v":343}}
