[
    {
        "id": "4D",
        "name": "4D"
    },
    {
        "id": "9CV",
        "name": "9CV"
    },
    {
        "id": "B5-3",
        "name": "B5-3"
    },
    {
        "id": "6BT",
        "name": "6BT"
    },
    {
        "id": "9HE",
        "name": "9HE"
    },
    {
        "id": "9QD",
        "name": "9QD"
    },
    {
        "id": "9QZ",
        "name": "9QZ"
    },
    {
        "id": "9DX",
        "name": "9DX"
    },
    {
        "id": "6R",
        "name": "6R"
    },
    {
        "id": "12EZ",
        "name": "12EZ"
    },
    {
        "id": "8AO",
        "name": "8AO"
    },
    {
        "id": "5AA",
        "name": "5AA"
    },
    {
        "id": "9EX",
        "name": "9EX"
    },
    {
        "id": "12DM",
        "name": "12DM"
    },
    {
        "id": "6AM",
        "name": "6AM"
    },
    {
        "id": "10L",
        "name": "10L"
    },
    {
        "id": "7AC",
        "name": "7AC"
    },
    {
        "id": "9EU",
        "name": "9EU"
    },
    {
        "id": "12FE",
        "name": "12FE"
    },
    {
        "id": "7BK",
        "name": "7BK"
    },
    {
        "id": "9A",
        "name": "9A"
    },
    {
        "id": "7BT",
        "name": "7BT"
    },
    {
        "id": "8BE",
        "name": "8BE"
    },
    {
        "id": "7BZ",
        "name": "7BZ"
    },
    {
        "id": "7CV",
        "name": "7CV"
    },
    {
        "id": "4CG",
        "name": "4CG"
    },
    {
        "id": "9AG",
        "name": "9AG"
    },
    {
        "id": "8CT",
        "name": "8CT"
    },
    {
        "id": "7CH",
        "name": "7CH"
    },
    {
        "id": "9BF",
        "name": "9BF"
    },
    {
        "id": "7CM",
        "name": "7CM"
    },
    {
        "id": "8E",
        "name": "8E"
    },
    {
        "id": "9CK",
        "name": "9CK"
    },
    {
        "id": "B9A-36",
        "name": "B9A-36"
    },
    {
        "id": "9HR",
        "name": "9HR"
    },
    {
        "id": "9DE",
        "name": "9DE"
    },
    {
        "id": "6Q",
        "name": "6Q"
    },
    {
        "id": "9LP",
        "name": "9LP"
    },
    {
        "id": "7R",
        "name": "7R"
    },
    {
        "id": "9QL",
        "name": "9QL"
    },
    {
        "id": "7FD",
        "name": "7FD"
    },
    {
        "id": "7V",
        "name": "7V"
    },
    {
        "id": "8R",
        "name": "8R"
    },
    {
        "id": "8N",
        "name": "8N"
    },
    {
        "id": "8BD",
        "name": "8BD"
    },
    {
        "id": "5BS",
        "name": "5BS"
    },
    {
        "id": "B7A-2",
        "name": "B7A-2"
    },
    {
        "id": "12EJ",
        "name": "12EJ"
    },
    {
        "id": "9NH",
        "name": "9NH"
    },
    {
        "id": "12DZ",
        "name": "12DZ"
    },
    {
        "id": "8AC",
        "name": "8AC"
    },
    {
        "id": "8W",
        "name": "8W"
    },
    {
        "id": "12GL",
        "name": "12GL"
    },
    {
        "id": "8V",
        "name": "8V"
    },
    {
        "id": "10N",
        "name": "10N"
    },
    {
        "id": "7T",
        "name": "7T"
    },
    {
        "id": "5AZ",
        "name": "5AZ"
    },
    {
        "id": "9HP",
        "name": "9HP"
    },
    {
        "id": "9AJ",
        "name": "9AJ"
    },
    {
        "id": "9QU",
        "name": "9QU"
    },
    {
        "id": "9CB",
        "name": "9CB"
    },
    {
        "id": "7CC",
        "name": "7CC"
    },
    {
        "id": "5BT",
        "name": "5BT"
    },
    {
        "id": "9DB",
        "name": "9DB"
    },
    {
        "id": "9FX",
        "name": "9FX"
    },
    {
        "id": "9AE",
        "name": "9AE"
    },
    {
        "id": "B9A-18",
        "name": "B9A-18"
    },
    {
        "id": "5AP",
        "name": "5AP"
    },
    {
        "id": "4M",
        "name": "4M"
    },
    {
        "id": "4K",
        "name": "4K"
    },
    {
        "id": "6X",
        "name": "6X"
    },
    {
        "id": "6L",
        "name": "6L"
    },
    {
        "id": "7Z",
        "name": "7Z"
    },
    {
        "id": "5BF",
        "name": "5BF"
    },
    {
        "id": "8CP",
        "name": "8CP"
    },
    {
        "id": "12GV",
        "name": "12GV"
    },
    {
        "id": "6AR",
        "name": "6AR"
    },
    {
        "id": "6AU",
        "name": "6AU"
    },
    {
        "id": "12EL",
        "name": "12EL"
    },
    {
        "id": "7AT",
        "name": "7AT"
    },
    {
        "id": "6BW",
        "name": "6BW"
    },
    {
        "id": "9U",
        "name": "9U"
    },
    {
        "id": "3C",
        "name": "3C"
    },
    {
        "id": "9Y",
        "name": "9Y"
    },
    {
        "id": "6M",
        "name": "6M"
    },
    {
        "id": "8AW",
        "name": "8AW"
    },
    {
        "id": "9RG",
        "name": "9RG"
    },
    {
        "id": "12HZ",
        "name": "12HZ"
    },
    {
        "id": "5CF",
        "name": "5CF"
    },
    {
        "id": "8CN",
        "name": "8CN"
    },
    {
        "id": "8DN",
        "name": "8DN"
    },
    {
        "id": "B5-8",
        "name": "B5-8"
    },
    {
        "id": "5Y",
        "name": "5Y"
    },
    {
        "id": "5R",
        "name": "5R"
    },
    {
        "id": "8AJ",
        "name": "8AJ"
    },
    {
        "id": "8ND",
        "name": "8ND"
    },
    {
        "id": "7DK",
        "name": "7DK"
    },
    {
        "id": "5S",
        "name": "5S"
    },
    {
        "id": "8C",
        "name": "8C"
    },
    {
        "id": "5K",
        "name": "5K"
    },
    {
        "id": "6W",
        "name": "6W"
    },
    {
        "id": "7AF",
        "name": "7AF"
    },
    {
        "id": "7AB",
        "name": "7AB"
    },
    {
        "id": "5Z",
        "name": "5Z"
    },
    {
        "id": "7AA",
        "name": "7AA"
    },
    {
        "id": "7DC",
        "name": "7DC"
    },
    {
        "id": "5AD",
        "name": "5AD"
    },
    {
        "id": "7AK",
        "name": "7AK"
    },
    {
        "id": "8AX",
        "name": "8AX"
    },
    {
        "id": "7AO",
        "name": "7AO"
    },
    {
        "id": "6AX",
        "name": "6AX"
    },
    {
        "id": "4AA",
        "name": "4AA"
    },
    {
        "id": "5AG",
        "name": "5AG"
    },
    {
        "id": "7AM",
        "name": "7AM"
    },
    {
        "id": "6BX",
        "name": "6BX"
    },
    {
        "id": "6AF",
        "name": "6AF"
    },
    {
        "id": "8CO",
        "name": "8CO"
    },
    {
        "id": "4AH",
        "name": "4AH"
    },
    {
        "id": "9DT",
        "name": "9DT"
    },
    {
        "id": "7AV",
        "name": "7AV"
    },
    {
        "id": "8DA",
        "name": "8DA"
    },
    {
        "id": "6BD",
        "name": "6BD"
    },
    {
        "id": "6BE",
        "name": "6BE"
    },
    {
        "id": "4G",
        "name": "4G"
    },
    {
        "id": "5BZ",
        "name": "5BZ"
    },
    {
        "id": "4P",
        "name": "4P"
    },
    {
        "id": "7CB",
        "name": "7CB"
    },
    {
        "id": "4AZ",
        "name": "4AZ"
    },
    {
        "id": "9AS",
        "name": "9AS"
    },
    {
        "id": "8GT",
        "name": "8GT"
    },
    {
        "id": "6E",
        "name": "6E"
    },
    {
        "id": "7Q",
        "name": "7Q"
    },
    {
        "id": "8NC",
        "name": "8NC"
    },
    {
        "id": "5A",
        "name": "5A"
    },
    {
        "id": "5L",
        "name": "5L"
    },
    {
        "id": "6B",
        "name": "6B"
    },
    {
        "id": "6G",
        "name": "6G"
    },
    {
        "id": "7C",
        "name": "7C"
    },
    {
        "id": "12DG",
        "name": "12DG"
    },
    {
        "id": "12EW",
        "name": "12EW"
    },
    {
        "id": "B3G-1",
        "name": "B3G-1"
    },
    {
        "id": "9RT",
        "name": "9RT"
    },
    {
        "id": "2C40",
        "name": "2C40"
    },
    {
        "id": "6AA",
        "name": "6AA"
    },
    {
        "id": "8CJ",
        "name": "8CJ"
    },
    {
        "id": "9JL",
        "name": "9JL"
    },
    {
        "id": "7CL",
        "name": "7CL"
    },
    {
        "id": "7CK",
        "name": "7CK"
    },
    {
        "id": "7FP",
        "name": "7FP"
    },
    {
        "id": "4AB",
        "name": "4AB"
    },
    {
        "id": "9AQ",
        "name": "9AQ"
    },
    {
        "id": "9FC",
        "name": "9FC"
    },
    {
        "id": "B9A-27",
        "name": "B9A-27"
    },
    {
        "id": "9LY",
        "name": "9LY"
    },
    {
        "id": "5BQ",
        "name": "5BQ"
    },
    {
        "id": "5AL",
        "name": "5AL"
    },
    {
        "id": "4Z",
        "name": "4Z"
    },
    {
        "id": "6AD",
        "name": "6AD"
    },
    {
        "id": "8EZ",
        "name": "8EZ"
    },
    {
        "id": "3G",
        "name": "3G"
    },
    {
        "id": "5DE",
        "name": "5DE"
    },
    {
        "id": "B7A-1",
        "name": "B7A-1"
    },
    {
        "id": "9PM",
        "name": "9PM"
    },
    {
        "id": "7BA",
        "name": "7BA"
    },
    {
        "id": "7AP",
        "name": "7AP"
    },
    {
        "id": "9RJ",
        "name": "9RJ"
    },
    {
        "id": "5B",
        "name": "5B"
    },
    {
        "id": "9BJ",
        "name": "9BJ"
    },
    {
        "id": "B7-23",
        "name": "B7-23"
    },
    {
        "id": "9GA",
        "name": "9GA"
    },
    {
        "id": "B7G-79",
        "name": "B7G-79"
    },
    {
        "id": "7GM",
        "name": "7GM"
    },
    {
        "id": "9GF",
        "name": "9GF"
    },
    {
        "id": "8KB",
        "name": "8KB"
    },
    {
        "id": "7BD",
        "name": "7BD"
    },
    {
        "id": "9H",
        "name": "9H"
    },
    {
        "id": "6F",
        "name": "6F"
    },
    {
        "id": "7BN",
        "name": "7BN"
    },
    {
        "id": "9K",
        "name": "9K"
    },
    {
        "id": "9V",
        "name": "9V"
    },
    {
        "id": "9AD",
        "name": "9AD"
    },
    {
        "id": "5AW",
        "name": "5AW"
    },
    {
        "id": "9DA",
        "name": "9DA"
    },
    {
        "id": "5T",
        "name": "5T"
    },
    {
        "id": "5Q",
        "name": "5Q"
    },
    {
        "id": "9AK",
        "name": "9AK"
    },
    {
        "id": "10K",
        "name": "10K"
    },
    {
        "id": "4C",
        "name": "4C"
    },
    {
        "id": "4AX",
        "name": "4AX"
    },
    {
        "id": "7BF",
        "name": "7BF"
    },
    {
        "id": "9BC",
        "name": "9BC"
    },
    {
        "id": "9AM",
        "name": "9AM"
    },
    {
        "id": "6BQ",
        "name": "6BQ"
    },
    {
        "id": "6BG",
        "name": "6BG"
    },
    {
        "id": "8DG",
        "name": "8DG"
    },
    {
        "id": "9BV",
        "name": "9BV"
    },
    {
        "id": "8FO",
        "name": "8FO"
    },
    {
        "id": "9CQ",
        "name": "9CQ"
    },
    {
        "id": "9CZ",
        "name": "9CZ"
    },
    {
        "id": "B9A-30",
        "name": "B9A-30"
    },
    {
        "id": "B5B-1",
        "name": "B5B-1"
    },
    {
        "id": "8FY",
        "name": "8FY"
    },
    {
        "id": "9EQ",
        "name": "9EQ"
    },
    {
        "id": "7EQ",
        "name": "7EQ"
    },
    {
        "id": "9GB",
        "name": "9GB"
    },
    {
        "id": "7B",
        "name": "7B"
    },
    {
        "id": "8A",
        "name": "8A"
    },
    {
        "id": "5CE",
        "name": "5CE"
    },
    {
        "id": "B9A-13",
        "name": "B9A-13"
    },
    {
        "id": "7W",
        "name": "7W"
    },
    {
        "id": "12GN",
        "name": "12GN"
    },
    {
        "id": "8DK",
        "name": "8DK"
    },
    {
        "id": "7AG",
        "name": "7AG"
    },
    {
        "id": "8AY",
        "name": "8AY"
    },
    {
        "id": "7AH",
        "name": "7AH"
    },
    {
        "id": "12DA",
        "name": "12DA"
    },
    {
        "id": "9CA",
        "name": "9CA"
    },
    {
        "id": "9E",
        "name": "9E"
    },
    {
        "id": "B7G-25",
        "name": "B7G-25"
    },
    {
        "id": "6CK",
        "name": "6CK"
    },
    {
        "id": "12BY",
        "name": "12BY"
    },
    {
        "id": "12BL",
        "name": "12BL"
    },
    {
        "id": "6S",
        "name": "6S"
    },
    {
        "id": "9ED",
        "name": "9ED"
    },
    {
        "id": "12BF",
        "name": "12BF"
    },
    {
        "id": "9AX",
        "name": "9AX"
    },
    {
        "id": "9BQ",
        "name": "9BQ"
    },
    {
        "id": "9ER",
        "name": "9ER"
    },
    {
        "id": "9FA",
        "name": "9FA"
    },
    {
        "id": "9FG",
        "name": "9FG"
    },
    {
        "id": "9FJ",
        "name": "9FJ"
    },
    {
        "id": "9DJ",
        "name": "9DJ"
    },
    {
        "id": "6CN",
        "name": "6CN"
    },
    {
        "id": "12FX",
        "name": "12FX"
    },
    {
        "id": "9M",
        "name": "9M"
    },
    {
        "id": "8EP",
        "name": "8EP"
    },
    {
        "id": "8GD",
        "name": "8GD"
    },
    {
        "id": "9FT",
        "name": "9FT"
    },
    {
        "id": "9SD",
        "name": "9SD"
    },
    {
        "id": "8JB",
        "name": "8JB"
    },
    {
        "id": "B9A-14",
        "name": "B9A-14"
    },
    {
        "id": "9ES",
        "name": "9ES"
    },
    {
        "id": "9FZ",
        "name": "9FZ"
    },
    {
        "id": "9EN",
        "name": "9EN"
    },
    {
        "id": "9GJ",
        "name": "9GJ"
    },
    {
        "id": "9EF",
        "name": "9EF"
    },
    {
        "id": "7EW",
        "name": "7EW"
    },
    {
        "id": "9LG",
        "name": "9LG"
    },
    {
        "id": "9HN",
        "name": "9HN"
    },
    {
        "id": "9GR",
        "name": "9GR"
    },
    {
        "id": "9NY",
        "name": "9NY"
    },
    {
        "id": "7DQ",
        "name": "7DQ"
    },
    {
        "id": "8JC",
        "name": "8JC"
    },
    {
        "id": "9HX",
        "name": "9HX"
    },
    {
        "id": "8JP",
        "name": "8JP"
    },
    {
        "id": "9JG",
        "name": "9JG"
    },
    {
        "id": "9LS",
        "name": "9LS"
    },
    {
        "id": "8G",
        "name": "8G"
    },
    {
        "id": "9HF",
        "name": "9HF"
    },
    {
        "id": "12EB",
        "name": "12EB"
    },
    {
        "id": "8JX",
        "name": "8JX"
    },
    {
        "id": "9LC",
        "name": "9LC"
    },
    {
        "id": "9NM",
        "name": "9NM"
    },
    {
        "id": "9GK",
        "name": "9GK"
    },
    {
        "id": "9NZ",
        "name": "9NZ"
    },
    {
        "id": "9LZ",
        "name": "9LZ"
    },
    {
        "id": "12DR",
        "name": "12DR"
    },
    {
        "id": "9NW",
        "name": "9NW"
    },
    {
        "id": "12FB",
        "name": "12FB"
    },
    {
        "id": "12FL",
        "name": "12FL"
    },
    {
        "id": "12GY",
        "name": "12GY"
    },
    {
        "id": "9NJ",
        "name": "9NJ"
    },
    {
        "id": "12BT",
        "name": "12BT"
    },
    {
        "id": "12FJ",
        "name": "12FJ"
    },
    {
        "id": "12FK",
        "name": "12FK"
    },
    {
        "id": "12FY",
        "name": "12FY"
    },
    {
        "id": "5U",
        "name": "5U"
    },
    {
        "id": "12GW",
        "name": "12GW"
    },
    {
        "id": "12GJ",
        "name": "12GJ"
    },
    {
        "id": "12HL",
        "name": "12HL"
    },
    {
        "id": "7CA",
        "name": "7CA"
    },
    {
        "id": "8B",
        "name": "8B"
    },
    {
        "id": "7U",
        "name": "7U"
    },
    {
        "id": "9AC",
        "name": "9AC"
    },
    {
        "id": "8S",
        "name": "8S"
    },
    {
        "id": "8Q",
        "name": "8Q"
    },
    {
        "id": "12FM",
        "name": "12FM"
    },
    {
        "id": "8HY",
        "name": "8HY"
    },
    {
        "id": "9LE",
        "name": "9LE"
    },
    {
        "id": "9JT",
        "name": "9JT"
    },
    {
        "id": "9FR",
        "name": "9FR"
    },
    {
        "id": "9KE",
        "name": "9KE"
    },
    {
        "id": "9KS",
        "name": "9KS"
    },
    {
        "id": "8KQ",
        "name": "8KQ"
    },
    {
        "id": "9PX",
        "name": "9PX"
    },
    {
        "id": "9RW",
        "name": "9RW"
    },
    {
        "id": "8BL",
        "name": "8BL"
    },
    {
        "id": "5AB",
        "name": "5AB"
    },
    {
        "id": "2P",
        "name": "2P"
    },
    {
        "id": "9PZ",
        "name": "9PZ"
    },
    {
        "id": "9QB",
        "name": "9QB"
    },
    {
        "id": "4AD",
        "name": "4AD"
    },
    {
        "id": "7BQ",
        "name": "7BQ"
    },
    {
        "id": "B7-5",
        "name": "B7-5"
    },
    {
        "id": "B7-6",
        "name": "B7-6"
    },
    {
        "id": "9QA",
        "name": "9QA"
    },
    {
        "id": "7BS",
        "name": "7BS"
    },
    {
        "id": "9DC",
        "name": "9DC"
    },
    {
        "id": "7DB",
        "name": "7DB"
    },
    {
        "id": "B7G-24",
        "name": "B7G-24"
    },
    {
        "id": "MO-11",
        "name": "MO-11"
    },
    {
        "id": "B4-1",
        "name": "B4-1"
    },
    {
        "id": "B4-8",
        "name": "B4-8"
    },
    {
        "id": "B5-6",
        "name": "B5-6"
    },
    {
        "id": "B7-24",
        "name": "B7-24"
    },
    {
        "id": "B7-37",
        "name": "B7-37"
    },
    {
        "id": "B5-2",
        "name": "B5-2"
    },
    {
        "id": "B4-2",
        "name": "B4-2"
    },
    {
        "id": "B4-5",
        "name": "B4-5"
    },
    {
        "id": "B4-6",
        "name": "B4-6"
    },
    {
        "id": "UX4-20",
        "name": "UX4-20"
    },
    {
        "id": "B7-15",
        "name": "B7-15"
    },
    {
        "id": "B4-4",
        "name": "B4-4"
    },
    {
        "id": "B4-14",
        "name": "B4-14"
    },
    {
        "id": "B8A-14",
        "name": "B8A-14"
    },
    {
        "id": "B8A-7",
        "name": "B8A-7"
    },
    {
        "id": "B8A-9",
        "name": "B8A-9"
    },
    {
        "id": "B8A-23",
        "name": "B8A-23"
    },
    {
        "id": "IO-138",
        "name": "IO-138"
    },
    {
        "id": "IO-48",
        "name": "IO-48"
    },
    {
        "id": "DA100",
        "name": "DA100"
    },
    {
        "id": "DA250",
        "name": "DA250"
    },
    {
        "id": "B7-9",
        "name": "B7-9"
    },
    {
        "id": "B8B-62",
        "name": "B8B-62"
    },
    {
        "id": "B9A-86",
        "name": "B9A-86"
    },
    {
        "id": "IO-129A",
        "name": "IO-129A"
    },
    {
        "id": "B9D-2",
        "name": "B9D-2"
    },
    {
        "id": "B5-5",
        "name": "B5-5"
    },
    {
        "id": "TT100",
        "name": "TT100"
    },
    {
        "id": "B8A-1",
        "name": "B8A-1"
    },
    {
        "id": "B8B-42",
        "name": "B8B-42"
    },
    {
        "id": "B8A-8",
        "name": "B8A-8"
    }
]